csv saver/84_1/vacum_ut.csv

#Digilent WaveForms Oscilloscope Acquisition
#Device Name: Discovery2
#Serial Number: SN:210321B2DC85
#Date Time: 2023-08-27 14:14:29.375
#Sample rate: 8000Hz
#Samples: 29394
#Trigger: Source: Channel 1 Type: Edge Condition: Rising Level: -11.02 mV Hyst.: Auto HoldOff: 0 s
#Math 1: Function: C1 - C2

Time (s),Math 1 (V)
-16.384,-0.009980405699171711
-16.383875,0.00101892752468693
-16.38375,0.00101892752468693
-16.383625,0.001018927524682071
-16.3835,0.0006849966731075634
-16.383375,0.000684996673102704
-16.38325,0.000684996673102704
-16.383125,0.000684996673102704
-16.383,0.000684996673102704
-16.382875,0.0006849966730978447
-16.38275,0.0003510658215233369
-16.382625,0.0003510658215184776
-16.3825,0.0003510658215184776
-16.382375,0.0003510658215184776
-16.38225,0.0003510658215184776
-16.382125,0.0003510658215184776
-16.382,0.0003510658215184776
-16.381875,1.713496993424775e-05
-16.38175,1.713496993424775e-05
-16.381625,1.713496993424775e-05
-16.3815,1.713496993424775e-05
-16.381375,1.713496993424775e-05
-16.38125,1.713496993424775e-05
-16.381125,1.713496993424775e-05
-16.381,1.713496993424775e-05
-16.380875,1.713496993424775e-05
-16.38075,1.713496993424775e-05
-16.380625,1.713496993424775e-05
-16.3805,1.713496993424775e-05
-16.380375,1.713496993424775e-05
-16.38025,0.0003490273336763886
-16.380125,1.713496993424775e-05
-16.38,1.713496993424775e-05
-16.379875,1.713496993424775e-05
-16.37975,1.713496993424775e-05
-16.379625,1.713496993424775e-05
-16.3795,1.713496993424775e-05
-16.379375,1.713496993424775e-05
-16.37925,1.713496992455875e-05
-16.379125,-0.0006486882453872898
-16.379,-0.0003167958816548083
-16.378875,1.509648209216223e-05
-16.37875,-0.0003167958816499786
-16.378625,-0.0003167958816499786
-16.3785,-0.000650726733234205
-16.378375,-0.000650726733234205
-16.37825,-0.000650726733234205
-16.378125,1.509648209216223e-05
-16.378,1.509648209216223e-05
-16.377875,1.713496993424775e-05
-16.37775,1.713496993424775e-05
-16.377625,1.713496993424775e-05
-16.3775,1.713496993424775e-05
-16.377375,1.713496993424775e-05
-16.37725,1.713496993424775e-05
-16.377125,1.713496993424775e-05
-16.377,1.713496993424775e-05
-16.376875,1.713496993424775e-05
-16.37675,1.713496993424775e-05
-16.376625,1.713496993424775e-05
-16.3765,1.713496993424775e-05
-16.376375,1.713496993424775e-05
-16.37625,1.713496993424775e-05
-16.376125,1.713496993424775e-05
-16.376,1.713496993424775e-05
-16.375875,0.0003510658215184776
-16.37575,1.713496993424775e-05
-16.375625,0.0003510658215184776
-16.3755,0.0003510658215184776
-16.375375,0.0003510658215136183
-16.37525,1.713496993910709e-05
-16.375125,0.0003510658215184776
-16.375,0.0003510658215184776
-16.374875,0.0003510658215184776
-16.37475,0.0003510658215184776
-16.374625,0.0003510658215184776
-16.3745,0.0003510658215184776
-16.374375,0.0003510658215184776
-16.37425,0.0003510658215184776
-16.374125,0.0003510658215184776
-16.374,0.0003510658215184776
-16.373875,0.0003510658215184776
-16.37375,0.0003510658215184776
-16.373625,0.0003510658215184776
-16.3735,0.0003510658215184776
-16.373375,0.0003510658215184776
-16.37325,0.0003510658215184776
-16.373125,0.0003510658215184776
-16.373,0.0003510658215184776
-16.372875,0.0003510658215184776
-16.37275,0.0003510658215184776
-16.372625,0.0003510658215184776
-16.3725,0.0003510658215184776
-16.372375,0.0003510658215184776
-16.37225,0.0003510658215184776
-16.372125,0.0003510658215184776
-16.372,0.0003510658215184776
-16.371875,0.0003510658215184776
-16.37175,0.0003510658215184776
-16.371625,0.0003510658215184776
-16.3715,0.0006849966730978446
-16.371375,0.0003510658215184776
-16.37125,0.0003510658215184776
-16.371125,0.000684996673102704
-16.371,0.000684996673102704
-16.370875,0.000684996673102704
-16.37075,0.001016889036840015
-16.370625,0.000684996673102704
-16.3705,0.000684996673102704
-16.370375,0.001016889036844845
-16.37025,0.001016889036840015
-16.370125,0.0006849966731075337
-16.37,0.000684996673102704
-16.369875,0.000684996673102704
-16.36975,0.000684996673102704
-16.369625,0.000684996673102704
-16.3695,0.000684996673102704
-16.369375,0.000684996673102704
-16.36925,0.000684996673102704
-16.369125,0.0003510658215184776
-16.369,0.0003510658215184776
-16.368875,0.0003510658215184776
-16.36875,0.0003510658215184776
-16.368625,0.0003510658215184776
-16.3685,0.0003510658215184776
-16.368375,0.0003510658215184776
-16.36825,0.0003510658215184776
-16.368125,1.713496993424775e-05
-16.368,1.713496993424775e-05
-16.367875,1.713496993424775e-05
-16.36775,1.713496993424775e-05
-16.367625,1.713496993424775e-05
-16.3675,1.713496993424775e-05
-16.367375,-0.0003167958816499786
-16.36725,-0.0003167958816499786
-16.367125,-0.0003167958816499786
-16.367,-0.0003167958816499786
-16.366875,-0.0003167958816499786
-16.36675,-0.0003167958816499786
-16.366625,-0.0003167958816499786
-16.3665,-0.0003167958816499786
-16.366375,-0.0003167958816499786
-16.36625,-0.0003167958816499786
-16.366125,1.509648209216223e-05
-16.366,1.509648209216223e-05
-16.365875,-0.0003167958816499786
-16.36575,-0.0003167958816499786
-16.365625,-0.0003167958816499786
-16.3655,-0.0003167958816499786
-16.365375,1.509648209216223e-05
-16.36525,-0.0003167958816499786
-16.365125,-0.0006507267332245161
-16.365,1.509648208733256e-05
-16.364875,-0.000316795881645149
-16.36475,-0.0003167958816499786
-16.364625,-0.0003167958816499786
-16.3645,-0.0003167958816499786
-16.364375,-0.0003167958816499786
-16.36425,-0.000316795881654838
-16.364125,-0.0006507267332293456
-16.364,-0.0003167958816499786
-16.363875,-0.0003167958816499786
-16.36375,0.0003490273336763886
-16.363625,-0.0003167958816451193
-16.3635,1.713496993907742e-05
-16.363375,0.0003490273336715589
-16.36325,1.713496993424775e-05
-16.363125,1.713496993424775e-05
-16.363,1.713496993424775e-05
-16.362875,1.713496993424775e-05
-16.36275,1.713496993424775e-05
-16.362625,1.713496993424775e-05
-16.3625,1.713496993424775e-05
-16.362375,-0.0006486882453921195
-16.36225,0.0003490273336763886
-16.362125,0.0003490273336715589
-16.362,1.713496993424775e-05
-16.361875,1.713496993424775e-05
-16.36175,1.713496993424775e-05
-16.361625,0.0003490273336763886
-16.3615,0.0006829581852606185
-16.361375,0.0006829581852557888
-16.36125,0.0003510658215184776
-16.361125,0.0003510658215184776
-16.361,0.000684996673102704
-16.360875,0.000684996673102704
-16.36075,0.000684996673102704
-16.360625,0.000684996673102704
-16.3605,0.000684996673102704
-16.360375,0.000684996673102704
-16.36025,0.000684996673102704
-16.360125,0.000684996673102704
-16.36,0.000684996673102704
-16.359875,0.000684996673102704
-16.35975,0.000684996673102704
-16.359625,0.000684996673102704
-16.3595,0.00101892752468693
-16.359375,0.00101892752468693
-16.35925,0.00101892752468693
-16.359125,0.00101892752468693
-16.359,0.00101892752468693
-16.358875,0.00101892752468693
-16.35875,0.00135285837627116
-16.358625,0.00101892752468693
-16.3585,0.00101892752468693
-16.358375,0.00101892752468693
-16.35825,0.00101892752468693
-16.358125,0.001352858376266301
-16.358,0.00135285837627116
-16.357875,0.001684750740013301
-16.35775,0.00135285837627116
-16.357625,0.00135285837627116
-16.3575,0.00135285837627116
-16.357375,0.00135285837627116
-16.35725,0.00135285837627116
-16.357125,0.00135285837627116
-16.357,0.00135285837627116
-16.356875,0.00135285837627116
-16.35675,0.00135285837627116
-16.356625,0.00135285837627116
-16.3565,0.001686789227855387
-16.356375,0.001686789227855387
-16.35625,0.001686789227855387
-16.356125,0.00135285837627602
-16.356,0.001686789227850527
-16.355875,0.001686789227855387
-16.35575,0.001686789227855387
-16.355625,0.001686789227855387
-16.3555,0.001686789227855387
-16.355375,0.001686789227855387
-16.35525,0.001686789227855387
-16.355125,0.001686789227855387
-16.355,0.001686789227855387
-16.354875,0.002020720079439613
-16.35475,0.001686789227855387
-16.354625,0.001686789227855387
-16.3545,0.001686789227855387
-16.354375,0.001686789227855387
-16.35425,0.001686789227855387
-16.354125,0.002018681591597528
-16.354,0.002352612443181754
-16.353875,0.001686789227860246
-16.35375,0.002020720079434754
-16.353625,0.002352612443176924
-16.3535,0.002020720079439613
-16.353375,0.002020720079439613
-16.35325,0.002020720079439613
-16.353125,0.002020720079439613
-16.353,0.002020720079439613
-16.352875,0.002020720079439613
-16.35275,0.002020720079439613
-16.352625,0.002020720079439613
-16.3525,0.002020720079439613
-16.352375,0.001686789227855387
-16.35225,0.001686789227855387
-16.352125,0.002020720079439613
-16.352,0.001686789227855387
-16.351875,0.001686789227855387
-16.35175,0.001686789227855387
-16.351625,0.001686789227855387
-16.3515,0.001686789227855387
-16.351375,0.00135285837627116
-16.35125,0.001686789227855387
-16.351125,0.00135285837627116
-16.351,0.00135285837627116
-16.350875,0.00135285837627116
-16.35075,0.00135285837627116
-16.350625,0.00135285837627116
-16.3505,0.00135285837627116
-16.350375,0.00135285837627116
-16.35025,0.00101892752468693
-16.350125,0.00101892752468693
-16.35,0.00101892752468693
-16.349875,0.00101892752468693
-16.34975,0.000684996673102704
-16.349625,0.000684996673102704
-16.3495,0.0006849966731075633
-16.349375,0.00101892752468693
-16.34925,0.00101892752468693
-16.349125,0.00101892752468693
-16.349,0.000684996673102704
-16.348875,0.00101892752468693
-16.34875,0.000684996673102704
-16.348625,0.000684996673093015
-16.3485,1.917345778602571e-05
-16.348375,0.0003510658215184776
-16.34825,0.000684996673102704
-16.348125,0.000684996673102704
-16.348,0.0003510658215184776
-16.347875,0.0003510658215184776
-16.34775,0.0003510658215184776
-16.347625,0.0006829581852606185
-16.3475,0.0003510658215184776
-16.347375,0.0003510658215184776
-16.34725,0.0006829581852557888
-16.347125,0.0003510658215184776
-16.347,0.0003510658215184776
-16.346875,0.0003510658215184776
-16.34675,0.0003510658215184776
-16.346625,0.0006829581852606185
-16.3465,0.0003510658215184776
-16.346375,0.0003510658215184776
-16.34625,0.0003510658215184776
-16.346125,0.0003510658215184776
-16.346,0.0003510658215184776
-16.345875,0.0003510658215184776
-16.34575,-0.0003147573938030634
-16.345625,1.713496993907742e-05
-16.3455,0.0003490273336715589
-16.345375,0.0003510658215184776
-16.34525,1.713496993424775e-05
-16.345125,1.713496993424775e-05
-16.345,1.713496993907742e-05
-16.344875,0.000349027333681248
-16.34475,0.0006829581852557591
-16.344625,0.0003510658215184776
-16.3445,0.0003510658215184776
-16.344375,0.0003510658215184776
-16.34425,0.0003510658215184776
-16.344125,0.0003510658215184776
-16.344,0.0003510658215184776
-16.343875,0.0003510658215184776
-16.34375,0.000684996673102704
-16.343625,0.0003510658215184776
-16.3435,0.0003510658215184776
-16.343375,0.0003510658215184776
-16.34325,0.0003510658215184776
-16.343125,0.000684996673102704
-16.343,0.0003510658215184776
-16.342875,0.0003510658215184776
-16.34275,0.0003510658215281666
-16.342625,0.001016889036835156
-16.3425,0.0003510658215281666
-16.342375,0.0003510658215184776
-16.34225,0.000684996673102704
-16.342125,0.000684996673102704
-16.342,0.0006849966730978447
-16.341875,0.0003510658215233369
-16.34175,0.0006849966730978446
-16.341625,0.000684996673102704
-16.3415,0.000684996673102704
-16.341375,0.000684996673102704
-16.34125,0.000684996673102704
-16.341125,0.000684996673102704
-16.341,0.000684996673102704
-16.340875,0.0003510658215184776
-16.34075,0.0003510658215184776
-16.340625,0.0003510658215184776
-16.3405,0.0003510658215184776
-16.340375,0.0003510658215184776
-16.34025,0.0003510658215184776
-16.340125,0.0003510658215184776
-16.34,0.0006829581852606185
-16.339875,0.0006829581852606185
-16.33975,0.0003510658215184776
-16.339625,0.0003510658215184776
-16.3395,0.0003510658215184776
-16.339375,0.0003510658215184776
-16.33925,0.0006829581852606185
-16.339125,0.0003510658215184776
-16.339,0.0003510658215233369
-16.338875,0.0006849966730978446
-16.33875,0.0006829581852606482
-16.338625,0.0006829581852606185
-16.3385,0.0003510658215184776
-16.338375,0.0003510658215184776
-16.33825,0.0003510658215184776
-16.338125,0.0003510658215184776
-16.338,0.0003510658215184776
-16.337875,0.0006829581852606185
-16.33775,0.0003510658215184776
-16.337625,0.0006829581852606185
-16.3375,0.0003510658215233073
-16.337375,0.0006829581852557888
-16.33725,0.0003510658215233073
-16.337125,0.0003510658215184776
-16.337,0.001016889036844845
-16.336875,0.001016889036844845
-16.33675,0.000684996673102704
-16.336625,0.000684996673102704
-16.3365,0.0003510658215184776
-16.336375,0.0003510658215184776
-16.33625,0.0003510658215184776
-16.336125,0.0003510658215184776
-16.336,0.0003510658215184776
-16.335875,0.0003510658215184776
-16.33575,0.0003510658215184776
-16.335625,0.0003510658215184776
-16.3355,0.0003510658215184776
-16.335375,0.0003510658215184776
-16.33525,1.713496993424775e-05
-16.335125,1.713496993424775e-05
-16.335,1.713496993424775e-05
-16.334875,1.713496993424775e-05
-16.33475,1.713496993424775e-05
-16.334625,1.713496993424775e-05
-16.3345,1.713496992938842e-05
-16.334375,-0.0003167958816451193
-16.33425,-0.0003167958816499786
-16.334125,-0.0003167958816499786
-16.334,-0.0003167958816499786
-16.333875,-0.0003167958816499786
-16.33375,-0.0003167958816499786
-16.333625,-0.0003167958816499786
-16.3335,-0.000650726733234205
-16.333375,-0.0003167958816499786
-16.33325,-0.000650726733234205
-16.333125,-0.000650726733234205
-16.333,-0.000650726733234205
-16.332875,-0.000650726733234205
-16.33275,-0.000650726733234205
-16.332625,-0.000650726733234205
-16.3325,-0.000650726733234205
-16.332375,-0.000650726733234205
-16.33225,-0.000650726733234205
-16.332125,-0.000650726733234205
-16.332,-0.000650726733234205
-16.331875,-0.0009846575848184349
-16.33175,-0.0009846575848184349
-16.331625,-0.0009846575848184349
-16.3315,-0.0009846575848184349
-16.331375,-0.0009846575848184349
-16.33125,-0.0009846575848184349
-16.331125,-0.0009846575848184349
-16.331,-0.0009846575848184349
-16.330875,-0.0009846575848184349
-16.33075,-0.0009846575848184349
-16.330625,-0.0009846575848184349
-16.3305,-0.0009846575848184349
-16.330375,-0.0009846575848184349
-16.33025,-0.0009846575848184349
-16.330125,-0.0006507267332390643
-16.33,-0.0009846575848135755
-16.329875,-0.0006507267332390644
-16.32975,-0.000650726733234205
-16.329625,-0.000650726733234205
-16.3295,-0.000650726733234205
-16.329375,-0.000650726733234205
-16.32925,-0.000650726733243894
-16.329125,-0.001316549948550887
-16.329,-0.001316549948560576
-16.328875,-0.0003188343694920642
-16.32875,-0.000650726733234205
-16.328625,-0.0009846575848184349
-16.3285,-0.0009846575848135755
-16.328375,-0.0006507267332390644
-16.32825,-0.0009846575848184349
-16.328125,-0.0003188343694920642
-16.328,-0.000650726733234205
-16.327875,-0.0006507267332293457
-16.32775,-0.000316795881654838
-16.327625,-0.0003167958816499786
-16.3275,-0.0003167958816499786
-16.327375,-0.0003167958816499786
-16.32725,-0.0003167958816499786
-16.327125,-0.0003167958816499786
-16.327,-0.0003167958816499786
-16.326875,1.713496992938841e-05
-16.32675,1.713496993424775e-05
-16.326625,1.713496993424775e-05
-16.3265,1.713496993424775e-05
-16.326375,1.713496993424775e-05
-16.32625,1.713496993424775e-05
-16.326125,1.713496993424775e-05
-16.326,0.0003510658215184776
-16.325875,0.0003510658215184776
-16.32575,0.0003510658215184776
-16.325625,0.0003510658215184776
-16.3255,0.0003510658215184776
-16.325375,0.0003510658215184776
-16.32525,0.0003510658215184776
-16.325125,0.0003510658215184776
-16.325,0.0003510658215184776
-16.324875,0.0003510658215233369
-16.32475,0.0006849966730978446
-16.324625,0.000684996673102704
-16.3245,0.000684996673102704
-16.324375,0.000684996673102704
-16.32425,0.000684996673102704
-16.324125,0.000684996673102704
-16.324,0.000684996673102704
-16.323875,0.000684996673102704
-16.32375,0.000684996673102704
-16.323625,0.00101892752468693
-16.3235,0.00101892752468693
-16.323375,0.0006849966731075633
-16.32325,0.001018927524682071
-16.323125,0.00101892752468693
-16.323,0.00101892752468693
-16.322875,0.00101892752468693
-16.32275,0.00101892752468693
-16.322625,0.00101892752468693
-16.3225,0.00101892752468693
-16.322375,0.00101892752468693
-16.32225,0.00135285837627116
-16.322125,0.00135285837627116
-16.322,0.00135285837627116
-16.321875,0.00135285837627116
-16.32175,0.00135285837627116
-16.321625,0.00135285837627116
-16.3215,0.00135285837627116
-16.321375,0.001686789227855387
-16.32125,0.001686789227855387
-16.321125,0.001686789227855387
-16.321,0.001686789227855387
-16.320875,0.001686789227855387
-16.32075,0.002018681591597528
-16.320625,0.002352612443181754
-16.3205,0.002020720079439613
-16.320375,0.002020720079449302
-16.32025,0.002686543294756295
-16.320125,0.002020720079439613
-16.32,0.002354650931023843
-16.319875,0.002354650931023843
-16.31975,0.002354650931023843
-16.319625,0.002354650931023843
-16.3195,0.002354650931023843
-16.319375,0.002354650931023843
-16.31925,0.002354650931023843
-16.319125,0.002354650931023843
-16.319,0.002354650931023843
-16.318875,0.002354650931023843
-16.31875,0.002354650931023843
-16.318625,0.002354650931023843
-16.3185,0.002354650931023843
-16.318375,0.002354650931023843
-16.31825,0.002354650931023843
-16.318125,0.002354650931023843
-16.318,0.002354650931023843
-16.317875,0.002354650931023843
-16.31775,0.002354650931023843
-16.317625,0.002354650931023843
-16.3175,0.002354650931023843
-16.317375,0.002354650931023843
-16.31725,0.002354650931023843
-16.317125,0.002020720079439613
-16.317,0.002020720079439613
-16.316875,0.002354650931023843
-16.31675,0.002020720079439613
-16.316625,0.002020720079439613
-16.3165,0.002020720079439613
-16.316375,0.002354650931023843
-16.31625,0.002020720079439613
-16.316125,0.002020720079439613
-16.316,0.002020720079439613
-16.315875,0.002020720079439613
-16.31575,0.002020720079439613
-16.315625,0.002020720079439613
-16.3155,0.002020720079439613
-16.315375,0.002020720079439613
-16.31525,0.002020720079434754
-16.315125,0.001686789227855387
-16.315,0.001686789227855387
-16.314875,0.001686789227855387
-16.31475,0.001686789227855387
-16.314625,0.001686789227855387
-16.3145,0.001686789227855387
-16.314375,0.001686789227855387
-16.31425,0.001686789227855387
-16.314125,0.001686789227855387
-16.314,0.001686789227855387
-16.313875,0.001686789227855387
-16.31375,0.001686789227855387
-16.313625,0.001686789227855387
-16.3135,0.001686789227855387
-16.313375,0.001686789227855387
-16.31325,0.001686789227855387
-16.313125,0.001686789227855387
-16.313,0.002020720079434754
-16.312875,0.001686789227855387
-16.31275,0.001686789227855387
-16.312625,0.001686789227855387
-16.3125,0.001686789227855387
-16.312375,0.0006890736487868785
-16.31225,0.00135285837627602
-16.312125,0.001686789227850527
-16.312,0.00135285837627602
-16.311875,0.00135285837627116
-16.31175,0.00135285837627116
-16.311625,0.00135285837627116
-16.3115,0.001684750740018161
-16.311375,0.002018681591592668
-16.31125,0.001686789227860216
-16.311125,0.001686789227855387
-16.311,0.001686789227855387
-16.310875,0.001686789227855387
-16.31075,0.001686789227855387
-16.310625,0.001686789227855387
-16.3105,0.001686789227855387
-16.310375,0.001686789227855387
-16.31025,0.001686789227855387
-16.310125,0.001686789227855387
-16.31,0.001686789227860246
-16.309875,0.002020720079434754
-16.30975,0.002020720079439613
-16.309625,0.002020720079439613
-16.3095,0.001686789227855387
-16.309375,0.001686789227855387
-16.30925,0.001686789227855387
-16.309125,0.001686789227855387
-16.309,0.002020720079434754
-16.308875,0.001686789227855387
-16.30875,0.001686789227855387
-16.308625,0.002020720079439613
-16.3085,0.002020720079439613
-16.308375,0.002020720079439613
-16.30825,0.001686789227860246
-16.308125,0.002020720079439613
-16.308,0.001686789227855387
-16.307875,0.001686789227855387
-16.30775,0.001686789227855387
-16.307625,0.001686789227855387
-16.3075,0.001686789227855387
-16.307375,0.001686789227855387
-16.30725,0.001686789227855387
-16.307125,0.001686789227855387
-16.307,0.001686789227855387
-16.306875,0.001686789227855387
-16.30675,0.001686789227855387
-16.306625,0.001686789227855387
-16.3065,0.001686789227855387
