csv saver/84_2/air_fryer.csv

#Digilent WaveForms Oscilloscope Acquisition
#Device Name: Discovery2
#Serial Number: SN:210321B2DC85
#Date Time: 2023-08-27 14:22:31.919
#Sample rate: 8000Hz
#Samples: 28506
#Trigger: Source: Channel 1 Type: Edge Condition: Rising Level: -11.02 mV Hyst.: Auto HoldOff: 0 s
#Math 1: Function: C1 - C2

Time (s),Math 1 (V)
-16.384,0.1319361292484409
-16.383875,0.1830132801259331
-16.38375,0.1763346630942485
-16.383625,0.1693221152108777
-16.3835,0.162309567327813
-16.383375,0.1546271192534317
-16.38325,0.146278847963826
-16.383125,0.1382645075258045
-16.383,0.1302501670877831
-16.382875,0.1212360725827489
-16.38275,0.1142235246996842
-16.382625,0.1102163544805715
-16.3825,0.08683711789399136
-16.382375,0.0477692467464788
-16.38225,0.02973901924877259
-16.382125,0.0006849966724661313
-16.382,-0.04305994488379454
-16.381875,-0.08413343962929112
-16.38175,-0.1218655873704668
-16.381625,-0.1579321578294054
-16.3815,-0.1949984823557843
-16.381375,-0.2313949066905648
-16.38125,-0.2637861992932922
-16.381125,-0.290834598272086
-16.381,-0.3165472738440715
-16.380875,-0.342259949416057
-16.38075,-0.366972870921506
-16.380625,-0.3926855464935159
-16.3805,-0.4200658378347836
-16.380375,-0.4451106517039991
-16.38025,-0.4671500879085582
-16.380125,-0.4861841464488591
-16.38,-0.501878896473381
-16.379875,-0.5062179590561631
-16.37975,-0.5125646837239207
-16.379625,-0.5172397156461923
-16.3795,-0.5199111624588661
-16.379375,-0.5195772316072819
-16.37925,-0.5189093699041134
-16.379125,-0.518909369904094
-16.379,-0.5175736464977959
-16.378875,-0.5152361305366869
-16.37875,-0.5112289603176762
-16.378625,-0.5058860666923286
-16.3785,-0.5002092422152946
-16.378375,-0.4931966943319918
-16.37825,-0.4838466304879056
-16.378125,-0.4708233272759846
-16.378,-0.4551285772515259
-16.377875,-0.4417713431881569
-16.37775,-0.4317534176404356
-16.377625,-0.4183961835770228
-16.3775,-0.4020335718498718
-16.377375,-0.3866727526767593
-16.37725,-0.372981587761806
-16.377125,-0.3616299772957843
-16.377,-0.3369170557901068
-16.376875,-0.2955096301938521
-16.37675,-0.2671255078100189
-16.376625,-0.2487593109724733
-16.3765,-0.2167019492203874
-16.376375,-0.1732909385144378
-16.37625,-0.1345549597301378
-16.376125,-0.0981564969074958
-16.376,-0.06442948089847039
-16.375875,-0.03838491296225193
-16.37575,-0.01801513101561404
-16.375625,-0.001652519287986891
-16.3755,0.01204068411497375
-16.375375,0.02339433306880833
-16.37525,0.03274439691289457
-16.375125,0.04176052990580479
-16.375,0.05077462441073685
-16.374875,0.05979075740351099
-16.37475,0.06847499803267421
-16.374625,0.07749113102518596
-16.3745,0.08717512572111884
-16.374375,0.09418563511668644
-16.37425,0.106545153600987
-16.374125,0.1656509143313953
-16.374,0.2003756459207381
-16.373875,0.2187438812451782
-16.37375,0.2521369664033822
-16.373625,0.2948801154066493
-16.3735,0.3342839558935882
-16.373375,0.3696806261615163
-16.37325,0.3733518270410376
-16.373125,0.369012764458411
-16.373,0.3660053483062915
-16.372875,0.3623341474266633
-16.37275,0.3593287697624052
-16.372625,0.3563233920981472
-16.3725,0.3533180144338406
-16.372375,0.3499787059180955
-16.37225,0.3473072591054119
-16.372125,0.3439679505895308
-16.372,0.3406286420736885
-16.371875,0.336955402706262
-16.37175,0.3326143016356039
-16.371625,0.3282732005651353
-16.3715,0.3262696154555959
-16.371375,0.3219264758971297
-16.37125,0.3179193056781189
-16.371125,0.3132442737559398
-16.371,0.3089031726852817
-16.370875,0.3045641101026551
-16.37075,0.3012248015867982
-16.370625,0.2972176313677389
-16.3705,0.2938762843640546
-16.370375,0.2902030449966281
-16.37025,0.2861958747775639
-16.370125,0.2825226354102443
-16.37,0.2785154651912384
-16.369875,0.2745103334600115
-16.36975,0.2708370940925849
-16.369625,0.2674977855767426
-16.3695,0.2641584770608469
-16.369375,0.2604852376935273
-16.36925,0.2568119983261009
-16.369125,0.2534726898102051
-16.369,0.2497994504427787
-16.368875,0.2467940727785206
-16.36875,0.2434527257747585
-16.368625,0.2381098321495663
-16.3685,0.2341047004183782
-16.368375,0.2307653919024777
-16.36825,0.2267582216834669
-16.368125,0.2230829438281983
-16.368,0.218741842757545
-16.367875,0.214734672538651
-16.36775,0.2097277482526713
-16.367625,0.2030491312209868
-16.3675,0.1980401684472233
-16.367375,0.1933630980372021
-16.36725,0.1873523427085742
-16.367125,0.1796739716102026
-16.367,0.17265938523898
-16.366875,0.1656488758435532
-16.36675,0.1586342894724424
-16.366625,0.1506199490344209
-16.3665,0.142605608596278
-16.366375,0.1342573373069152
-16.36625,0.1255751351656038
-16.366125,0.1172268638759981
-16.366,0.1132217321448295
-16.365875,0.1018660447025211
-16.36575,0.06045658061846811
-16.365625,0.03508191287448949
-16.3655,0.01137078392379799
-16.365375,-0.02936877996947779
-16.36525,-0.07044227471433778
-16.365125,-0.1068407375375677
-16.365,-0.1445728852787677
-16.364875,-0.1839787642524018
-16.36475,-0.2203751885878139
-16.364625,-0.2524325503398998
-16.3645,-0.280484780360817
-16.364375,-0.3078650717032606
-16.36425,-0.3339137166146433
-16.364125,-0.3579567379280079
-16.364,-0.3823336900940064
-16.363875,-0.4107178124786657
-16.36375,-0.4380981038207303
-16.363625,-0.4611393325803093
-16.3635,-0.4795055294174078
-16.363375,-0.4955342102929842
-16.36325,-0.5045503432859917
-16.363125,-0.5125646837240131
-16.363,-0.5169057847946081
-16.362875,-0.5189093699041134
-16.36275,-0.5189114083919506
-16.362625,-0.5185754390525341
-16.3625,-0.5189093699041134
-16.362375,-0.5182415082009449
-16.36225,-0.5159039922398554
-16.362125,-0.5122307528723609
-16.362,-0.507555720950172
-16.361875,-0.5022128273249797
-16.36175,-0.4958681411448017
-16.361625,-0.4878538007067802
-16.3615,-0.4754983591981639
-16.361375,-0.459803609173501
-16.36125,-0.4457785134070072
-16.361125,-0.4347587953050484
-16.361,-0.4234051463510243
-16.360875,-0.4087121888813183
-16.36075,-0.3920156463021069
-16.360625,-0.3749851728711219
-16.3605,-0.3619639081471644
-16.360375,-0.347936773893193
-16.36025,-0.3108704493671396
-16.360125,-0.2774773642087168
-16.36,-0.2564397205589105
-16.359875,-0.2257180822125687
-16.35975,-0.1849785183193561
-16.359625,-0.1485800554977346
-16.3595,-0.114853039487198
-16.359375,-0.07645099155501178
-16.35925,-0.04472959914235226
-16.359125,-0.02135443953118906
-16.359,-0.002988242694591064
-16.358875,0.01237257647832714
-16.35875,0.02472801798716709
-16.358625,0.03507987438627815
-16.3585,0.04442993823063653
-16.358375,0.05344607122353701
-16.35825,0.06212827336447424
-16.358125,0.07014465229034748
-16.358,0.07882481594381197
-16.357875,0.08817691827601244
-16.35775,0.09719305126878658
-16.357625,0.1022020140432255
-16.3575,0.1486204408999242
-16.357375,0.1960345448491859
-16.35725,0.2130650182806715
-16.357125,0.2421190408563414
-16.357,0.2868657749686279
-16.356875,0.3266035463076709
-16.35675,0.3623341474261433
-16.356625,0.3743536195956785
-16.3565,0.3700125185252585
-16.356375,0.366339279157832
-16.35625,0.3629999706419897
-16.356125,0.3596627006139506
-16.356,0.3569892153135125
-16.355875,0.3536499067976799
-16.35575,0.3506445291333732
-16.355625,0.3473072591053731
-16.3555,0.3446337738048572
-16.355375,0.3412944652889663
-16.35525,0.3379551567732212
-16.355125,0.3339479865542201
-16.355,0.3292729546319827
-16.354875,0.3259336461161404
-16.35475,0.3232621993034666
-16.354625,0.3185871673812193
-16.3545,0.3139121354591763
-16.354375,0.3095710343885764
-16.35425,0.3052299333179183
-16.354125,0.301890624802076
-16.354,0.2978834545830653
-16.353875,0.2942102152155805
-16.35375,0.2902030449966864
-16.353625,0.286529805629255
-16.3535,0.2828565662617751
-16.353375,0.2788493960427643
-16.35325,0.275510087526922
-16.353125,0.2715029173078579
-16.353,0.2678296779405382
-16.352875,0.2644903694246911
-16.35275,0.2604852376934739
-16.352625,0.2574778215413738
-16.3525,0.2538045821739472
-16.352375,0.2504652736580515
-16.35225,0.246792034290732
-16.352125,0.2437866566264204
-16.352,0.2384437630010728
-16.351875,0.2344365927820621
-16.35175,0.231431215117804
-16.351625,0.227092152534988
-16.3515,0.2227510514645194
-16.351375,0.2187438812454454
-16.35125,0.2147367110264347
-16.351125,0.2103956099558398
-16.351,0.2040509237757394
-16.350875,0.1980381299593084
-16.35075,0.1930291671856907
-16.350625,0.187352342708686
-16.3505,0.1803397948254172
-16.350375,0.1733272469421484
-16.35025,0.1669825607619412
-16.350125,0.1596360820270736
-16.35,0.1512878107377109
-16.349875,0.1429395394479837
-16.34975,0.1349251990099622
-16.349625,0.1265769277203565
-16.3495,0.1182286564306634
-16.349375,0.1122199395900088
-16.34925,0.1075428691801236
-16.349125,0.07414774553379071
-16.349,0.03875311375370465
-16.348875,0.02172264032290904
-16.34875,-0.01167044483618431
-16.348625,-0.05775290235472022
-16.3485,-0.09782256605581927
-16.348375,-0.133887098027499
-16.34825,-0.1699536684864376
-16.348125,-0.2076878547154553
-16.348,-0.2437503481991472
-16.347875,-0.2738041248416597
-16.34775,-0.2991828695613223
-16.347625,-0.3252294759852614
-16.3475,-0.3506102591935047
-16.347375,-0.3756550730623218
-16.34725,-0.4020335718500274
-16.347125,-0.4290819708283158
-16.347,-0.4537928538448294
-16.346875,-0.4748304974949954
-16.34675,-0.4921949017773752
-16.346625,-0.5042164124344074
-16.3465,-0.507889651801936
-16.346375,-0.5149021996851805
-16.34625,-0.5202450933103726
-16.346125,-0.5215808167167872
-16.346,-0.5209129550136188
-16.345875,-0.5195772316072819
-16.34575,-0.5189093699040891
-16.345625,-0.5172397156461583
-16.3455,-0.5149021996851367
-16.345375,-0.5105610986145077
-16.34525,-0.5055521358407443
-16.345125,-0.499207449660644
-16.345,-0.4915270400740513
-16.344875,-0.4808412528233122
-16.34475,-0.4671500879087574
-16.344625,-0.4524571304388521
-16.3445,-0.4401037274180778
-16.344375,-0.428748039976372
-16.34425,-0.4140550825064279
-16.344125,-0.3976924707788201
-16.344,-0.3826655824579672
-16.343875,-0.3689744175427952
-16.34375,-0.3566189760341788
-16.343625,-0.3235577832394981
-16.3435,-0.2854917046464176
-16.343375,-0.2634543069303421
-16.34325,-0.2410789013863616
-16.343125,-0.2026768534538498
-16.343,-0.1612694278574056
-16.342875,-0.1255388267378933
-16.34275,-0.08914240240261719
-16.342625,-0.05908862576091138
-16.3425,-0.03571346614991827
-16.342375,-0.01768120016402982
-16.34225,-0.002654311842739574
-16.342125,0.01003506051746108
-16.342,0.02072084776829242
-16.341875,0.03007091161237867
-16.34175,0.03875515224142037
-16.341625,0.0477692467464788
-16.3415,0.05645144888766872
-16.341375,0.06513365102885864
-16.34125,0.07481764572493246
-16.341125,0.08383581720528625
-16.341,0.08917871083068737
-16.340875,0.1145594940390085
-16.34075,0.1729953545784062
-16.340625,0.1983720608109655
-16.3405,0.2190757736097562
-16.340375,0.2581477217318158
-16.34025,0.3005569398829641
-16.340125,0.3386250569641832
-16.34,0.3730178961895165
-16.339875,0.3733518270411008
-16.33975,0.3696785876736208
-16.339625,0.3660053483063012
-16.3395,0.362666039790454
-16.339375,0.3596606621261474
-16.33925,0.355989461246563
-16.339125,0.3533180144338892
-16.339,0.349978705918008
-16.338875,0.3473052206175699
-16.33875,0.3442998429533167
-16.338625,0.3406266035858465
-16.3385,0.3366214718546778
-16.338375,0.332612263147825
-16.33825,0.3282711620772009
-16.338125,0.3262675769677538
-16.338,0.3215925450456135
-16.337875,0.3172514439749505
-16.33775,0.3125764120527713
-16.337625,0.3082353109821764
-16.3375,0.3045620716146916
-16.337375,0.3005549013957974
-16.33725,0.2965497696646288
-16.337125,0.2932084226608861
-16.337,0.2892012524418754
-16.336875,0.2855280130744489
-16.33675,0.2818547737069641
-16.336625,0.2778476034880699
-16.3365,0.2735085409052588
-16.336375,0.2701692323894165
-16.33625,0.26649599302199
-16.336125,0.2631566845061477
-16.336,0.2594834451386677
-16.335875,0.2558102057713482
-16.33575,0.2524708972554524
-16.335625,0.248797657888026
-16.3355,0.24612417258751
-16.335375,0.2414491406653309
-16.33525,0.2367741087431079
-16.335125,0.2337687310789373
-16.335,0.2300954917114671
-16.334875,0.2257543906408721
-16.33475,0.221079358718693
-16.334625,0.2174061193511984
-16.3345,0.2127331259168419
-16.334375,0.2067223705885007
-16.33425,0.2003756459204708
-16.334125,0.1947008599313811
-16.334,0.1893559278181914
-16.333875,0.1826773107864047
-16.33375,0.175664762903136
-16.333625,0.1686542535079133
-16.3335,0.1619756364761268
-16.333375,0.1542931884018474
-16.33325,0.1459449171122418
-16.333125,0.1379305766740988
-16.333,0.1295823053844931
-16.332875,0.1212340340951304
-16.33275,0.1132217321448295
-16.332625,0.1098824236289872
-16.3325,0.08884070300349672
-16.332375,0.05010676270729141
-16.33225,0.0310727041668155
-16.332125,1.71349703861623e-05
-16.332,-0.04305994488443111
-16.331875,-0.08079209262560674
-16.33175,-0.1171925939361297
-16.331625,-0.1562625035720625
-16.3315,-0.1959982364226561
-16.331375,-0.2297272909195235
-16.33125,-0.2607808216295055
-16.331125,-0.2881651899472542
-16.331,-0.3155475197771609
-16.330875,-0.3422619879042441
-16.33075,-0.3659710783667437
-16.330625,-0.3910158922348319
-16.3305,-0.4187321529166872
-16.330375,-0.4444427900008306
-16.33025,-0.4661482953538055
-16.330125,-0.484180561339587
-16.33,-0.5002092422154696
-16.329875,-0.5052182049890872
-16.32975,-0.5128986145755974
-16.329625,-0.5175736464977765
-16.3295,-0.5199111624588661
-16.329375,-0.519577231607277
-16.32925,-0.5192433007556928
-16.329125,-0.5189093699041183
-16.329,-0.5179075773493608
-16.328875,-0.5152361305366869
-16.32875,-0.5115628911692605
-16.328625,-0.5062199975438302
-16.3285,-0.5005431730668789
-16.328375,-0.4935306251838141
-16.32825,-0.4841805613393537
-16.328125,-0.4708233272759846
-16.328,-0.4561303698062786
-16.327875,-0.4437749282974921
-16.32775,-0.4320873484923843
-16.327625,-0.4180622527258808
-16.3275,-0.4033692952559707
-16.327375,-0.3883424069346804
-16.32725,-0.3726476569102217
-16.327125,-0.360628184740706
-16.327,-0.3382527791973719
-16.326875,-0.2981810770075221
-16.32675,-0.268797200555369
-16.326625,-0.2490932418240575
-16.3265,-0.2163680183688032
-16.326375,-0.1752945236233989
-16.32625,-0.1378942682470539
-16.326125,-0.1014978439122006
-16.326,-0.06810272026540609
-16.325875,-0.04205815232967844
-16.32575,-0.022356232086209
-16.325625,-0.00565968950679353
-16.3255,0.008365406259335847
-16.325375,0.01971905521323846
-16.32525,0.02907115754560414
-16.325125,0.03808729053837828
-16.325,0.04710138504331034
-16.324875,0.05578358718463146
-16.32475,0.06479972017714321
-16.324625,0.07348396080618005
-16.3245,0.08383377871757539
-16.324375,0.09118229594027048
-16.32425,0.1032058450851448
-16.324125,0.1599740898549396
-16.324,0.1926952363335575
-16.323875,0.212065264213479
-16.32375,0.2477958653332733
-16.323625,0.2908729451876386
-16.3235,0.3292729546319827
-16.323375,0.3660073867942307
-16.32325,0.3756893430020494
-16.323125,0.3710163495679212
-16.323,0.3676770410520109
-16.322875,0.3643377325361687
-16.32275,0.3609984240203264
-16.322625,0.3579930463560246
-16.3225,0.3549876686918541
-16.322375,0.3516483601760166
-16.32225,0.3489769133632942
-16.322125,0.3456376048474519
-16.322,0.3426301886953518
-16.321875,0.3386250569641249
-16.32175,0.3346178867452307
-16.321625,0.3299428548230613
-16.3215,0.3276053388619036
-16.321375,0.3239300610066351
-16.32125,0.3192550290844559
-16.321125,0.3149139280137929
-16.321,0.3102409345795918
-16.320875,0.3062337643605131
-16.32075,0.3032263482084129
-16.320625,0.2985533547740759
-16.3205,0.2948801154066493
-16.320375,0.2908729451875852
-16.32025,0.2871997058202655
-16.320125,0.2835264664527856
-16.32,0.2795192962337749
-16.319875,0.2758460568663483
-16.31975,0.2718388866473376
-16.319625,0.2684995781314468
-16.3195,0.2651602696157017
-16.319375,0.2614870302482266
-16.31925,0.2581456832445422
-16.319125,0.2544724438771157
-16.319,0.2507992045096358
-16.318875,0.2471280036300659
-16.31875,0.2444545183296278
-16.318625,0.238777693852657
-16.3185,0.2351044544852305
-16.318375,0.2314332536056461
-16.31825,0.2274260833865722
-16.318125,0.2230829438281401
-16.318,0.219077812097088
-16.317875,0.2154025342417611
-16.31775,0.2100616791042555
-16.317625,0.2030491312209868
-16.3175,0.1977062375955711
-16.317375,0.1930291671855304
-16.31725,0.1870204503450313
-16.317125,0.1800079024616751
-16.317,0.1729953545784062
-16.316875,0.1659807682072954
-16.31675,0.1586342894723257
-16.316625,0.1506199490343043
-16.3165,0.1426056085965161
-16.316375,0.1342573373067938
-16.31625,0.1262429968687723
-16.316125,0.1175607947275824
-16.316,0.1128878012930849
-16.315875,0.1018660447025259
-16.31575,0.06079051147101932
-16.315625,0.0370854979836256
-16.3155,0.01437616158805603
-16.315375,-0.02636340230521973
-16.31525,-0.06843868960537666
-16.315125,-0.1058389449828102
-16.315,-0.1432392003591552
-16.314875,-0.1809733865887171
-16.31475,-0.216036126005061
-16.314625,-0.2504289652303944
-16.3145,-0.2804827418733685
-16.314375,-0.3075311408516618
-16.31425,-0.332577993207592
-16.314125,-0.3569549453736051
-16.314,-0.3823316516061643
-16.313875,-0.4090461197329025
-16.31375,-0.4357605878599906
-16.313625,-0.4598036091739821
-16.3135,-0.4788376677137291
-16.313375,-0.4952002794416333
-16.31325,-0.5038824815828232
-16.313125,-0.5112289603176762
-16.313,-0.5169057847946519
-16.312875,-0.519911162458871
-16.31275,-0.5202450933104454
-16.312625,-0.5192433007556977
-16.3125,-0.5189093699041134
-16.312375,-0.5185754390525292
-16.31225,-0.5169057847945498
-16.312125,-0.5128986145756557
-16.312,-0.5082235826534862
-16.311875,-0.5025467581764863
-16.31175,-0.4962020719963859
-16.311625,-0.4885216624099487
-16.3115,-0.4768340826042821
-16.311375,-0.4618071942834291
-16.31125,-0.4464484135984016
-16.311125,-0.4354266570080565
-16.311,-0.424406938905777
-16.310875,-0.409716019923913
-16.31075,-0.3950210239661123
-16.310625,-0.3776566196842378
-16.3105,-0.3632996315539144
-16.310375,-0.3499403590024943
-16.31025,-0.3142097578829819
-16.310125,-0.2784811952513116
-16.31,-0.2584433056680077
-16.309875,-0.2303931141357489
-16.30975,-0.1899874810942372
-16.309625,-0.1502497097551261
-16.3095,-0.1148550779750401
-16.309375,-0.07712089174602234
-16.30925,-0.04472959914199753
-16.309125,-0.02035264697705837
-16.309,-0.001318588436679643
-16.308875,0.01471009243964026
-16.30875,0.02739946479984091
-16.308625,0.03775132119895197
-16.3085,0.04676745419185732
-16.308375,0.05578358718436906
-16.30825,0.06446578932556384
-16.308125,0.0731479914668801
-16.308,0.08216412445965425
-16.307875,0.09084836508868625
-16.30775,0.1005303212968499
-16.307625,0.1048714223673186
-16.3075,0.1462829249389075
-16.307375,0.1973723067440549
-16.30725,0.2170721884996822
-16.307125,0.2431208334110941
-16.307,0.2855300515628789
-16.306875,0.3259356846033945
-16.30675,0.3630020091292924
-16.306625,0.3740196887442692
-16.3065,0.36934465682209
-16.306375,0.3660053483062478
-16.30625,0.3626660397903569
-16.306125,0.3593267312746117
-16.306,0.3563233920981909
-16.305875,0.3529840835823049
-16.30575,0.3503126367696311
-16.305625,0.3469733282537888
-16.3055,0.3443018814410664
-16.305375,0.3409625729253213
-16.30525,0.3372893335578462
-16.305125,0.3336160941904197
-16.305,0.3289410622682405
-16.304875,0.3259336461161404
-16.30475,0.3232621993033937
-16.304625,0.3182532365297761
-16.3045,0.3142460663106925
-16.304375,0.3095710343885132
-16.30425,0.3052299333179183
-16.304125,0.3015587324383339
-16.304,0.297883454583007
-16.303875,0.2938783228519549
-16.30375,0.2905369758482123
-16.303625,0.2865298056292016
-16.3035,0.2828565662617751
-16.303375,0.278849396042706
-16.30325,0.2748442643115471
-16.303125,0.2715029173079599
-16.303,0.2674977855767426
-16.302875,0.2641584770609004
-16.30275,0.2604852376934739
-16.302625,0.257143890689741
-16.3025,0.2538045821738987
-16.302375,0.2504652736581535
-16.30225,0.2471259651422627
-16.302125,0.2437866566264204
-16.302,0.238777693852657
-16.301875,0.2344365927820135
-16.30175,0.2310993227540084
-16.301625,0.2274260833866888
-16.3015,0.2227510514644562
-16.301375,0.2184099503938612
-16.30125,0.2150686033901768
-16.301125,0.2103956099557572
-16.301,0.2047187854788204
