csv saver/84_2/air_fryer_ut.csv

#Digilent WaveForms Oscilloscope Acquisition
#Device Name: Discovery2
#Serial Number: SN:210321B2DC85
#Date Time: 2023-08-27 14:22:08.766
#Sample rate: 8000Hz
#Samples: 26746
#Trigger: Source: Channel 1 Type: Edge Condition: Rising Level: -11.02 mV Hyst.: Auto HoldOff: 0 s
#Math 1: Function: C1 - C2

Time (s),Math 1 (V)
-16.384,-0.006616635329224392
-16.383875,0.07581943827955392
-16.38375,0.08316591701440693
-16.383625,0.09118229594110146
-16.3835,0.1482865100481845
-16.383375,0.1910255820761124
-16.38325,0.2083899863584923
-16.383125,0.2427869025595098
-16.383,0.2908729451876386
-16.382875,0.3342819174063195
-16.38275,0.3736857578921116
-16.382625,0.3910481236872227
-16.3825,0.3793625823696168
-16.382375,0.3696785876736742
-16.38225,0.3613303163840685
-16.382125,0.3543177685006929
-16.382,0.3469712897660537
-16.381875,0.339958741882678
-16.38175,0.3326143016356671
-16.381625,0.3255997152645562
-16.3815,0.3185871673811854
-16.381375,0.3115746194979214
-16.38125,0.3048960024664313
-16.381125,0.2975495237314811
-16.381,0.2905369758482123
-16.380875,0.2865298056292016
-16.38075,0.2825226354101082
-16.380625,0.2768458109331812
-16.3805,0.2715029173079891
-16.380375,0.2664939545341479
-16.38025,0.2614870302482266
-16.380125,0.2581456832445422
-16.38,0.2541385130254732
-16.379875,0.2501333812943093
-16.37975,0.2464581034391478
-16.379625,0.2427848640716677
-16.3795,0.2394455555558255
-16.379375,0.2361062470399832
-16.37925,0.2331008693756912
-16.379125,0.2307633534146113
-16.379,0.2290936991567387
-16.378875,0.2267561831956248
-16.37875,0.2244186672345352
-16.378625,0.2220811512734457
-16.3785,0.2204114970154954
-16.378375,0.2184079119059852
-16.37825,0.2160724344328056
-16.378125,0.2147346725385927
-16.378,0.2120632257259188
-16.377875,0.2130650182806715
-16.37775,0.212731087429063
-16.377625,0.2110614331711613
-16.3775,0.2107275023195868
-16.377375,0.2117292948743346
-16.37725,0.2120632257259188
-16.377125,0.2120632257259188
-16.377,0.2097257097648049
-16.376875,0.2080560555068789
-16.37675,0.2060545088852739
-16.376625,0.2037169929241552
-16.3765,0.2007095767720551
-16.376375,0.1970363374046286
-16.37625,0.1936970288887231
-16.376125,0.1893559278181185
-16.376,0.1843469650445008
-16.375875,0.1793380022706645
-16.37575,0.1736611777937326
-16.375625,0.1679843533168008
-16.3755,0.1619735979882166
-16.375375,0.1572985660660131
-16.37525,0.1509538798860975
-16.375125,0.1132176551691453
-16.375,0.07749113102531716
-16.374875,0.05845503399717408
-16.37475,0.01971905521270393
-16.374625,-0.02836698741402535
-16.3745,-0.07144406726846361
-16.374375,-0.111849700310782
-16.37425,-0.1515874716493051
-16.374125,-0.1903234504330755
-16.374,-0.2283915675141633
-16.373875,-0.2617826141837722
-16.37375,-0.2898348442047671
-16.373625,-0.3175490663988241
-16.3735,-0.3429298496070675
-16.373375,-0.3706461102885584
-16.37325,-0.4003659560799628
-16.373125,-0.4284161476122216
-16.373,-0.453127030629503
-16.372875,-0.4765021902407586
-16.37275,-0.4972038645511386
-16.372625,-0.5072217900986655
-16.3725,-0.5112289603177685
-16.372375,-0.5175736464976841
-16.37225,-0.5219167860561503
-16.372125,-0.5232504709747084
-16.372,-0.522584647759382
-16.371875,-0.521248924353045
-16.37175,-0.5202471317982681
-16.371625,-0.5185754390525535
-16.3715,-0.5152361305367356
-16.371375,-0.5105610986145077
-16.37125,-0.5042164124344074
-16.371125,-0.4972038645511386
-16.371,-0.4891895241129471
-16.370875,-0.4775019443078393
-16.37075,-0.4621411251350183
-16.370625,-0.4454445825555833
-16.3705,-0.4324233178316406
-16.370375,-0.4200678763230241
-16.37025,-0.4047050186620598
-16.370125,-0.3876745452317598
-16.37,-0.3709800411403856
-16.369875,-0.3569549453736051
-16.36975,-0.3439316421618202
-16.369625,-0.3081969640666237
-16.3695,-0.2654558535513494
-16.369375,-0.2424166632805503
-16.36925,-0.2187075728180799
-16.369125,-0.1789677629913697
-16.369,-0.133889136515341
-16.368875,-0.09448529602840218
-16.36875,-0.05541538639258105
-16.368625,-0.02335802464142818
-16.3685,0.0003510658211734637
-16.368375,0.01804940095548254
-16.36825,0.03140663501885164
-16.368125,0.0417584914179627
-16.368,0.050106762707651
-16.367875,0.05578358718441765
-16.36775,0.06112648080984791
-16.367625,0.06613544358361131
-16.3675,0.07147833720895896
-16.367375,0.07715516168589083
-16.36725,0.08349984786609806
-16.367125,0.09084632660073727
-16.367,0.09485553530769698
-16.366875,0.1245774195865353
-16.36675,0.1876883120481123
-16.366625,0.2144007416870084
-16.3665,0.2387776938532645
-16.366375,0.2805210887879201
-16.36625,0.3245999611976456
-16.366125,0.3656734559425056
-16.366,0.3910501621750648
-16.365875,0.3800304440726492
-16.36575,0.3706803802283006
-16.365625,0.3619981780873633
-16.3655,0.3543198069886418
-16.365375,0.3476391514691152
-16.36525,0.3402926727342622
-16.365125,0.3336140557024708
-16.365,0.3262675769676226
-16.364875,0.3192550290845579
-16.36475,0.3122424812011871
-16.364625,0.3055638641695025
-16.3645,0.2985513162862338
-16.364375,0.2912048375512982
-16.36425,0.2855280130744003
-16.364125,0.2821887045586552
-16.364,0.2758440183785063
-16.363875,0.2708370940925849
-16.36375,0.2658281313188215
-16.363625,0.2618189226119104
-16.3635,0.2578117523928948
-16.363375,0.2534706513224262
-16.36325,0.2494634811033523
-16.363125,0.2457902417359258
-16.363,0.2424509332200835
-16.362875,0.2387776938526084
-16.36275,0.235438385336771
-16.362625,0.2324330076726005
-16.3625,0.2297615608598829
-16.362375,0.2277579757503775
-16.36225,0.2257543906408721
-16.362125,0.2230849823160161
-16.362,0.2214132895702432
-16.361875,0.2190757736092216
-16.36175,0.2174061193512664
-16.361625,0.2154045727296031
-16.3615,0.2140668108354242
-16.361375,0.2107275023195771
-16.36125,0.2103956099558543
-16.361125,0.2113974025105779
-16.361,0.2100616791042555
-16.360875,0.2090598865495028
-16.36075,0.2093938174010871
-16.360625,0.2097277482526761
-16.3605,0.2100616791042361
-16.360375,0.208725955697938
-16.36025,0.2073902322915817
-16.360125,0.206388439736829
-16.36,0.2047187854789079
-16.359875,0.2017134078145963
-16.35975,0.1980381299593278
-16.359625,0.1943648905920082
-16.3595,0.190357720372944
-16.359375,0.1860166193023491
-16.35925,0.1810076565285857
-16.359125,0.1756647629031554
-16.359,0.1699879384263887
-16.358875,0.1636432522462981
-16.35875,0.1576324969176897
-16.358625,0.1549610501050159
-16.3585,0.1339213679673674
-16.358375,0.08917667234262175
-16.35825,0.06847295954500218
-16.358125,0.03341022012886724
-16.358,-0.01400796079660331
-16.357875,-0.05541538639304754
-16.35775,-0.0948192268799864
-16.357625,-0.136560583328632
-16.3575,-0.1789698014785946
-16.357375,-0.2170379185592597
-16.35725,-0.2500950343788102
-16.357125,-0.2794809493182222
-16.357,-0.3075331793391394
-16.356875,-0.333579785763093
-16.35675,-0.3599603230374793
-16.356625,-0.3890123071252682
-16.3565,-0.4197339454714399
-16.356375,-0.4467803059619203
-16.35625,-0.4694876038696477
-16.356125,-0.4881877315586026
-16.356,-0.5045503432857535
-16.355875,-0.5102271677628409
-16.35575,-0.518243546688787
-16.355625,-0.5229165401231242
-16.3555,-0.5242543020173032
-16.355375,-0.5239183326778575
-16.35525,-0.5225846477594014
-16.355125,-0.5222507169078027
-16.355,-0.5205810626498766
-16.354875,-0.5175756849856186
-16.35475,-0.5132325454271816
-16.354625,-0.5078896518017417
-16.3545,-0.5015470041096679
-16.354375,-0.4942005253748296
-16.35425,-0.4841805613393537
-16.354125,-0.4694876038696477
-16.354,-0.4521231995872679
-16.353875,-0.4381001423084169
-16.35375,-0.4274143550580326
-16.353625,-0.4140550825068604
-16.3535,-0.3963567473727019
-16.353375,-0.3783244813871536
-16.35325,-0.3609621155926158
-16.353125,-0.3492745357868131
-16.353,-0.324895545134032
-16.352875,-0.2834881195378355
-16.35275,-0.2544381739372472
-16.352625,-0.2313949066900934
-16.3525,-0.192658927906323
-16.352375,-0.1492479171998535
-16.35225,-0.1135193545692231
-16.352125,-0.07678492240659601
-16.352,-0.04139029062650998
-16.351875,-0.01567761505452445
-16.35175,0.003690374337360752
-16.351625,0.01871726265882107
-16.3515,0.03040484246392888
-16.351375,0.03875311375370465
-16.35125,0.0454317307853892
-16.351125,0.05077462441073685
-16.351,0.05611751803608449
-16.350875,0.06112648080992566
-16.35075,0.0664693744351178
-16.350625,0.07281406061529587
-16.3505,0.07982864698640675
-16.350375,0.08617129467866498
-16.35025,0.09685912041810621
-16.350125,0.1589722973002549
-16.35,0.196368475700916
-16.349875,0.2140688493232663
-16.34975,0.2531387589586209
-16.349625,0.3012248015867496
-16.3495,0.3426301886959106
-16.349375,0.3810342751154675
-16.34925,0.3870409534681246
-16.349125,0.3760232738537745
-16.349,0.3670071408610004
-16.348875,0.3586588695713948
-16.34875,0.3519802525396032
-16.348625,0.3446337738047502
-16.3485,0.3372872950701111
-16.348375,0.3302747471867354
-16.34825,0.3235961301550508
-16.348125,0.3162496514201978
-16.348,0.3089031726852379
-16.347875,0.3015587324382318
-16.34775,0.2945461845551671
-16.347625,0.2885333907387069
-16.3475,0.2855280130744489
-16.347375,0.2801851194491012
-16.34725,0.2745082949720916
-16.347125,0.269165401346744
-16.347,0.2638245462093939
-16.346875,0.2598173759903054
-16.34675,0.2564760289866211
-16.346625,0.2521369664038682
-16.3465,0.2481297961848089
-16.346375,0.2447884491811197
-16.34625,0.2411152098138001
-16.346125,0.2377759012979044
-16.346,0.2347705236336463
-16.345875,0.2317651459693883
-16.34575,0.2294276300082647
-16.345625,0.227092152535022
-16.3455,0.2250885674255749
-16.345375,0.2230829438281983
-16.34525,0.221079358718693
-16.345125,0.2187418427576034
-16.345,0.2167382576480786
-16.344875,0.215402534241727
-16.34475,0.2130650182807055
-16.344625,0.2110634716590082
-16.3445,0.212397156577503
-16.344375,0.2113953640227504
-16.34425,0.2100596406164134
-16.344125,0.210059640616428
-16.344,0.2110614331711516
-16.343875,0.2113953640227504
-16.34375,0.2103935714679977
-16.343625,0.2080560555069081
-16.3435,0.2060545088852205
-16.343375,0.2043828161395059
-16.34325,0.2017113693268466
-16.343125,0.1980401684472233
-16.343,0.1950327522951232
-16.342875,0.1913595129276967
-16.34275,0.1870184118570289
-16.342625,0.1820094490834112
-16.3425,0.1766665554580684
-16.342375,0.1713236618326431
-16.34225,0.1656468373557111
-16.342125,0.1596360820271951
-16.342,0.1559628426596325
-16.341875,0.1466107403277042
-16.34175,0.103867591325409
-16.341625,0.07615540761898024
-16.3415,0.05311214037182645
-16.341375,0.008699337111124169
-16.34125,-0.03838491296285935
-16.341125,-0.08012626940967296
-16.341,-0.1201979715998046
-16.340875,-0.1606036046420792
-16.34075,-0.1996735142774339
-16.340625,-0.2360719771001147
-16.3405,-0.2667915769584249
-16.340375,-0.2945098761269512
-16.34025,-0.3222261368084421
-16.340125,-0.3492745357871679
-16.34,-0.377324727320243
-16.339875,-0.4060427805564866
-16.33975,-0.433759041238371
-16.339625,-0.4608054017280642
-16.3395,-0.4825109070811168
-16.339375,-0.4998773498516546
-16.33925,-0.5072217900986655
-16.339125,-0.5118988605086867
-16.339,-0.5189114083920284
-16.338875,-0.5239203711656459
-16.33875,-0.5245882328688776
-16.338625,-0.5232525094625504
-16.3385,-0.5209149935014609
-16.338375,-0.5199111624588661
-16.33825,-0.5182435466887384
-16.338125,-0.5149042381729934
-16.338,-0.5102271677629916
-16.337875,-0.5042164124344074
-16.33775,-0.4965360028479702
-16.337625,-0.4881877315583645
-16.3375,-0.4751644283463513
-16.337375,-0.4594696783223493
-16.33725,-0.4437769667857326
-16.337125,-0.4317554561284721
-16.337,-0.4173964295103503
-16.336875,-0.4006998869311389
-16.33675,-0.3853390677580506
-16.336625,-0.3706461102887723
-16.3365,-0.3549513602640997
-16.336375,-0.3372509866422936
-16.33625,-0.2965114227490178
-16.336125,-0.2607828601173475
-16.336,-0.2414148707250395
-16.335875,-0.2123608481502152
-16.33575,-0.1686159065922586
-16.335625,-0.1255408652257353
-16.3355,-0.08747274814513339
-16.335375,-0.0500724927676999
-16.33525,-0.02202230123431377
-16.335125,-0.0006507267335452045
-16.335,0.01537795414280872
-16.334875,0.02806732650300937
-16.33475,0.03741739034736774
-16.334625,0.0440960073791349
-16.3345,0.04977283185606191
-16.334375,0.05511572548125406
-16.33425,0.06045861910667945
-16.334125,0.0658015127320271
-16.334,0.07181226806054319
-16.333875,0.07849088509232978
-16.33375,0.08550343297556455
-16.333625,0.09017846489760768
-16.3335,0.1355971376888148
-16.333375,0.1890219969666071
-16.33325,0.2087239172100765
-16.333125,0.2371100780832437
-16.333,0.2828586047502585
-16.332875,0.3269354386702517
-16.33275,0.3680109719035952
-16.332625,0.3917159853903912
-16.3325,0.3796965132212011
-16.332375,0.3706803802283006
-16.33225,0.3619981780871301
-16.332125,0.3546516993524909
-16.332,0.347305220617531
-16.331875,0.3402926727342622
-16.33175,0.3336140557025777
-16.331625,0.3266015078192019
-16.3315,0.3192550290843538
-16.331375,0.3122424812012891
-16.33125,0.3052299333179183
-16.331125,0.2982173854346495
-16.331,0.2912048375513808
-16.330875,0.2861958747775639
-16.33075,0.2825226354101082
-16.330625,0.2768458109333415
-16.3305,0.2718368481594955
-16.330375,0.2668278853857322
-16.33025,0.2621528534635529
-16.330125,0.2581456832444839
-16.33,0.2541385130254732
-16.329875,0.2501313428065791
-16.32975,0.2464581034390943
-16.329625,0.2427848640716677
-16.3295,0.2394455555558255
-16.329375,0.2361062470399346
-16.32925,0.2327669385241021
-16.329125,0.2300975301993481
-16.329,0.2284278759413881
-16.328875,0.2260903599802984
-16.32875,0.224084736382951
-16.328625,0.2214153280580901
-16.3285,0.2194117429485896
-16.328375,0.217742088690717
-16.32825,0.2157385035811874
-16.328125,0.2140688493232663
-16.328,0.2113953640227504
-16.327875,0.2120632257259188
-16.32775,0.2120652642137609
-16.327625,0.210395609955864
-16.3275,0.2100596406164134
-16.327375,0.2103956099558398
-16.32725,0.210729540807424
-16.327125,0.2110634716589888
-16.327,0.2097257097648487
-16.326875,0.207722124655353
-16.32675,0.2060545088852448
-16.326625,0.2040488852878974
-16.3265,0.2007095767720551
-16.326375,0.196704445040833
-16.32625,0.1930312056735134
-16.326125,0.1893559278182448
-16.326,0.1846808958960121
-16.325875,0.1796719331222487
-16.32575,0.1743290394969011
-16.325625,0.1686522150198769
-16.3255,0.1623075288399612
-16.325375,0.1572985660661783
-16.32525,0.1522896032923421
-16.325125,0.1235695115682564
-16.325,0.08450164042074385
-16.324875,0.06246220421565029
-16.32475,0.0257298105424543
-16.324625,-0.02035264697603305
-16.3245,-0.06176007257314787
-16.324375,-0.1031674981695921
-16.32425,-0.1449088546176205
-16.324125,-0.1846466259566782
-16.324,-0.2213790196298741
-16.323875,-0.2544361354489241
-16.32375,-0.2838220503888171
-16.323625,-0.3125421421129028
-16.3235,-0.3389206409002147
-16.323375,-0.3659710783668118
-16.32325,-0.395690924156943
-16.323125,-0.4250748006085179
-16.323,-0.4497877221140204
-16.322875,-0.4721590506823216
-16.32275,-0.4915270400742068
-16.322625,-0.5058860666924063
-16.3225,-0.5112289603175985
-16.322375,-0.5192433007555811
-16.32225,-0.52258260927154
-16.322125,-0.522584647759382
-16.322,-0.522584647759382
-16.321875,-0.5219147475683619
-16.32175,-0.5212489243530547
-16.321625,-0.5195772316073062
-16.3215,-0.5169057847946081
-16.321375,-0.5118988605086867
-16.32125,-0.5062199975439128
-16.321125,-0.4995413805121165
-16.321,-0.4918609709259028
-16.320875,-0.4808412528235115
-16.32075,-0.4661482953538055
-16.320625,-0.4494517527745941
-16.3205,-0.4354266570080565
-16.320375,-0.4240730080539838
-16.32025,-0.4097139814362799
-16.320125,-0.3923495771536911
-16.32,-0.374319349655985
-16.319875,-0.3592924613346947
-16.31975,-0.3489406049355837
-16.319625,-0.319218720656099
-16.3195,-0.2748059173966894
-16.319375,-0.2460899026476415
-16.31925,-0.2240484279552404
-16.319125,-0.1873160342809753
-16.319,-0.143571092722873
-16.318875,-0.1045032215753605
-16.31875,-0.06543331194114292
-16.318625,-0.03103843422739892
-16.3185,-0.006327551210166076
-16.318375,0.0127065073301349
-16.31825,0.02739946479999641
-16.318125,0.03808525205065282
-16.318,0.04609959248844104
-16.317875,0.05211034781707376
-16.31775,0.05712134907867927
-16.317625,0.06246220421618481
-16.3175,0.06780509784161021
-16.317375,0.0731479914669676
-16.31725,0.07916078528315079
-16.317125,0.08650726401809129
-16.317,0.09184811915559685
-16.316875,0.1135556629964137
-16.31675,0.1746650088367598
-16.316625,0.2043828161398314
-16.3165,0.2284258374531961
-16.316375,0.2698353015378323
-16.31625,0.3142481047985345
-16.316125,0.3546537378402261
-16.316,0.3883787153623132
-16.315875,0.3830337832490507
-16.31575,0.3726839653380829
-16.315625,0.3640017631967424
-16.3155,0.3563213536103051
-16.315375,0.3493088057270364
-16.31525,0.3416283961405068
-16.315125,0.3352837099603967
-16.315,0.328271162077332
-16.314875,0.320924683342377
-16.31475,0.313578204607524
-16.314625,0.3065656567242552
-16.3145,0.2998870396924687
-16.314375,0.2928744918092095
-16.31425,0.2865298056292939
-16.314125,0.2838583588165277
-16.314,0.2771797417848432
-16.313875,0.272504709862664
-16.31375,0.2671618162372483
-16.313625,0.2624867843150837
-16.3135,0.2588135449477641
-16.313375,0.2548063747286999
-16.31325,0.2504652736581049
-16.313125,0.2464581034390943
-16.313,0.2431187949231985
-16.312875,0.2394455555557769
-16.31275,0.2361062470400318
-16.312625,0.2331008693757252
-16.3125,0.2304294225630514
-16.312375,0.228425837453546
-16.31225,0.2264222523440066
-16.312125,0.224084736382985
-16.312,0.2217472204218955
-16.311875,0.2197436353123561
-16.31175,0.2177400502028507
-16.311625,0.2160703959449295
-16.3115,0.2144007416869695
-16.311375,0.2117292948743735
-16.31125,0.2100616791042798
-16.311125,0.2110634716590082
-16.311,0.2103935714679977
-16.310875,0.2087259556979186
-16.31075,0.2097257097648389
-16.310625,0.210393571467988
-16.3105,0.2103935714679977
-16.310375,0.2090578480616608
-16.31025,0.2067223705884132
-16.310125,0.2053866471820764
-16.31,0.2037169929241212
-16.309875,0.2013774384752576
-16.30975,0.1977062375956926
-16.309625,0.1943648905919547
-16.3095,0.190357720372944
-16.309375,0.1856826884507648
-16.30925,0.1810076565285079
-16.309125,0.1756647629033157
-16.309,0.1703218692779681
-16.308875,0.1643111139493743
-16.30875,0.1579664277692739
-16.308625,0.1549610501050159
-16.3085,0.1405999849983814
-16.308375,0.09451956596894123
-16.30825,0.07214823740029505
-16.308125,0.04442993823063653
-16.308,-0.002990281182165886
-16.307875,-0.04840283850977876
-16.30775,-0.08747274814571651
-16.307625,-0.1275444503346576
-16.3075,-0.1689518759310824
-16.307375,-0.2083557164186238
-16.30725,-0.2437523866865519
-16.307125,-0.2734701939897061
-16.307,-0.302188247226353
-16.306875,-0.3299065463948793
-16.30675,-0.3556192219668941
-16.306625,-0.3823336900940064
-16.3065,-0.4123874667365869
-16.306375,-0.4414394508244147
-16.30625,-0.4671500879088449
-16.306125,-0.4868520081517408
-16.306,-0.5022128273246785
-16.305875,-0.507889651801834
-16.30575,-0.5162399615792816
-16.305625,-0.522584647759382
-16.3055,-0.5255879869357835
-16.305375,-0.5245861943810599
-16.30525,-0.5229165401231242
-16.305125,-0.5219147475683715
-16.305,-0.5209149935014609
-16.304875,-0.5189093699041134
-16.30475,-0.5145682688334408
-16.304625,-0.5092253752082485
-16.3045,-0.5028806890280705
-16.304375,-0.4955342102932175
-16.30425,-0.4868520081520276
-16.304125,-0.4734947740886585
-16.304,-0.4567982315092138
-16.303875,-0.4407695506336374
-16.30375,-0.4284141091247877
-16.303625,-0.4157267752524292
-16.3035,-0.4003659560795547
-16.303375,-0.3836694135000809
-16.30325,-0.3656371475145812
-16.303125,-0.3509441900453028
-16.303,-0.3315741621653617
-16.302875,-0.2911685291236702
-16.30275,-0.258445344156258
-16.302625,-0.2380755622091195
-16.3025,-0.2036786460079222
-16.302375,-0.156928326787491
-16.30225,-0.1175244862998718
-16.302125,-0.08313164707453843
-16.302,-0.04572935320926285
-16.301875,-0.01667940760896614
-16.30175,0.004692166892351542
-16.301625,0.02105477861950248
-16.3015,0.03374415097994124
-16.301375,0.04309421482429961
-16.30125,0.05044069355915262
-16.301125,0.05611751803616224
-16.301,0.06146041166150503
