csv saver/84_2/boiler_ut.csv

#Digilent WaveForms Oscilloscope Acquisition
#Device Name: Discovery2
#Serial Number: SN:210321B2DC85
#Date Time: 2023-08-27 14:24:14.470
#Sample rate: 8000Hz
#Samples: 28564
#Trigger: Source: Channel 1 Type: Edge Condition: Rising Level: -11.02 mV Hyst.: Auto HoldOff: 0 s
#Math 1: Function: C1 - C2

Time (s),Math 1 (V)
-16.384,0.3640038016845845
-16.383875,0.3643356940483266
-16.38375,0.3583249387198105
-16.383625,0.3519802525396227
-16.3835,0.3459715356991236
-16.383375,0.339958741882678
-16.38325,0.3336140557025777
-16.383125,0.3276033003740615
-16.383,0.3212586141939612
-16.382875,0.3149139280137686
-16.38275,0.308571280321695
-16.382625,0.306231725872671
-16.3825,0.3005569398835812
-16.382375,0.2962138003251442
-16.38225,0.291538768402965
-16.382125,0.2868637364807226
-16.382,0.282522635410254
-16.381875,0.2788493960427643
-16.38175,0.2748422258237536
-16.381625,0.2711689864563271
-16.3815,0.2674957470888472
-16.381375,0.2638245462092627
-16.38125,0.2601513068419431
-16.381125,0.2574778215413738
-16.381,0.2541385130255315
-16.380875,0.2514691047006997
-16.38075,0.2494634811033183
-16.380625,0.2471259651422238
-16.3805,0.2444545183296278
-16.380375,0.2421170023684993
-16.38025,0.2397794864074097
-16.380125,0.2377759012979044
-16.38,0.2354383853367759
-16.379875,0.2327669385241167
-16.37975,0.2310972842662441
-16.379625,0.2310972842662198
-16.3795,0.2290957376445565
-16.379375,0.2270921525350511
-16.37925,0.2267561831956248
-16.379125,0.2267561831956054
-16.379,0.2254224982771494
-16.378875,0.2244186672345352
-16.37875,0.2217492589097035
-16.378625,0.2197456738001981
-16.3785,0.2174081578390502
-16.378375,0.2134009876200346
-16.37825,0.209059886549566
-16.378125,0.2040509237757394
-16.378,0.1993758918535602
-16.377875,0.1943648905919547
-16.37775,0.1880202044117573
-16.377625,0.1813436258679196
-16.3775,0.1749989396880039
-16.377375,0.1679863918046428
-16.37725,0.1606399130697898
-16.377125,0.1569666737023633
-16.377,0.1446091937052391
-16.376875,0.09885862855063486
-16.37675,0.07214823740035819
-16.376625,0.0454317307853892
-16.3765,-0.0009866960726605204
-16.376375,-0.04673318425185762
-16.37625,-0.08814060984891413
-16.376125,-0.1302158971485414
-16.376,-0.173292977001653
-16.375875,-0.2130287098529609
-16.37575,-0.2504289652303944
-16.375625,-0.2824863269824803
-16.3755,-0.3118742804101668
-16.375375,-0.3415941262011291
-16.37525,-0.3689764560302388
-16.375125,-0.3953569933057913
-16.375,-0.4254107699483717
-16.374875,-0.4554625081031102
-16.37475,-0.4805073219722382
-16.374625,-0.5018788964730069
-16.3745,-0.5212468858649212
-16.374375,-0.5309308805611457
-16.37425,-0.5382793977838407
-16.374125,-0.5436202529213463
-16.374,-0.5466256305856141
-16.373875,-0.547293492288763
-16.37375,-0.5469595614371935
-16.373625,-0.5469615999250306
-16.3735,-0.5466276690734464
-16.373375,-0.5442881146245148
-16.37325,-0.5402809444054263
-16.373125,-0.5349380507802342
-16.373,-0.5289272954517278
-16.372875,-0.5219147475683715
-16.37275,-0.5132325454271816
-16.372625,-0.4998753113638125
-16.3725,-0.4831787687843727
-16.372375,-0.4674840187603707
-16.37225,-0.4554625081032851
-16.372125,-0.4421052740397411
-16.372,-0.4240730080541928
-16.371875,-0.4077103963265656
-16.37175,-0.3903459920439817
-16.371625,-0.3763208962778523
-16.3715,-0.358956491995521
-16.371375,-0.3165472738440715
-16.37125,-0.2811506035761434
-16.371125,-0.2607808216295055
-16.371,-0.2277216673220157
-16.370875,-0.1829749332110316
-16.37075,-0.1419014384661181
-16.370625,-0.1021657056148394
-16.3705,-0.05908658727263195
-16.370375,-0.02369195549254591
-16.37025,0.002354650931305684
-16.370125,0.0217226403226272
-16.37,0.03641559779240125
-16.369875,0.0477692467464788
-16.36975,0.05611751803608449
-16.369625,0.06279613506776904
-16.3695,0.06914082124795687
-16.369375,0.07515361506414006
-16.36925,0.08216412445955223
-16.369125,0.08884274149133879
-16.369,0.09685912041720235
-16.368875,0.1048714223673817
-16.36875,0.109882423629755
-16.368625,0.1626455366663695
-16.3685,0.2127331259162005
-16.368375,0.2320990768209725
-16.36825,0.2651602696156531
-16.368125,0.3129123813921976
-16.368,0.3559894612471169
-16.367875,0.394057578326611
-16.36775,0.3937216089877386
-16.367625,0.3850394068465487
-16.3675,0.3770271048963693
-16.367375,0.3703464493768427
-16.36725,0.3640017631966501
-16.367125,0.3576570770167344
-16.367,0.3513123908365417
-16.366875,0.3453036739958677
-16.36675,0.3392929186673516
-16.366625,0.3332801248509935
-16.3665,0.3269354386708008
-16.366375,0.3205907524908851
-16.36625,0.3142481047985345
-16.366125,0.3085692418337606
-16.366,0.3042301792510077
-16.365875,0.3005549013956613
-16.36575,0.2952120077703186
-16.365625,0.290205083484543
-16.3655,0.2851961207107067
-16.365375,0.2815208428554382
-16.36525,0.2778476034880116
-16.365125,0.2738404332689475
-16.365,0.2701671939015209
-16.364875,0.2664939545342014
-16.36475,0.2624888228029792
-16.364625,0.259149514287137
-16.3645,0.2561420981350369
-16.364375,0.2524708972554184
-16.36425,0.2501333812943288
-16.364125,0.2477958653333073
-16.364,0.2457902417359258
-16.363875,0.243118794923252
-16.36375,0.240115455746836
-16.363625,0.2381098321494594
-16.3635,0.2361062470399541
-16.363375,0.234102661930507
-16.36325,0.2317651459693883
-16.363125,0.2284278759413881
-16.363,0.2287597683051302
-16.362875,0.2280919066019229
-16.36275,0.2254224982771154
-16.362625,0.2244207057223919
-16.3625,0.2244207057223773
-16.362375,0.224084736382951
-16.36225,0.2227510514644562
-16.362125,0.2210813972064962
-16.362,0.2184099503938321
-16.361875,0.216406365284385
-16.36175,0.2134009876200978
-16.361625,0.2090598865495028
-16.3615,0.2043848546273237
-16.361375,0.1997098227050716
-16.36125,0.1947008599312936
-16.361125,0.1886880661151104
-16.361,0.1826773107865068
-16.360875,0.1760007322426643
-16.36075,0.1696540075747219
-16.360625,0.1616417056244648
-16.3605,0.1562988119991074
-16.360375,0.1502860181829242
-16.36025,0.1148873094270665
-16.360125,0.0781589927284856
-16.36,0.05711931059083718
-16.359875,0.0163797466968568
-16.35975,-0.03204022678277846
-16.359625,-0.07511730663589011
-16.3595,-0.1151890088266243
-16.359375,-0.1592678812357423
-16.35925,-0.2006753068321866
-16.359125,-0.2387413854254372
-16.359,-0.2724684014344627
-16.358875,-0.3028561089286759
-16.35875,-0.3325759547201144
-16.358625,-0.3599603230378631
-16.3585,-0.3870066835283435
-16.358375,-0.4153908059134354
-16.35825,-0.4451106517035666
-16.358125,-0.4734947740882454
-16.358,-0.4972038645511386
-16.357875,-0.5162379230914397
-16.35775,-0.5289272954516403
-16.357625,-0.5342701890771143
-16.3575,-0.5429523912180515
-16.357375,-0.547627423140289
-16.35725,-0.548965185034536
-16.357125,-0.5486292156951097
-16.357,-0.5476274231403571
-16.356875,-0.5476294616281796
-16.35675,-0.5462916997340396
-16.356625,-0.542620498854489
-16.3565,-0.5382793977838407
-16.356375,-0.5326005348190668
-16.35625,-0.5259219177873823
-16.356125,-0.5179075773491956
-16.356,-0.5065539283956623
-16.355875,-0.4908591783712667
-16.35575,-0.4738287049402427
-16.355625,-0.4601375400252893
-16.3555,-0.4477820985166729
-16.355375,-0.4330891410467191
-16.35525,-0.4160586676164191
-16.355125,-0.3986942633340442
-16.355,-0.3809959281998274
-16.354875,-0.3679726249880425
-16.35475,-0.3342456089780355
-16.354625,-0.2941739067875735
-16.3545,-0.2697969546226343
-16.354375,-0.2430824864959301
-16.35425,-0.2003393374927603
-16.354125,-0.1555926033804737
-16.354,-0.1188602097062087
-16.353875,-0.07845457666396809
-16.35375,-0.0407224289238906
-16.353625,-0.01367402994541269
-16.3535,0.007363613704787256
-16.353375,0.02272647136550381
-16.35325,0.03474798202253601
-16.353125,0.04442993823074346
-16.353,0.05177845545322468
-16.352875,0.0587889648486563
-16.35275,0.06513365102885864
-16.352625,0.07148037569680106
-16.3525,0.07782506187690139
-16.352375,0.08550547146345525
-16.35225,0.09351981190124345
-16.352125,0.09919663637829194
-16.352,0.1289185206571303
-16.351875,0.191695482267123
-16.35175,0.2174061193512664
-16.351625,0.2414511791538387
-16.3515,0.2871997058195463
-16.351375,0.3332821633388355
-16.35125,0.3743556580836955
-16.351125,0.3990645026130863
-16.351,0.3890465770655595
-16.350875,0.3810322366274311
-16.35075,0.3736857578927919
-16.350625,0.3673410717125846
-16.3505,0.3609963855324843
-16.350375,0.354651699352384
-16.35025,0.3486409440237853
-16.350125,0.3429641195468389
-16.35,0.3362875410031907
-16.349875,0.3306086780383196
-16.34975,0.3239320994944772
-16.349625,0.3175853748265347
-16.3495,0.3115746194979409
-16.349375,0.3062317258726321
-16.34925,0.303560279060036
-16.349125,0.2982173854346495
-16.349,0.2932084226608861
-16.348875,0.2885333907387069
-16.34875,0.2835264664527369
-16.348625,0.280185119449043
-16.3485,0.2761779492301488
-16.348375,0.2721707790110798
-16.34825,0.2684975396436532
-16.348125,0.2648263387640689
-16.348,0.2614849917603359
-16.347875,0.2581456832444937
-16.34775,0.2548063747287485
-16.347625,0.2518030355522839
-16.3475,0.2497974119549366
-16.347375,0.247459895993847
-16.34725,0.2447884491811342
-16.347125,0.2421170023684653
-16.347,0.2397794864074438
-16.346875,0.2377759012979044
-16.34675,0.2351064929730726
-16.346625,0.2331029078635673
-16.3465,0.2304294225630368
-16.346375,0.2294276300082938
-16.34625,0.2290957376445613
-16.346125,0.2274240448987933
-16.346,0.2254204597892879
-16.345875,0.2247546365739615
-16.34575,0.2250865289376891
-16.345625,0.2240867748707688
-16.3455,0.2224150821250542
-16.345375,0.2194117429486139
-16.34525,0.2170721884996822
-16.345125,0.2137349184716821
-16.345,0.2097277482526033
-16.344875,0.2050527163304241
-16.34475,0.2003776844083809
-16.344625,0.1957026524861337
-16.3445,0.1906916512245282
-16.344375,0.1840150726806858
-16.34425,0.1773364556489089
-16.344125,0.1709917694688037
-16.344,0.1643111139494715
-16.343875,0.1576324969176897
-16.34375,0.153625326698679
-16.343625,0.133253506264199
-16.3435,0.08784094893627512
-16.343375,0.06646937443550655
-16.34325,0.03541380523831429
-16.343125,-0.01300616824185063
-16.343,-0.05908862576047404
-16.342875,-0.1004960513569183
-16.34275,-0.141567507614563
-16.342625,-0.1846445874676747
-16.3425,-0.2250502205094051
-16.342375,-0.2607808216295055
-16.34225,-0.2915024599752544
-16.342125,-0.3192207591445874
-16.342,-0.3479388123812489
-16.341875,-0.3766568656166566
-16.34175,-0.4043710878103201
-16.341625,-0.4337570027501354
-16.3415,-0.4624750559863789
-16.341375,-0.4881877315583645
-16.34125,-0.50855751350526
-16.341125,-0.5262558486387089
-16.341,-0.5332683965221332
-16.340875,-0.540280944405504
-16.34075,-0.544622045476099
-16.340625,-0.5476274231403571
-16.3405,-0.5486292156950999
-16.340375,-0.547961353991951
-16.34025,-0.5476274231403619
-16.340125,-0.545957768882436
-16.34,-0.5432863220697621
-16.339875,-0.5396130827023355
-16.33975,-0.5346041199284798
-16.339625,-0.5282594337485642
-16.3395,-0.5209129550137257
-16.339375,-0.5112289603176762
-16.33925,-0.4962020719963859
-16.339125,-0.4788376677140061
-16.339,-0.4651465027988827
-16.338875,-0.4534589229937749
-16.33875,-0.4384320346725332
-16.338625,-0.420065837835182
-16.3385,-0.4027014335528022
-16.338375,-0.3866727526767593
-16.33825,-0.3746532805072241
-16.338125,-0.350942151557592
-16.338,-0.3055275557424528
-16.337875,-0.2734722324775482
-16.33775,-0.2541022045978209
-16.337625,-0.2193733960330612
-16.3375,-0.1732909385138255
-16.337375,-0.1312156512154374
-16.33725,-0.09214574158003903
-16.337125,-0.05541538639304754
-16.337,-0.02769912571155664
-16.336875,-0.006661482061750304
-16.33675,0.009701129666061506
-16.336625,0.02239050202589285
-16.3365,0.03241046606144642
-16.336375,0.04009087564788365
-16.33625,0.04743531589489457
-16.336125,0.05378000207499489
-16.336,0.06012468825519726
-16.335875,0.06713723613826196
-16.33575,0.07448371487321701
-16.335625,0.08250009379908056
-16.3355,0.08917871083076512
-16.335375,0.1008662906362131
-16.33525,0.1629794675193094
-16.335125,0.203381023584141
-16.335,0.2237528440192088
-16.334875,0.2608191685450581
-16.33475,0.3072355569152658
-16.334625,0.3519822910281451
-16.3345,0.3927218549208766
-16.334375,0.3960591249487797
-16.33425,0.3870429919560541
-16.334125,0.3786967591542905
-16.334,0.3716842112710217
-16.333875,0.3660053483061457
-16.33375,0.3589948389107335
-16.333625,0.3529840835823924
-16.3335,0.3473072591053731
-16.333375,0.341296503776857
-16.33325,0.3346178867451724
-16.333125,0.3282732005649894
-16.333,0.3225943376002058
-16.332875,0.3162496514202902
-16.33275,0.3102388960916817
-16.332625,0.3065676952120973
-16.3325,0.3022245556536602
-16.332375,0.297215592879824
-16.33225,0.2922086685939074
-16.332125,0.2875336366718644
-16.332,0.2835264664527856
-16.331875,0.2795192962337749
-16.33175,0.2758440183785063
-16.331625,0.2718388866472842
-16.3315,0.2681656472798576
-16.331375,0.2644924079125381
-16.33125,0.2611530993966423
-16.331125,0.2584796140961265
-16.331,0.2548063747286999
-16.330875,0.2524688587675763
-16.33075,0.2501313428064867
-16.330625,0.2477938268454652
-16.3305,0.2447904876690152
-16.330375,0.2424509332200835
-16.33025,0.2404473481105782
-16.330125,0.2381098321494546
-16.33,0.235774354676207
-16.329875,0.2334348002273435
-16.32975,0.2307633534146356
-16.329625,0.2307653919024777
-16.3295,0.2294296684961407
-16.329375,0.2274260833866305
-16.32925,0.2270901140471994
-16.329125,0.2264242908318924
-16.329,0.2257564291287142
-16.328875,0.2247546365739615
-16.32875,0.2224150821250299
-16.328625,0.2200775661638966
-16.3285,0.2170742269874757
-16.328375,0.2137328799838886
-16.32825,0.2087259556979186
-16.328125,0.2043848546273237
-16.328,0.1997098227051445
-16.327875,0.1940329982281203
-16.32775,0.1876883120482046
-16.327625,0.1816775567196836
-16.3275,0.1759986937548222
-16.327375,0.1689861458715534
-16.32725,0.1613077747729583
-16.327125,0.1569666737022321
-16.327,0.1479485022218784
-16.326875,0.105205353219588
-16.32675,0.07415182250947487
-16.326625,0.04977283185598416
-16.3265,0.005360028595281891
-16.326375,-0.04139029062710765
-16.32625,-0.08246174688293023
-16.326125,-0.1238712109672116
-16.326,-0.1689518759316849
-16.325875,-0.2093575089733765
-16.32575,-0.2450881100928888
-16.325625,-0.2768095025059955
-16.3255,-0.3075331793386923
-16.325375,-0.3385887485360207
-16.32525,-0.3666389400695477
-16.325125,-0.3916837539383648
-16.325,-0.4207357380261926
-16.324875,-0.4517892687360773
-16.32475,-0.4788376677136125
-16.324625,-0.499543418999769
-16.3245,-0.5179096158372027
-16.324375,-0.5289272954516403
-16.32425,-0.5369436743775038
-16.324125,-0.54362025292139
-16.324,-0.5466256305855606
-16.323875,-0.547293492288763
-16.32375,-0.5466256305856043
-16.323625,-0.5456258765186938
-16.3235,-0.545957768882436
-16.323375,-0.5436222914091398
-16.32325,-0.5402829828933947
-16.323125,-0.5352740201196556
-16.323,-0.5295951571548088
-16.322875,-0.5219167860562135
-16.32275,-0.51390040713035
-16.322625,-0.501211034769921
-16.3225,-0.485516284745919
-16.322375,-0.4691536730183016
-16.32225,-0.4554645465909523
-16.322125,-0.4414394508244147
-16.322,-0.4260765931636981
-16.321875,-0.4100479122873928
-16.32175,-0.3920156463023693
-16.321625,-0.3763229347657187
-16.3215,-0.3609600771047737
-16.321375,-0.3215562366178349
-16.32125,-0.2844919505798277
-16.321125,-0.2624525143748167
-16.321,-0.2313949066905454
-16.320875,-0.1873160342809753
-16.32075,-0.145576716320789
-16.320625,-0.1081764609433555
-16.3205,-0.06543331194057438
-16.320375,-0.03003664167226235
-16.32025,-0.003656104397876142
-16.320125,0.0163797466975614
-16.32,0.03140663501885164
-16.319875,0.04309421482429961
-16.31975,0.05211034781707376
-16.319625,0.05912289570043487
-16.3195,0.06546758188035054
-16.319375,0.07181226806054319
-16.31925,0.0781589927284856
-16.319125,0.08483760976017016
-16.319,0.09251801934673372
-16.318875,0.1011981830000233
-16.31875,0.1058732149220664
-16.318625,0.1516258185648578
-16.3185,0.2067203321005711
-16.318375,0.2277579757503775
-16.31825,0.2571459291783362
-16.318125,0.3055659026579958
-16.318,0.3503126367689799
-16.317875,0.3890486155534015
-16.31775,0.3967249481641546
-16.317625,0.3870429919560541
-16.3175,0.3790286515179257
-16.317375,0.3716821727830873
-16.31725,0.3653374866031716
-16.317125,0.3593267312745632
-16.317,0.3529820450944628
-16.316875,0.3469712897659468
-16.31675,0.3409605344373432
-16.316625,0.3349497791088222
-16.3165,0.3286050929289066
-16.316375,0.3222604067487139
-16.31625,0.3159157205686136
-16.316125,0.3099049652400975
-16.316,0.3052299333178697
-16.315875,0.3018906248019982
-16.31575,0.2965477311768062
-16.315625,0.2918726992545492
-16.3155,0.2868637364807858
-16.315375,0.2825226354101908
-16.31525,0.2791833268942854
-16.315125,0.2748422258237002
-16.315,0.2711689864563805
-16.314875,0.2674957470889006
-16.31475,0.2641564385730583
-16.314625,0.2604831992056318
-16.3145,0.2571438906897458
-16.314375,0.2541385130254877
-16.31425,0.2511331353613172
-16.314125,0.2491295502517681
-16.314,0.2467920342906785
-16.313875,0.2437866566264204
-16.31375,0.2414491406652969
-16.313625,0.2391116247042121
-16.3135,0.237108039594765
-16.313375,0.2347705236336463
-16.31325,0.2324330076725567
-16.313125,0.2294276300082987
-16.313,0.2290957376445468
-16.312875,0.2284278759413589
-16.31275,0.2264222523440698
-16.312625,0.2247546365739615
-16.3125,0.2250865289377037
-16.312375,0.2244207057223773
-16.31225,0.224084736382917
-16.312125,0.2217472204218955
-16.312,0.2187438812454892
-16.311875,0.2164063652843558
-16.31175,0.2137349184716821
-16.311625,0.2097277482526713
-16.3115,0.2047187854788496
-16.311375,0.2007095767721134
-16.31125,0.1957006139983646
-16.311125,0.1896898586697756
-16.311,0.1833451724896752
-16.310875,0.1766685939458328
-16.31075,0.1703218692777834
-16.310625,0.1629753905431443
-16.3105,0.1572985660661881
-16.310375,0.1522896032923421
-16.31025,0.1218998573103353
-16.310125,0.07949471613482252
-16.31,0.06012468825457041
-16.309875,0.02406015628452345
-16.30975,-0.0256975790891693
-16.309625,-0.07044227471433778
-16.3095,-0.1108479077560293
-16.309375,-0.1532571259072262
-16.30925,-0.1939966898010802
-16.309125,-0.2337344611384468
-16.309,-0.2687951620670168
-16.308875,-0.2988489387101074
-16.30875,-0.3279029612857773
-16.308625,-0.3562870836704367
-16.3085,-0.3830015517975782
-16.308375,-0.4107178124782624
-16.30825,-0.4414394508239676
-16.308125,-0.4704893964244004
-16.308,-0.4935326636715542
-16.307875,-0.5135685147666078
-16.30775,-0.528595403087971
-16.307625,-0.5336043658615885
-16.3075,-0.5416187062995664
-16.307375,-0.5459598073702779
-16.30725,-0.5486312541829518
-16.307125,-0.5486292156951097
-16.307,-0.5472955307766149
-16.306875,-0.5472955307766149
-16.30675,-0.5456258765187181
-16.306625,-0.5426204988544356
-16.3065,-0.5386112901475829
-16.306375,-0.5332683965222352
-16.30625,-0.5262558486388595
-16.306125,-0.5189093699042203
-16.306,-0.5078896518019943
-16.305875,-0.4925288326289594
-16.30575,-0.4754983591981639
-16.305625,-0.4614732634316263
-16.3055,-0.4494537912622175
-16.305375,-0.4344248644535225
-16.30525,-0.4167265293193398
-16.305125,-0.4000299867401284
-16.305,-0.3836673750125013
-16.304875,-0.3719818336948953
-16.30475,-0.3395885026027369
-16.304625,-0.2951756993433272
-16.3045,-0.2697989931101217
-16.304375,-0.2477575184177206
-16.30425,-0.2076858162276133
-16.304125,-0.1609354970058214
-16.304,-0.1208637948151358
-16.303875,-0.08112602347776923
-16.30375,-0.04105635977492575
-16.303625,-0.01167044483551372
-16.3035,0.0103689913690453
-16.303375,0.02739946480002557
-16.30325,0.04008883716018249
-16.303125,0.04977283185584324
-16.303,0.05745324144242141
-16.302875,0.06413185847410595
-16.30275,0.07047654465420627
-16.302625,0.07682123083440379
-16.3025,0.08349984786609323
-16.302375,0.09051443423699997
-16.30225,0.09886270552670773
-16.302125,0.1045374915157975
-16.302,0.1275827972507934
-16.301875,0.1926972748223179
-16.30175,0.2230829438285288
-16.301625,0.2457922802234374
-16.3015,0.2871997058202121
-16.301375,0.3326143016356671
-16.30125,0.375023519786864
-16.301125,0.3987305717613563
-16.301,0.3887126462138538
-16.300875,0.3803664134123331
