csv saver/84_2/drill.csv

#Digilent WaveForms Oscilloscope Acquisition
#Device Name: Discovery2
#Serial Number: SN:210321B2DC85
#Date Time: 2023-08-27 14:25:33.995
#Sample rate: 8000Hz
#Samples: 29061
#Trigger: Source: Channel 1 Type: Edge Condition: Rising Level: -11.02 mV Hyst.: Auto HoldOff: 0 s
#Math 1: Function: C1 - C2

Time (s),Math 1 (V)
-16.384,-0.009640359384061221
-16.383875,0.01738153925231408
-16.38375,0.02739946479984091
-16.383625,0.03507987438638506
-16.3835,0.04242635312102425
-16.383375,0.04910497015281572
-16.38325,0.05578358718450026
-16.383125,0.06313006591935327
-16.383,0.07047858314204837
-16.382875,0.07849292358018156
-16.38275,0.08617129467855325
-16.382625,0.09151418830401262
-16.3825,0.1386025153530729
-16.382375,0.1940309597403705
-16.38225,0.212397156577503
-16.382125,0.2404493865990957
-16.382,0.2868657749679524
-16.381875,0.3302767856745775
-16.38175,0.3700125185252585
-16.381625,0.3843695066555382
-16.3815,0.3743536195957368
-16.381375,0.3663392791577348
-16.38125,0.3596606621262446
-16.381125,0.3536499067976313
-16.381,0.3473072591053731
-16.380875,0.3416283961405991
-16.38075,0.3356176408119955
-16.380625,0.3296068854834794
-16.3805,0.3235961301551383
-16.380375,0.3165835822717821
-16.38025,0.3105728269432659
-16.380125,0.3048960024663341
-16.38,0.2988852471377597
-16.379875,0.2948780769187684
-16.37975,0.2922066301061723
-16.379625,0.2868637364807858
-16.3795,0.2825226354101908
-16.379375,0.2775136726364274
-16.37925,0.2735065024173632
-16.379125,0.2698332630499367
-16.379,0.2661600236826172
-16.378875,0.2631546460183056
-16.37875,0.2594814066508791
-16.378625,0.2558081672834526
-16.3785,0.2528027896191508
-16.378375,0.2497974119548831
-16.37825,0.2461241725875635
-16.378125,0.2437866566264204
-16.378,0.2427848640716677
-16.377875,0.2397794864074097
-16.37775,0.237441970446291
-16.377625,0.2354383853367807
-16.3775,0.2331008693757592
-16.377375,0.2304294225630514
-16.37725,0.228425837453546
-16.377125,0.2257543906408721
-16.377,0.2227490129766238
-16.376875,0.223416874679768
-16.37675,0.2224171206128865
-16.376625,0.2204114970155245
-16.3765,0.2197436353123561
-16.376375,0.2200796046517824
-16.37625,0.2197436353123366
-16.376125,0.2184079119059997
-16.376,0.2170742269875437
-16.375875,0.2150706418780189
-16.37575,0.2127331259169294
-16.375625,0.2100616791042555
-16.3755,0.2057205780335925
-16.375375,0.2010435076235761
-16.37525,0.1967044450409496
-16.375125,0.191695482267123
-16.375,0.1866844810055175
-16.374875,0.1806737256770014
-16.37475,0.1753308320515614
-16.374625,0.1689861458716458
-16.3745,0.1616396671368074
-16.374375,0.1562988119991948
-16.37425,0.1519556724407578
-16.374125,0.1212319956071668
-16.374,0.08383377871727897
-16.373875,0.06346399677123392
-16.37375,0.02539587969088952
-16.373625,-0.02102050867987209
-16.3735,-0.06075828001839519
-16.373375,-0.101497843911671
-16.37325,-0.1435731312118716
-16.373125,-0.1839787642523872
-16.373,-0.2207111579267057
-16.372875,-0.2521006579761577
-16.37275,-0.2818205037671539
-16.372625,-0.3105385570033974
-16.3725,-0.3382548176852917
-16.372375,-0.3659710783659759
-16.37225,-0.3940212698990462
-16.372125,-0.4234051463510243
-16.372,-0.4497877221140204
-16.371875,-0.47282691238549
-16.37175,-0.4918609709259951
-16.371625,-0.5058860666921245
-16.3715,-0.5105610986144397
-16.371375,-0.5182415082009449
-16.37125,-0.5232504709747084
-16.371125,-0.5245882328688873
-16.371,-0.5259219177873677
-16.370875,-0.5249221637204862
-16.37075,-0.5252540560842089
-16.370625,-0.5229165401231242
-16.3705,-0.5202450933104503
-16.370375,-0.5169057847946081
-16.37025,-0.5122307528723365
-16.370125,-0.505886066692421
-16.37,-0.4992074496607412
-16.369875,-0.4888555932615329
-16.36975,-0.4741626357918269
-16.369625,-0.458133954915784
-16.3695,-0.4454466210432505
-16.369375,-0.4334251103865682
-16.36925,-0.4183961835774796
-16.369125,-0.4006998869311389
-16.369,-0.3853370292704223
-16.368875,-0.3703121794369742
-16.36875,-0.3586225611431594
-16.368625,-0.3225580291731124
-16.3685,-0.2824863269830634
-16.368375,-0.2601149984141791
-16.36825,-0.2347342152059357
-16.368125,-0.1939946513126599
-16.368,-0.1525892642035669
-16.367875,-0.1188602097066995
-16.36775,-0.0864709555903807
-16.367625,-0.06042434916681096
-16.3675,-0.03871884381383615
-16.367375,-0.01968478527353518
-16.36725,-0.005325758655257895
-16.367125,0.005360028595126392
-16.367,0.01471009243964026
-16.366875,0.02205657117449327
-16.36675,0.02873518820617783
-16.366625,0.03541380523786238
-16.3665,0.04242635312123807
-16.366375,0.04977283185587725
-16.36625,0.05711931059083718
-16.366125,0.0658015127320271
-16.366,0.07147833720895896
-16.365875,0.0991986748670184
-16.36575,0.1599720513669809
-16.365625,0.1846808958956526
-16.3655,0.2090578480616608
-16.365375,0.2531387589586209
-16.36525,0.2985513162862338
-16.365125,0.3359515716642309
-16.365,0.3746875504475106
-16.364875,0.3796944747332861
-16.36475,0.3700125185252585
-16.364625,0.3623321089388212
-16.3645,0.3553195610555525
-16.364375,0.3496427365785283
-16.36425,0.3432980503984279
-16.364125,0.3369533642185122
-16.364,0.3312765397414881
-16.363875,0.325265784412972
-16.36375,0.3185871673812874
-16.363625,0.3129103429042827
-16.3635,0.307901380130495
-16.363375,0.3012227630990048
-16.36325,0.2958798694735599
-16.363125,0.2938762843640546
-16.363,0.2878655290355385
-16.362875,0.2831904971132961
-16.36275,0.2788493960426963
-16.362625,0.2741743641206532
-16.3625,0.2701671939015744
-16.362375,0.2668278853857322
-16.36225,0.2631546460183056
-16.362125,0.2588135449476621
-16.362,0.2554742364318247
-16.361875,0.2524688587676541
-16.36175,0.2487956194001839
-16.361625,0.2454563108843416
-16.3615,0.2437866566264204
-16.361375,0.2421170023684701
-16.36125,0.2401134172589794
-16.361125,0.2391116247042558
-16.361,0.2374419704463201
-16.360875,0.2351044544852305
-16.36075,0.2341026619304778
-16.360625,0.2320990768209482
-16.3605,0.2304294225630173
-16.360375,0.2280919066019958
-16.36025,0.2280919066019617
-16.360125,0.228425837453546
-16.36,0.2260883214924564
-16.359875,0.2250865289376988
-16.35975,0.2247525980861097
-16.359625,0.2240847363829607
-16.3595,0.2224150821250299
-16.359375,0.2194097044607718
-16.35925,0.2157364650933453
-16.359125,0.2127310874290581
-16.359,0.210727502319611
-16.358875,0.2070542629522088
-16.35875,0.2027131618815604
-16.358625,0.1983720608109655
-16.3585,0.1933630980372021
-16.358375,0.1880202044117864
-16.35825,0.1833451724897432
-16.358125,0.177668348012826
-16.358,0.1713236618326431
-16.357875,0.1646450448009585
-16.35775,0.1586342894724424
-16.357625,0.1542931884015704
-16.3575,0.1352570913739813
-16.357375,0.0965231510783397
-16.35725,0.0768232693221487
-16.357125,0.04342814567588384
-16.357,-0.004657896952244939
-16.356875,-0.04706711510401525
-16.35675,-0.0864709555898073
-16.356625,-0.1282123120378017
-16.3565,-0.1689518759316849
-16.356375,-0.2073539238638711
-16.35625,-0.2417467630892045
-16.356125,-0.2714686473684704
-16.356,-0.3008545623070272
-16.355875,-0.3299065463948599
-16.35575,-0.3566210145220209
-16.355625,-0.3833354826487591
-16.3555,-0.4123874667365869
-16.355375,-0.4404376582700119
-16.35525,-0.4644786410955345
-16.355125,-0.4838466304874877
-16.355,-0.4995413805122282
-16.354875,-0.5048842741375759
-16.35475,-0.5142343379819343
-16.354625,-0.5205810626499106
-16.3545,-0.5229165401230902
-16.354375,-0.5225846477593868
-16.35425,-0.5219147475683715
-16.354125,-0.5212468858652031
-16.354,-0.5202471317982924
-16.353875,-0.51890936990406
-16.35375,-0.5152361305367403
-16.353625,-0.5095593060598377
-16.3535,-0.5038824815828232
-16.353375,-0.4975377954027229
-16.35325,-0.4878538007067802
-16.353125,-0.4741626357915986
-16.353,-0.4584678857675966
-16.352875,-0.44277517423098
-16.35275,-0.4307536635737194
-16.352625,-0.4180622527256767
-16.3525,-0.4010338177827231
-16.352375,-0.3843372752032834
-16.35225,-0.3686425251792814
-16.352125,-0.3562870836704367
-16.352,-0.331908093016946
-16.351875,-0.2888310131625806
-16.35175,-0.2594471367110107
-16.351625,-0.2404110396823476
-16.3515,-0.2046804385638751
-16.351375,-0.1612694278574056
-16.35125,-0.1245390726709827
-16.351125,-0.09415136517681795
-16.351,-0.07211192897225892
-16.350875,-0.05341180128328463
-16.35075,-0.03571346614983566
-16.350625,-0.02168837038304055
-16.3505,-0.009332928874424126
-16.350375,0.0003510658215184776
-16.35025,0.008031475408052898
-16.350125,0.01471009243973745
-16.35,0.02138870947122763
-16.349875,0.02806732650300937
-16.34975,0.03474798202253601
-16.349625,0.04176052990580479
-16.3495,0.05077462441084376
-16.349375,0.05812110314578912
-16.34925,0.07181430654818602
-16.349125,0.132925690876141
-16.349,0.1696540075747219
-16.348875,0.1880202044118544
-16.34875,0.2257564291294042
-16.348625,0.2731746100542625
-16.3485,0.3135782046069361
-16.348375,0.3529840835823049
-16.34825,0.3853733376981329
-16.348125,0.3783607898148642
-16.348,0.3703464493767455
-16.347875,0.3636678323450707
-16.34775,0.3576570770167296
-16.347625,0.3509784599849575
-16.3475,0.3442998429532729
-16.347375,0.3386230184763411
-16.34725,0.3319444014445545
-16.347125,0.32493185356131
-16.347,0.3195889599361179
-16.346875,0.3132442737559398
-16.34675,0.3068995875758395
-16.346625,0.301890624802076
-16.3465,0.2995531088409184
-16.346375,0.294878076918749
-16.34625,0.2908709066998548
-16.346125,0.2865298056292016
-16.346,0.2821887045586066
-16.345875,0.2791833268943485
-16.34575,0.2768458109332055
-16.345625,0.2731725715657839
-16.3455,0.2698332630500387
-16.345375,0.2668278853857322
-16.34525,0.2638225077214741
-16.345125,0.2604831992056318
-16.345,0.2574778215413495
-16.344875,0.2558081672834186
-16.34475,0.253470651322397
-16.344625,0.2514670662128576
-16.3445,0.2497974119549366
-16.344375,0.2467920342906785
-16.34425,0.2444545183295598
-16.344125,0.2424509332200495
-16.344,0.240113417259028
-16.343875,0.2381098321494886
-16.34375,0.235772316188399
-16.343625,0.2344365927820621
-16.3435,0.2344365927820426
-16.343375,0.2331008693757446
-16.34325,0.231097284266249
-16.343125,0.2297615608598829
-16.343,0.2274240448987933
-16.342875,0.2270901140472091
-16.34275,0.2254204597892393
-16.342625,0.2220811512734943
-16.3425,0.2194097044608107
-16.342375,0.2170721884996822
-16.34225,0.2133989491322557
-16.342125,0.2090578480616608
-16.342,0.2047187854788447
-16.341875,0.200375645920534
-16.34175,0.195032752295201
-16.341625,0.1893559278181914
-16.3415,0.1833451724896752
-16.341375,0.1766665554579907
-16.34125,0.1699879384262041
-16.341125,0.1629753905431394
-16.341,0.1583003586209262
-16.340875,0.1479485022217471
-16.34075,0.1092104849501346
-16.340625,0.08116233190490156
-16.3405,0.05745324144180424
-16.340375,0.01504198480399957
-16.34025,-0.03170629592988711
-16.340125,-0.07211192897225892
-16.34,-0.1128514928655347
-16.339875,-0.1539249876103947
-16.33975,-0.1933288280978438
-16.339625,-0.2283895290253251
-16.3395,-0.2591111673711373
-16.339375,-0.2888330516504227
-16.33925,-0.3172151355472399
-16.339125,-0.3432637804586517
-16.339,-0.3709800411405557
-16.338875,-0.399364163524389
-16.33875,-0.4244069389054126
-16.338625,-0.4484519987076835
-16.3385,-0.4711572581275689
-16.338375,-0.4898573858162856
-16.33825,-0.498873518809157
-16.338125,-0.5055521358406472
-16.338,-0.5102271677628555
-16.337875,-0.5142343379819343
-16.33775,-0.5155700613882712
-16.337625,-0.5152361305366869
-16.3375,-0.5145682688335087
-16.337375,-0.5139004071303598
-16.33725,-0.5118968220208738
-16.337125,-0.5085575135050024
-16.337,-0.5042164124344074
-16.336875,-0.499207449660644
-16.33675,-0.4931966943319869
-16.336625,-0.4835126996363263
-16.3365,-0.4711572581275689
-16.336375,-0.4561303698062786
-16.33625,-0.4404356197818199
-16.336125,-0.428748039976372
-16.336,-0.4153908059127793
-16.335875,-0.400029986740352
-16.33575,-0.3840033443519275
-16.335625,-0.3689744175427952
-16.3355,-0.3556192219672682
-16.335375,-0.3402563643065517
-16.33525,-0.2998507312643401
-16.335125,-0.2641201301458677
-16.335,-0.2447541792413046
-16.334875,-0.2173698109235559
-16.33475,-0.1762963161786959
-16.334625,-0.1345549597301378
-16.3345,-0.09815853539540106
-16.334375,-0.06877262045684426
-16.33425,-0.04339387573601534
-16.334125,-0.02168837038304055
-16.334,-0.005325758655413394
-16.333875,0.008031475408106352
-16.33375,0.01838333180718825
-16.333625,0.02673160309655098
-16.3335,0.03407808183152546
-16.333375,0.04109062971479425
-16.33325,0.04777128523432089
-16.333125,0.05478179462984963
-16.333,0.06179434251313787
-16.332875,0.07014465229034263
-16.33275,0.07815695424064352
-16.332625,0.08249805531123848
-16.3325,0.1295863823602988
-16.332375,0.1853487575994867
-16.33225,0.2063864012493903
-16.332125,0.2341047004179166
-16.332,0.2788514345306064
-16.331875,0.3219264758971297
-16.33175,0.3616662857234949
-16.331625,0.3850394068464029
-16.3315,0.3750214812989102
-16.331375,0.3673410717126964
-16.33125,0.3613303163840685
-16.331125,0.3553215995433945
-16.331,0.3493108442148785
-16.330875,0.3436340197378591
-16.33075,0.337623264409343
-16.330625,0.3316104705931598
-16.3305,0.3262675769677246
-16.330375,0.3215925450455455
-16.33025,0.3159157205686136
-16.330125,0.3105728269431882
-16.33,0.30522993331786
-16.329875,0.3012227630989658
-16.32975,0.2982173854346495
-16.329625,0.2935423535124703
-16.3295,0.2892012524418754
-16.329375,0.2848601513712318
-16.32925,0.2815208428553944
-16.329125,0.2785154651912238
-16.329,0.2738404332690009
-16.328875,0.2705011247531586
-16.32875,0.2668299238735742
-16.328625,0.2634885768698219
-16.3285,0.2588155834355235
-16.328375,0.2568099598382345
-16.32825,0.253470651322363
-16.328125,0.2504652736581049
-16.328,0.2487956194001839
-16.327875,0.2461241725874663
-16.32775,0.2431187949232957
-16.327625,0.2397815248953004
-16.3275,0.2374419704463201
-16.327375,0.2347705236336463
-16.32725,0.2331008693757252
-16.327125,0.2314312151177603
-16.327,0.2284258374535897
-16.326875,0.2287597683051253
-16.32675,0.2280919066019617
-16.326625,0.2260903599802984
-16.3265,0.2244207057223773
-16.326375,0.2244207057223822
-16.32625,0.2247546365739567
-16.326125,0.2237528440192234
-16.326,0.2227510514644562
-16.325875,0.2210813972065351
-16.32575,0.2187438812454454
-16.325625,0.2157364650932724
-16.3255,0.2107295408074968
-16.325375,0.2060524703974708
-16.32525,0.2010435076236393
-16.325125,0.1960345448498759
-16.325,0.1900237895213598
-16.324875,0.1833472109774249
-16.32475,0.1770004863096672
-16.324625,0.1703218692779876
-16.3245,0.1626414596914531
-16.324375,0.156630704362937
-16.32425,0.1532913958470948
-16.324125,0.1229016498644903
-16.324,0.08183223209650975
-16.323875,0.0631321044074675
-16.32375,0.02706553394825668
-16.323625,-0.02035264697670364
-16.3235,-0.06042231067896887
-16.323375,-0.09715674284170285
-16.32325,-0.1402338226948145
-16.323125,-0.1809733865881243
-16.323,-0.2170358800719716
-16.322875,-0.2487593109724733
-16.32275,-0.2788151261028958
-16.322625,-0.3078650717032654
-16.3225,-0.3342456089776517
-16.322375,-0.3612940079559643
-16.32225,-0.3896801688288594
-16.322125,-0.418398222065103
-16.322,-0.4451106517039991
-16.321875,-0.4651465027993298
-16.32175,-0.4841805613390767
-16.321625,-0.5002092422151634
-16.3215,-0.5065539283954971
-16.321375,-0.5132325454271816
-16.32125,-0.5179075773493608
-16.321125,-0.5185754390525292
-16.321,-0.5185754390525292
-16.320875,-0.5179075773493608
-16.32075,-0.5185754390525292
-16.320625,-0.5179075773493608
-16.3205,-0.5149021996851028
-16.320375,-0.5112289603176179
-16.32025,-0.5072217900987238
-16.320125,-0.5008771039185651
-16.32,-0.4938645560352963
-16.319875,-0.484514492190938
-16.31975,-0.4701554655728162
-16.319625,-0.4531249921418359
-16.3195,-0.4404356197820046
-16.319375,-0.4304176942342931
-16.31925,-0.417060460170924
-16.319125,-0.3996960558885442
-16.319,-0.3823316516059311
-16.318875,-0.3663029707299562
-16.31875,-0.3549513602642649
-16.318625,-0.3228919600241718
-16.3185,-0.2848238429435698
-16.318375,-0.2611167909689318
-16.31825,-0.2350681460569368
-16.318125,-0.1949964438668052
-16.318,-0.1532550874199916
-16.317875,-0.1185262788546245
-16.31775,-0.0777887534491908
-16.317625,-0.03170425744272529
-16.3175,0.009033267963189468
-16.317375,0.0420924222699211
-16.31725,0.06780509784115829
-16.317125,0.08516950212391229
-16.317,0.09785887448411294
-16.316875,0.1075428691800555
-16.31675,0.1152232787665802
-16.316625,0.1212340340950866
-16.3165,0.1265769277202788
-16.316375,0.1332555447520411
-16.31625,0.1396022694199835
-16.316125,0.1469467096669944
-16.316,0.1522896032927309
-16.315875,0.1790081483956828
-16.31575,0.242119040855423
-16.315625,0.2674957470889006
-16.3155,0.2905369758482123
-16.315375,0.3329482324872513
-16.31525,0.3756893430022243
-16.315125,0.3780248204753116
-16.315,0.3693446568222163
-16.314875,0.3616662857234949
-16.31475,0.3556534919071367
-16.314625,0.3493108442148785
-16.3145,0.3436319812500219
-16.314375,0.3379551567730852
-16.31425,0.331946439932586
-16.314125,0.3259336461161404
-16.314,0.3199228907876243
-16.313875,0.3149139280138609
-16.31375,0.3089031726852574
-16.313625,0.3028944558445882
-16.3135,0.2972176313678215
-16.313375,0.2912068760392229
-16.31325,0.2851961207107067
-16.313125,0.2831925356012014
-16.313,0.2778476034879436
-16.312875,0.2731725715657548
-16.31275,0.2678317164284046
-16.312625,0.2638245462093162
-16.3125,0.2604831992056318
-16.312375,0.2564760289866211
-16.31225,0.2528027896191363
-16.312125,0.2487976578880843
-16.312,0.2447884491812315
-16.311875,0.2414491406653309
-16.31175,0.2394455555558255
-16.311625,0.2361062470399832
-16.3115,0.2337687310788693
-16.311375,0.2321011153088388
-16.31125,0.2300954917114963
-16.311125,0.2274260833866354
-16.311,0.2257543906408721
-16.310875,0.2230849823160404
-16.31075,0.221415328058095
-16.310625,0.2197456738002224
-16.3105,0.2184099503938806
-16.310375,0.2154045727296031
-16.31025,0.2140688493232663
-16.310125,0.2144027801748505
-16.31,0.2117313333621475
-16.309875,0.2097277482527004
-16.30975,0.21039560995583
-16.309625,0.2103956099558398
-16.3095,0.2093938174010871
-16.309375,0.2100616791042555
-16.30925,0.2110634716590082
-16.309125,0.2110634716590082
-16.309,0.2107295408074288
-16.308875,0.2080580939947501
-16.30875,0.2037169929241552
-16.308625,0.2000417150688866
-16.3085,0.1960365833376354
-16.308375,0.1903577203730266
-16.30825,0.184013034192936
-16.308125,0.1780022788643276
-16.308,0.1719935620236536
-16.307875,0.1646470832888005
-16.30775,0.1579684662570771
-16.307625,0.155294980956639
-16.3075,0.1319177828582022
-16.307375,0.08650522553024921
-16.30725,0.06747320547779033
-16.307125,0.03674952864419929
-16.307,-0.01133651398453691
-16.306875,-0.05307787043135053
-16.30675,-0.09181384921516467
-16.306625,-0.1325534131090041
-16.3065,-0.1739608387054483
-16.306375,-0.2130287098529609
-16.30625,-0.2474235875665542
-16.306125,-0.276141640801962
-16.306,-0.3041918323350469
-16.305875,-0.3335797857627091
-16.30575,-0.3632996315537054
-16.305625,-0.3900140996804436
-16.3055,-0.4163925984681492
-16.305375,-0.4434409974456843
-16.30525,-0.4691536730180635
-16.305125,-0.4901913166678699
-16.305,-0.5072217900986655
-16.304875,-0.5105610986145077
-16.30475,-0.5179075773494822
-16.304625,-0.526255848638845
-16.3045,-0.5302630188579772
-16.304375,-0.5299290880063929
-16.30425,-0.5285933646000561
-16.304125,-0.5285933646000561
-16.304,-0.5282594337484475
-16.303875,-0.5265897794905751
-16.30375,-0.5239183326778769
-16.303625,-0.5195772316072819
-16.3035,-0.5132325454271816
-16.303375,-0.5062199975437864
-16.30325,-0.4975377954025187
-16.303125,-0.4835126996363894
-16.303,-0.468485811314895
-16.302875,-0.4554625081031102
-16.30275,-0.443440997446078
-16.302625,-0.4290819708277181
-16.3025,-0.4127193591001152
-16.302375,-0.3980264016308369
-16.30225,-0.3826655824577486
-16.302125,-0.3679726249880425
-16.302,-0.3435956728223939
-16.301875,-0.3005185929676252
-16.30175,-0.2728023322862607
-16.301625,-0.2537682737465137
-16.3015,-0.2187055343298928
-16.301375,-0.1726230768112693
-16.30125,-0.1318835129179936
-16.301125,-0.09548505009469563
-16.301,-0.05307583194348901
