csv saver/84_2/drill_ut.csv

#Digilent WaveForms Oscilloscope Acquisition
#Device Name: Discovery2
#Serial Number: SN:210321B2DC85
#Date Time: 2023-08-27 14:24:53.844
#Sample rate: 8000Hz
#Samples: 28489
#Trigger: Source: Channel 1 Type: Edge Condition: Rising Level: -11.02 mV Hyst.: Auto HoldOff: 0 s
#Math 1: Function: C1 - C2

Time (s),Math 1 (V)
-16.384,-0.07640002935895962
-16.383875,-0.5229165401231242
-16.38375,-0.5172417541340343
-16.383625,-0.5118968220207232
-16.3835,-0.5035485507313604
-16.383375,-0.4915270400742068
-16.38325,-0.4751644283465796
-16.383125,-0.459471716809963
-16.383,-0.4467823444497623
-16.382875,-0.4324212793435604
-16.38275,-0.4160607061042515
-16.382625,-0.4010338177827231
-16.3825,-0.3836694135003433
-16.382375,-0.36997824858539
-16.38225,-0.3576228070767736
-16.382125,-0.3172151355466374
-16.382,-0.2758097484392403
-16.381875,-0.2531024505309103
-16.38175,-0.22638594391633
-16.381625,-0.1863142417262227
-16.3815,-0.143905023574535
-16.381375,-0.1101800460524867
-16.38125,-0.08446737048124951
-16.381125,-0.06276186512790055
-16.381,-0.04439566829076803
-16.380875,-0.02736519485997242
-16.38075,-0.01267223739012062
-16.380625,-0.002654311842613231
-16.3805,0.006027890298324004
-16.380375,0.01304043818171913
-16.38025,0.01938512436181945
-16.380125,0.026063741393504
-16.38,0.03341022012846877
-16.379875,0.04109062971492059
-16.37975,0.04977283185585782
-16.379625,0.05845503399717408
-16.3795,0.06279613506776904
-16.379375,0.1018701216788079
-16.37925,0.1616396671370309
-16.379125,0.1843469650448264
-16.379,0.2117313333617782
-16.378875,0.2594834451387212
-16.37875,0.3028924173568287
-16.378625,0.3419623269921834
-16.3785,0.3830358217371114
-16.378375,0.3877088151712396
-16.37825,0.3780268589634208
-16.378125,0.3700125185252585
-16.378,0.3633339014935739
-16.377875,0.3569892153134736
-16.37775,0.3513123908364445
-16.377625,0.3446337738047648
-16.3775,0.3382890876248492
-16.377375,0.3309426088899038
-16.37725,0.3235961301550508
-16.377125,0.3175853748265347
-16.377,0.3109067577947627
-16.376875,0.304896002466266
-16.37675,0.300220970544223
-16.376625,0.2965477311767284
-16.3765,0.2908709066997965
-16.376375,0.2858619439260331
-16.37625,0.2801851194490381
-16.376125,0.2758440183784722
-16.376,0.2735065024174507
-16.375875,0.2691654013468217
-16.37575,0.2658260928309795
-16.375625,0.2624867843151372
-16.3755,0.2588135449476524
-16.375375,0.2548063747286465
-16.37525,0.2511331353613269
-16.375125,0.2487956194001839
-16.375,0.24612417258751
-16.374875,0.2441205874780047
-16.37475,0.2431187949232179
-16.374625,0.2407812789621964
-16.3745,0.2374419704463687
-16.374375,0.2351044544852305
-16.37425,0.232766938524141
-16.374125,0.2310972842662198
-16.374,0.2297615608598391
-16.373875,0.2267561831956686
-16.37375,0.2274240448987836
-16.373625,0.2277579757503775
-16.3735,0.2254204597892879
-16.373375,0.2237508055313668
-16.37325,0.2230829438281886
-16.373125,0.2224150821250396
-16.373,0.220745427867133
-16.372875,0.216738257648098
-16.37275,0.2147346725385927
-16.372625,0.2130650182806715
-16.3725,0.2090578480616122
-16.372375,0.2057185395458671
-16.37225,0.2013774384752867
-16.372125,0.1963684757014601
-16.372,0.1923613054824494
-16.371875,0.187352342708686
-16.37175,0.1823433799348448
-16.371625,0.1770004863096526
-16.3715,0.1703218692779876
-16.371375,0.1629753905430374
-16.37125,0.156630704362937
-16.371125,0.1522896032923421
-16.371,0.1279106126382731
-16.370875,0.08817487978874858
-16.37075,0.06947475209972573
-16.370625,0.03274235842518856
-16.3705,-0.01701333846086136
-16.370375,-0.05808683320572136
-16.37025,-0.09815853539645067
-16.370125,-0.1409016843979878
-16.37,-0.1829769716976102
-16.369875,-0.2210450887788244
-16.36975,-0.2541022045978209
-16.369625,-0.2824883654703224
-16.3695,-0.3128760729649147
-16.369375,-0.3422619879034715
-16.36925,-0.3686425251786691
-16.369125,-0.395023062454207
-16.369,-0.4247429082452033
-16.368875,-0.4547966848877838
-16.36875,-0.47850373686266
-16.368625,-0.4948663485898109
-16.3685,-0.5098932369111205
-16.368375,-0.5162379230914397
-16.36825,-0.5242543020173032
-16.368125,-0.529931126494235
-16.368,-0.5312668499005525
-16.367875,-0.5299290880064124
-16.36775,-0.5282614722363139
-16.367625,-0.5275936105331455
-16.3675,-0.5265918179783927
-16.367375,-0.5249221637204716
-16.36725,-0.5205810626498036
-16.367125,-0.5155720998761861
-16.367,-0.5085595519928444
-16.366875,-0.5012130732579914
-16.36675,-0.4911951477104646
-16.366625,-0.475832290049748
-16.3665,-0.4578020625518524
-16.366375,-0.4447787593404465
-16.36625,-0.433091179534809
-16.366125,-0.4193979761320136
-16.366,-0.4033713337438127
-16.365875,-0.3860069294611705
-16.36575,-0.3679746634757
-16.365625,-0.3552852911158686
-16.3655,-0.3252294759852614
-16.365375,-0.2844899120919856
-16.36525,-0.2597810675625949
-16.365125,-0.2364059079511109
-16.365,-0.1959982364215093
-16.364875,-0.1509196099467926
-16.36475,-0.1141872162718716
-16.364625,-0.07812268430077503
-16.3645,-0.04673318425185762
-16.364375,-0.02168837038276357
-16.36425,-0.002654311842520904
-16.364125,0.012372576478332
-16.364,0.02339229458083018
-16.363875,0.03274235842518856
-16.36375,0.04042276801162579
-16.363625,0.04710138504341724
-16.3635,0.05444786377825082
-16.363375,0.06045861910659198
-16.36325,0.06646937443519554
-16.363125,0.0731479914668801
-16.363,0.08116233190490156
-16.362875,0.08750701808532263
-16.36275,0.1095484927783409
-16.362625,0.1739971471322211
-16.3625,0.2040488852878974
-16.362375,0.2247525980861194
-16.36225,0.2651602696156531
-16.362125,0.313244273756518
-16.362,0.3529820450949633
-16.361875,0.3873769228071378
-16.36175,0.3843695066555382
-16.361625,0.3753554121506061
-16.3615,0.3676750025641689
-16.361375,0.3609963855323871
-16.36125,0.3543177685006831
-16.361125,0.3463034280628949
-16.361,0.3396248110310938
-16.360875,0.3342819174057461
-16.36075,0.3286050929288142
-16.360625,0.3222604067486313
-16.3605,0.3165835822716946
-16.360375,0.3105728269433534
-16.36025,0.3032263482084129
-16.360125,0.2975495237314811
-16.36,0.2942102152156388
-16.359875,0.2892012524418171
-16.35975,0.2851940822228015
-16.359625,0.2808529811523329
-16.3595,0.2765118800816747
-16.359375,0.2731725715658325
-16.35925,0.2688314704952375
-16.359125,0.2654921619793321
-16.359,0.2611510609088634
-16.358875,0.2571438906898478
-16.35875,0.2548063747286999
-16.358625,0.2511331353612734
-16.3585,0.2487956194001839
-16.358375,0.246792034290625
-16.35825,0.2431187949233054
-16.358125,0.2414491406653552
-16.358,0.238777693852657
-16.357875,0.235772316188399
-16.35775,0.2341026619304778
-16.357625,0.2324330076725324
-16.3575,0.2307633534146599
-16.357375,0.2294276300083181
-16.35725,0.2264222523440406
-16.357125,0.2254204597892879
-16.357,0.2254204597892879
-16.356875,0.2230829438281838
-16.35675,0.2220811512734602
-16.356625,0.222415082125025
-16.3565,0.2227490129766141
-16.356375,0.2234168746797825
-16.35625,0.2220811512734457
-16.356125,0.2190757736091536
-16.356,0.216738257648132
-16.355875,0.2140668108354631
-16.35575,0.2103935714679977
-16.355625,0.206386401248987
-16.3555,0.202045300178392
-16.355375,0.1980381299592986
-16.35525,0.1923592669946899
-16.355125,0.185682688450862
-16.355,0.1783362097159118
-16.354875,0.1709897309810588
-16.35475,0.1643111139493743
-16.354625,0.1579664277692156
-16.3545,0.1539592575503215
-16.354375,0.1389303307413496
-16.35425,0.09318180407409168
-16.354125,0.07147833720895896
-16.354,0.04376003803962598
-16.353875,-0.004993866292317514
-16.35375,-0.04940463106388518
-16.353625,-0.0888084715508969
-16.3535,-0.1295480354447461
-16.353375,-0.170621530189606
-16.35325,-0.2096914398249607
-16.353125,-0.2450881100933407
-16.353,-0.2761436792897701
-16.352875,-0.3061974559323652
-16.35275,-0.3342476474658776
-16.352625,-0.3602942538894474
-16.3525,-0.3866747911646014
-16.352375,-0.4147249826980847
-16.35225,-0.4427751742303434
-16.352125,-0.469823573209074
-16.352,-0.4908612168588804
-16.351875,-0.5098952753991813
-16.35175,-0.5165738924308659
-16.351625,-0.5215828552047023
-16.3515,-0.5265918179783198
-16.351375,-0.529931126494235
-16.35125,-0.529931126494235
-16.351125,-0.5295971956426507
-16.351,-0.5289293339394824
-16.350875,-0.5282614722362799
-16.35075,-0.5259239562752582
-16.350625,-0.5222507169077978
-16.3505,-0.5175756849856186
-16.350375,-0.510897067953934
-16.35025,-0.5025487966642117
-16.350125,-0.4945344562261125
-16.35,-0.4811772221631322
-16.349875,-0.4644806795837264
-16.34975,-0.4497877221140204
-16.349625,-0.4381001423085724
-16.3495,-0.4244089773933615
-16.349375,-0.4067106422594169
-16.34925,-0.390348030532266
-16.349125,-0.3753211422107376
-16.349,-0.3622978389989527
-16.348875,-0.340592333645978
-16.34875,-0.2975132153032943
-16.348625,-0.2647900303360765
-16.3485,-0.2454220409447549
-16.348375,-0.2123628866376345
-16.34825,-0.166278390631169
-16.348125,-0.1252069343741511
-16.348,-0.08847454069928351
-16.347875,-0.04706711510293164
-16.34775,-0.01200641417545024
-16.347625,0.01337436903330335
-16.3475,0.03341022012835701
-16.347375,0.04709934655546826
-16.34725,0.05812110314570648
-16.347125,0.06613544358369879
-16.347,0.07214619891203994
-16.346875,0.07715516168589083
-16.34675,0.08316591701440693
-16.346625,0.08917667234292302
-16.3465,0.09618922022630357
-16.346375,0.1038696298127408
-16.34625,0.1115500393989545
-16.346125,0.1195643798370877
-16.346,0.1760027707305064
-16.345875,0.2190757736091876
-16.34575,0.2371080395952316
-16.345625,0.2711710249448495
-16.3455,0.3179193056774386
-16.345375,0.3589928004229789
-16.34525,0.3890445385777174
-16.345125,0.3810301981396959
-16.345,0.371682172783063
-16.344875,0.3636678323450512
-16.34475,0.3563213536104121
-16.344625,0.3506445291333732
-16.3445,0.3439659121016887
-16.344375,0.3376212259215884
-16.34425,0.332278332296163
-16.344125,0.3269354386707911
-16.344,0.3199228907877263
-16.343875,0.3129103429043555
-16.34375,0.3065656567242552
-16.343625,0.2998870396925707
-16.3435,0.2935423535124266
-16.343375,0.2905369758482561
-16.34325,0.2868637364808392
-16.343125,0.2825226354101908
-16.343,0.2775136726364274
-16.342875,0.2728386407142482
-16.34275,0.268497539643595
-16.342625,0.2644903694247008
-16.3425,0.2608171300572695
-16.342375,0.2581456832445422
-16.34225,0.2544724438771157
-16.342125,0.2524688587676103
-16.342,0.2484616885485462
-16.341875,0.2447884491812266
-16.34175,0.2414491406653795
-16.341625,0.2391116247042413
-16.3415,0.2374419704463201
-16.341375,0.2354383853368147
-16.34125,0.23343480022729
-16.341125,0.2320990768209919
-16.341,0.2294276300083375
-16.340875,0.2267561831956248
-16.34075,0.2247525980861194
-16.340625,0.2214132895702772
-16.3405,0.2194097044607815
-16.340375,0.2200775661639306
-16.34025,0.2194097044607815
-16.340125,0.2180739810544349
-16.34,0.2174061193512664
-16.339875,0.2160703959449295
-16.33975,0.2157364650933356
-16.339625,0.2150686033901865
-16.3395,0.2130650182807007
-16.339375,0.2120632257259188
-16.33925,0.2103935714679977
-16.339125,0.2077221246553238
-16.339,0.2033810235846512
-16.338875,0.198038129959459
-16.33875,0.1930291671856907
-16.338625,0.1876862735602702
-16.3385,0.1826773107865068
-16.338375,0.1763326246064064
-16.33825,0.1699879384262235
-16.338125,0.1643111139494569
-16.338,0.1576324969177869
-16.337875,0.1519556724407578
-16.33775,0.1446071552180627
-16.337625,0.1062051072858766
-16.3375,0.07581943827922835
-16.337375,0.05344607122373624
-16.33725,0.009365160327091997
-16.337125,-0.03638132785274657
-16.337,-0.07478337578493274
-16.336875,-0.1158568705297927
-16.33675,-0.1596018120879291
-16.336625,-0.2010092376831683
-16.3365,-0.2370737696548673
-16.336375,-0.2671275462974479
-16.33625,-0.2975152537916126
-16.336125,-0.3262333070278561
-16.336,-0.3519459826002353
-16.335875,-0.3789943815777705
-16.33575,-0.4073785039628235
-16.335625,-0.4370983497538197
-16.3355,-0.4648146104353106
-16.335375,-0.4861841464488591
-16.33525,-0.5032166583676619
-16.335125,-0.5145703073211954
-16.335,-0.5202471317982924
-16.334875,-0.526925748829977
-16.33475,-0.5312668499005719
-16.334625,-0.5322686424553197
-16.3345,-0.5319347116037306
-16.334375,-0.5312668499005817
-16.33425,-0.5305989881974035
-16.334125,-0.5285954030878981
-16.334,-0.5235864403141347
-16.333875,-0.5199132009466498
-16.33375,-0.5159060307275954
-16.333625,-0.5088934828445306
-16.3335,-0.5018809349611598
-16.333375,-0.4901913166678699
-16.33325,-0.47282691238549
-16.333125,-0.4564663391455446
-16.333,-0.4454466210432505
-16.332875,-0.4334251103865682
-16.33275,-0.4173964295103503
-16.332625,-0.4010338177827231
-16.3325,-0.3850051369066802
-16.332375,-0.3693103868820223
-16.33225,-0.3556192219667531
-16.332125,-0.3202205132120131
-16.332,-0.2794829878060643
-16.331875,-0.2554399664919999
-16.33175,-0.2277216673226669
-16.331625,-0.1859803108740505
-16.3315,-0.1455767163202593
-16.331375,-0.1091782534986379
-16.33125,-0.06944048215958511
-16.331125,-0.03704918955591502
-16.331,-0.0126722373902664
-16.330875,0.006361821150228947
-16.33075,0.01971905521355432
-16.330625,0.03007091161236409
-16.3305,0.03775132119895197
-16.330375,0.04442993823063653
-16.33025,0.05177641696548953
-16.330125,0.05811906465784012
-16.33,0.06446578932579708
-16.329875,0.07181226806043629
-16.32975,0.07882481594381197
-16.329625,0.08650522553024921
-16.3295,0.09051239574925994
-16.329375,0.1265810046969007
-16.32925,0.185682688451071
-16.329125,0.206720332100265
-16.329,0.2341026619304778
-16.328875,0.2828586047496172
-16.32875,0.3262675769677246
-16.328625,0.3643356940486862
-16.3285,0.3890445385775619
-16.328375,0.3783607898150196
-16.32825,0.3706803802284269
-16.328125,0.3633339014935739
-16.328,0.3573231461650578
-16.327875,0.3519802525395984
-16.32775,0.3442998429533847
-16.327625,0.3376212259216856
-16.3275,0.3316104705930723
-16.327375,0.3245979227098035
-16.32725,0.3179193056781189
-16.327125,0.3125764120526838
-16.327,0.3065656567243427
-16.326875,0.3005549013958266
-16.32675,0.2952120077703915
-16.326625,0.2918726992545492
-16.3265,0.2865298056292016
-16.326375,0.2808529811522065
-16.32625,0.2765118800817379
-16.326125,0.2728386407143017
-16.326,0.2688314704952375
-16.325875,0.2658260928309795
-16.32575,0.2614849917603845
-16.325625,0.256809959838147
-16.3255,0.2528027896192528
-16.325375,0.2491295502518216
-16.32525,0.2454563108843416
-16.325125,0.243118794923252
-16.325,0.2404473481105782
-16.324875,0.238777693852623
-16.32475,0.2364401778916015
-16.324625,0.2337687310789325
-16.3245,0.231431215117804
-16.324375,0.2287597683051302
-16.32425,0.2267561831956248
-16.324125,0.225756429128685
-16.324,0.223750805531396
-16.323875,0.2217472204218906
-16.32375,0.2224150821250299
-16.323625,0.2207454278671087
-16.3235,0.2190757736091876
-16.323375,0.21807398105443
-16.32325,0.2177400502028555
-16.323125,0.2187418427575888
-16.323,0.2177400502028507
-16.322875,0.2147346725385927
-16.32275,0.2127310874290873
-16.322625,0.2097257097647903
-16.3225,0.2070542629521943
-16.322375,0.2023792310300442
-16.32225,0.197704199107797
-16.322125,0.1936970288887863
-16.322,0.1893559278181914
-16.321875,0.1840130341927756
-16.32175,0.1793380022707325
-16.321625,0.1726593852390772
-16.3215,0.1656468373557111
-16.321375,0.1589682203240266
-16.32125,0.1519556724407578
-16.321125,0.1482824330730106
-16.321,0.1262409583812509
-16.320875,0.08450164042074385
-16.32075,0.06780509784153246
-16.320625,0.0330742507889307
-16.3205,-0.01801716950345613
-16.320375,-0.0624279342769043
-16.32025,-0.1028335673174199
-16.320125,-0.1415695461017783
-16.32,-0.1829769716982225
-16.319875,-0.2223808121851613
-16.31975,-0.2537703122340788
-16.319625,-0.2828222963223536
-16.3195,-0.3135439346672084
-16.319375,-0.3422619879038991
-16.31925,-0.3693103868822215
-16.319125,-0.3946891316026228
-16.319,-0.4240750465424722
-16.318875,-0.4541288231849701
-16.31875,-0.4785037368620672
-16.318625,-0.4975398338905649
-16.3185,-0.5122327913602709
-16.318375,-0.5169078232824501
-16.31825,-0.5255900254237372
-16.318125,-0.5322686424553538
-16.318,-0.5342722275648008
-16.317875,-0.5342722275648299
-16.31775,-0.5312668499005719
-16.317625,-0.529931126494235
-16.3175,-0.5299311264942107
-16.317375,-0.5282614722362605
-16.31725,-0.5245882328689407
-16.317125,-0.5202450933104503
-16.317,-0.5125646837240131
-16.316875,-0.5052182049891601
-16.31675,-0.4945324177382412
-16.316625,-0.4791715985653668
-16.3165,-0.4638128178807814
-16.316375,-0.4494537912624362
-16.31625,-0.4370983497538197
-16.316125,-0.4224053922841137
-16.316,-0.4053749188530995
-16.315875,-0.3903480305317801
-16.31575,-0.3733175571014801
-16.315625,-0.358290668779942
-16.3155,-0.3289027153526879
-16.315375,-0.2878292206078279
-16.31525,-0.2631203760781261
-16.315125,-0.2417467630886262
-16.315,-0.2020089917512597
-16.314875,-0.1555926033804737
-16.31475,-0.1168586630845454
-16.314625,-0.0814619928166173
-16.3145,-0.05274393958002385
-16.314375,-0.02870091826603721
-16.31425,-0.0100007905778647
-16.314125,0.004692166892113435
-16.314,0.01604581584597718
-16.313875,0.02572981054191977
-16.31375,0.03374415098004328
-16.313625,0.0407566988633072
-16.3135,0.04743531589479738
-16.313375,0.05277820952024222
-16.31325,0.06045658061883736
-16.313125,0.06680330528677977
-16.313,0.07515157657647779
-16.312875,0.08149626275673851
-16.31275,0.09886270552645501
-16.312625,0.165314944991969
-16.3125,0.1990378840262918
-16.312375,0.216738257648098
-16.31225,0.2554762749204199
-16.312125,0.3042281407624562
-16.312,0.3456355663590073
-16.311875,0.3853733376981329
-16.31175,0.3867070226166278
-16.311625,0.3776929281116957
-16.3115,0.370012518525137
-16.311375,0.3616642472357742
-16.31125,0.3549856302040654
-16.311125,0.3479730823206995
-16.311,0.3402926727342622
-16.310875,0.3346158482573303
-16.31075,0.3286050929287219
-16.310625,0.3222604067488062
-16.3105,0.3162496514202853
-16.310375,0.3089031726853448
-16.31025,0.3025584865052445
-16.310125,0.2962138003251442
-16.31,0.2928744918092436
-16.309875,0.2888673215903494
-16.30975,0.28419228966818
-16.309625,0.279851188597517
-16.3095,0.2765118800816747
-16.309375,0.2715029173079113
-16.30925,0.2678296779404265
-16.309125,0.2638225077215324
-16.309,0.2594814066509423
-16.308875,0.2564760289866211
-16.30875,0.253470651322363
-16.308625,0.2504652736581049
-16.3085,0.2481277576969717
-16.308375,0.2451223800328011
-16.30825,0.242117002368543
-16.308125,0.240113417258994
-16.308,0.2377759012979044
-16.307875,0.2354383853368147
-16.30775,0.2334348002272851
-16.307625,0.2317651459694126
-16.3075,0.2307633534146502
-16.307375,0.228425837453546
-16.30725,0.2250865289377037
-16.307125,0.224084736382951
-16.307,0.2240847363829267
-16.306875,0.2224150821250542
-16.30675,0.2217472204218711
-16.306625,0.2214132895702772
-16.3065,0.2224150821250299
-16.306375,0.2217472204218614
-16.30625,0.2204114970154808
-16.306125,0.2174061193513102
-16.306,0.2140668108354728
-16.305875,0.2113953640227504
-16.30575,0.2090578480616608
-16.305625,0.2040488852878974
-16.3055,0.2003756459204125
-16.305375,0.1963684757015184
-16.30525,0.1896898586697756
-16.305125,0.1840130341928437
-16.305,0.1773344171611591
-16.304875,0.1709897309810588
-16.30475,0.1653129065040249
-16.304625,0.1583003586209602
-16.3045,0.1556289118081844
-16.304375,0.1432714318117258
-16.30425,0.09852469769943932
-16.304125,0.0731479914668801
-16.304,0.04676541570319886
-16.303875,-0.0003188343688068987
-16.30375,-0.04506352999393648
-16.303625,-0.08580309388721226
-16.3035,-0.126542657780488
-16.303375,-0.1696197376354268
-16.30325,-0.2090235781223122
-16.303125,-0.2447541792407846
-16.303,-0.2758097484386378
-16.302875,-0.305529594229634
-16.30275,-0.333245854911125
-16.302625,-0.3606281847414009
-16.3025,-0.3860069294618411
-16.302375,-0.4140571209940999
-16.30225,-0.4437769667855043
-16.302125,-0.469823573209074
-16.302,-0.4891915626009593
-16.301875,-0.5075577594382327
-16.30175,-0.5172397156462847
-16.301625,-0.5235864403140423
-16.3015,-0.5275936105331455
-16.301375,-0.5289293339394824
-16.30125,-0.5305989881974035
-16.301125,-0.5312648114127153
-16.301,-0.5302650573458143
-16.300875,-0.5299311264942399
