csv saver/84_2/handsaw.csv

#Digilent WaveForms Oscilloscope Acquisition
#Device Name: Discovery2
#Serial Number: SN:210321B2DC85
#Date Time: 2023-08-27 14:26:00.866
#Sample rate: 8000Hz
#Samples: 29110
#Trigger: Source: Channel 1 Type: Edge Condition: Rising Level: -11.02 mV Hyst.: Auto HoldOff: 0 s
#Math 1: Function: C1 - C2

Time (s),Math 1 (V)
-16.384,-0.2687686617255798
-16.383875,-0.468485811314895
-16.38375,-0.453792853845189
-16.383625,-0.4367623804141261
-16.3835,-0.4183961835775282
-16.383375,-0.3996960558885442
-16.38325,-0.3870066835283435
-16.383125,-0.3542814600730892
-16.383,-0.3145436887345661
-16.382875,-0.2891669825016376
-16.38275,-0.2637861992941328
-16.382625,-0.2223787736973193
-16.3825,-0.1789677629913697
-16.382375,-0.1422353693171046
-16.38225,-0.1058369064944238
-16.382125,-0.07144202878084994
-16.382,-0.04406173743958224
-16.381875,-0.02102050867987209
-16.38175,-0.003656104397492256
-16.381625,0.01003506051746108
-16.3815,0.02172264032305968
-16.381375,0.03207449672216588
-16.38125,0.04209242226940115
-16.381125,0.0514424861139053
-16.381,0.06045861910667945
-16.380875,0.06847499803254301
-16.38075,0.07782302338920025
-16.380625,0.08750905657294114
-16.3805,0.09418563511658928
-16.380375,0.1135577014842558
-16.38025,0.1760027707305064
-16.380125,0.2060524703974027
-16.38,0.2274260833872379
-16.379875,0.2688335089837259
-16.37975,0.3132463122431356
-16.379625,0.3529820450944628
-16.3795,0.3877108536592225
-16.379375,0.3873748843197962
-16.37925,0.3810322366274797
-16.379125,0.377027104896311
-16.379,0.3730178961895749
-16.378875,0.3690127644583479
-16.37875,0.3660073867940898
-16.378625,0.3616662857234949
-16.3785,0.3579930463560198
-16.378375,0.3546537378401435
-16.37825,0.3489769133633768
-16.378125,0.3439679505895308
-16.378,0.3399607803705201
-16.377875,0.3342839558935882
-16.37775,0.3306086780383099
-16.377625,0.3299428548229203
-16.3775,0.3249318535614607
-16.377375,0.3219264758971297
-16.37725,0.3175853748265347
-16.377125,0.3125764120527713
-16.377,0.3092371035368707
-16.376875,0.3052299333178551
-16.37675,0.3008888322473865
-16.376625,0.2982173854346495
-16.3765,0.2952140462582336
-16.376375,0.2918726992545492
-16.37625,0.2888673215902426
-16.376125,0.2855280130743808
-16.376,0.2808529811523378
-16.375875,0.2785154651911801
-16.37575,0.2738404332690009
-16.375625,0.2701671939015744
-16.3755,0.2678296779404411
-16.375375,0.2648263387640445
-16.37525,0.2631546460183299
-16.375125,0.2618209610998108
-16.375,0.2591474757992949
-16.374875,0.2561420981350369
-16.37475,0.255140305580255
-16.374625,0.2531367204708079
-16.3745,0.2507992045097232
-16.374375,0.2484616885485997
-16.37425,0.24612417258751
-16.374125,0.2437866566264204
-16.374,0.2424509332200009
-16.373875,0.2367741087432343
-16.37375,0.230763353414723
-16.373625,0.2270901140472091
-16.3735,0.2214132895702772
-16.373375,0.2164043267965138
-16.37325,0.2100616791041632
-16.373125,0.2037169929242475
-16.373,0.1980401684473059
-16.372875,0.1920273746308651
-16.37275,0.1840130341928437
-16.372625,0.1776683480127434
-16.3725,0.1709897309809422
-16.372375,0.162975390543154
-16.37225,0.1556289118082913
-16.372125,0.1522896032923421
-16.372,0.1355910222252886
-16.371875,0.09318384256193375
-16.37175,0.07248216825114066
-16.371625,0.04409600737946537
-16.3715,-0.000986696072004481
-16.371375,-0.04372780658759957
-16.37125,-0.0814619928166173
-16.371125,-0.1211997641551404
-16.371,-0.1606036046426429
-16.370875,-0.199339583425286
-16.37075,-0.2330665994353658
-16.370625,-0.2624504758874266
-16.3705,-0.2905027059083438
-16.370375,-0.3182189665898347
-16.37025,-0.3462691581233034
-16.370125,-0.3733175571008386
-16.37,-0.4000320252275817
-16.369875,-0.4277482859094613
-16.36975,-0.4551285772515259
-16.369625,-0.4771680134560849
-16.3695,-0.4945324177385474
-16.369375,-0.500209242215314
-16.36925,-0.508557513504881
-16.369125,-0.5179075773493608
-16.369,-0.5235844018262926
-16.368875,-0.5232504709747084
-16.36875,-0.5222507169078027
-16.368625,-0.5225846477593771
-16.3685,-0.52258260927154
-16.368375,-0.5229165401231242
-16.36825,-0.5229185786109662
-16.368125,-0.5205790241620346
-16.368,-0.5165718539429461
-16.367875,-0.5112289603177539
-16.36775,-0.5032146198796548
-16.367625,-0.4891895241131172
-16.3675,-0.4724929815339058
-16.367375,-0.4584678857673682
-16.36725,-0.4464484135979934
-16.367125,-0.4337570027503201
-16.367,-0.4210676303899347
-16.366875,-0.4090461197329025
-16.36675,-0.3960228165211176
-16.366625,-0.3843352367156697
-16.3665,-0.3616279388073688
-16.366375,-0.3222240983215767
-16.36625,-0.2965134612368599
-16.366125,-0.2788151261028958
-16.366,-0.2460878641597994
-16.365875,-0.205348300266028
-16.36575,-0.1712893918923371
-16.365625,-0.1412335767627893
-16.3655,-0.1141851777840295
-16.365375,-0.09047812580939145
-16.36525,-0.07211192897225892
-16.365125,-0.058086833205561
-16.365,-0.04706711510330578
-16.364875,-0.03771705125921954
-16.36475,-0.03170629593056738
-16.364625,-0.02803305656314087
-16.3645,-0.02202230123462477
-16.364375,-0.01434189164809035
-16.36425,-0.007663274616391222
-16.364125,1.713496982248298e-05
-16.364,0.01003506051746108
-16.363875,0.01871726265865099
-16.36375,0.02940508839718837
-16.363625,0.08817895676444729
-16.3635,0.1289144436817328
-16.363375,0.1486163639246288
-16.36325,0.1870204503449438
-16.363125,0.2347725621214884
-16.363,0.2771797417848432
-16.362875,0.318921098233134
-16.36275,0.3369513257305098
-16.362625,0.3322783322963088
-16.3625,0.3286050929288142
-16.362375,0.3242639918582193
-16.36225,0.3205907524907928
-16.362125,0.31825323652964
-16.362,0.3139121354590742
-16.361875,0.3115746194980527
-16.36175,0.3099049652400975
-16.361625,0.3065656567242552
-16.3615,0.3052299333179183
-16.361375,0.3048980409541179
-16.36125,0.3008908707351459
-16.361125,0.2995531088410059
-16.361,0.2992212164772443
-16.360875,0.298885247137818
-16.36075,0.2985513162862338
-16.360625,0.2982173854346155
-16.3605,0.2958798694735502
-16.360375,0.2952120077704012
-16.36025,0.2932104611487282
-16.360125,0.2908709066997965
-16.36,0.2895351832934596
-16.359875,0.2875315981839154
-16.35975,0.2848621898590982
-16.359625,0.2831925356012257
-16.3595,0.2808550196401118
-16.359375,0.2791833268943485
-16.35925,0.2785154651911801
-16.359125,0.2761799877179131
-16.359,0.2748422258237731
-16.358875,0.2741743641205949
-16.35875,0.2715049557957534
-16.358625,0.2705031632410007
-16.3585,0.2694993321984059
-16.358375,0.2664939545341236
-16.35825,0.2648243002762511
-16.358125,0.2621548919514339
-16.358,0.2598153375024633
-16.357875,0.2574778215413738
-16.35775,0.2551403055802842
-16.357625,0.2514670662128333
-16.3575,0.2497974119549609
-16.357375,0.2484616885486191
-16.35725,0.2447884491811731
-16.357125,0.240113417258994
-16.357,0.2367741087431517
-16.356875,0.233100869375662
-16.35675,0.2287597683051934
-16.356625,0.2217472204219635
-16.3565,0.2157385035811874
-16.356375,0.2103956099558398
-16.35625,0.2047167469910658
-16.356125,0.1977062375955468
-16.356,0.191359512927789
-16.355875,0.1856826884508474
-16.35575,0.1780043173521697
-16.355625,0.1706558001294746
-16.3555,0.1659828066951375
-16.355375,0.1559628426592194
-16.35525,0.1182266179434579
-16.355125,0.09084836508908466
-16.355,0.06646937443519554
-16.354875,0.02539384120249346
-16.35475,-0.01834906186719827
-16.354625,-0.05775290235471053
-16.3545,-0.09715674284050259
-16.354375,-0.1375623758821795
-16.35425,-0.173624869366022
-16.354125,-0.2096894013371186
-16.354,-0.2417467630892045
-16.353875,-0.2724684014353568
-16.35375,-0.300184662116041
-16.353625,-0.326231268539635
-16.3535,-0.3522799134514259
-16.353375,-0.3799961741329168
-16.35325,-0.4083782580297341
-16.353125,-0.4334230718989108
-16.353,-0.4581339549154244
-16.352875,-0.4781698060105461
-16.35275,-0.4908591783710383
-16.352625,-0.4962020719963859
-16.3525,-0.5035485507312389
-16.352375,-0.5082235826534133
-16.35225,-0.5078896518018389
-16.352125,-0.507889651801834
-16.352,-0.5072217900986655
-16.351875,-0.5062199975439128
-16.35175,-0.5048842741375759
-16.351625,-0.5012110347700911
-16.3515,-0.4972038645511969
-16.351375,-0.491860970925791
-16.35125,-0.4851823538941064
-16.351125,-0.4771680134560849
-16.351,-0.4641447102443001
-16.350875,-0.4497877221138163
-16.35075,-0.4357605878598448
-16.350625,-0.4240730080541928
-16.3505,-0.4117175665455763
-16.350375,-0.3970246090758703
-16.35025,-0.3806640358358568
-16.350125,-0.3649672473235999
-16.35,-0.3522799134516105
-16.349875,-0.3409242260097201
-16.34975,-0.3035219321444445
-16.349625,-0.2657897844032689
-16.3495,-0.2454220409441037
-16.349375,-0.220041257735666
-16.34925,-0.181305278953023
-16.349125,-0.1415675076139362
-16.349,-0.1078404916039292
-16.348875,-0.07578312985184332
-16.34875,-0.04806686917006091
-16.348625,-0.02803305656289791
-16.3485,-0.01133651398417246
-16.348375,0.001686789227855387
-16.34825,0.01203864562696645
-16.348125,0.02038691691657214
-16.348,0.02840125735471511
-16.347875,0.03675156713214828
-16.34775,0.04409804586678748
-16.347625,0.0514424861139053
-16.3475,0.05812110314558985
-16.347375,0.06413389696194804
-16.34725,0.07014465229051757
-16.347125,0.07381585317067547
-16.347,0.1168970099994712
-16.346875,0.1649810141403848
-16.34675,0.1863505501539333
-16.346625,0.2177420886906928
-16.3465,0.2628227536551563
-16.346375,0.3035602790605511
-16.34625,0.3416283961400452
-16.346125,0.366339279157832
-16.346,0.3563213536103051
-16.345875,0.3483070131722837
-16.34575,0.3399587418825954
-16.345625,0.3342819174056878
-16.3455,0.3302747471867937
-16.345375,0.3232621993034666
-16.34525,0.3179193056781189
-16.345125,0.3129103429043555
-16.345,0.3045620716146624
-16.344875,0.2985513162861172
-16.34475,0.290539014336171
-16.344625,0.2828565662617751
-16.3445,0.2761779492300905
-16.344375,0.2711710249441692
-16.34425,0.2671638547250855
-16.344125,0.2621528534634703
-16.344,0.2564760289867037
-16.343875,0.2534726898102051
-16.34375,0.2467940727785206
-16.343625,0.2411152098137467
-16.3435,0.2354383853367516
-16.343375,0.231097284266283
-16.34325,0.2277579757504261
-16.343125,0.2234168746797825
-16.343,0.2220811512734457
-16.342875,0.218076019542277
-16.34275,0.2144027801748456
-16.342625,0.2140668108354291
-16.3425,0.2123991950653694
-16.342375,0.2120632257259188
-16.34225,0.2113974025105924
-16.342125,0.2097277482526713
-16.342,0.2093917789132353
-16.341875,0.2087239172100862
-16.34175,0.2060545088852837
-16.341625,0.2053866471820764
-16.3415,0.2037169929241552
-16.341375,0.2007116152598971
-16.34125,0.2000437535567287
-16.341125,0.2000437535567287
-16.341,0.1987059916625691
-16.340875,0.199041961001976
-16.34075,0.199041961001976
-16.340625,0.197704199107797
-16.3405,0.1973702682562128
-16.340375,0.1973702682562128
-16.34025,0.1970363374046334
-16.340125,0.1963684757014601
-16.34,0.194698821443539
-16.339875,0.1923613054824494
-16.33975,0.1896918971575739
-16.339625,0.1866865194934033
-16.3395,0.1823454184228278
-16.339375,0.1773364556490012
-16.33925,0.1719915235358115
-16.339125,0.1663146990588796
-16.339,0.1609718054334591
-16.338875,0.1559648811476835
-16.33875,0.1522896032923955
-16.338625,0.1249052349745933
-16.3385,0.09018050338551781
-16.338375,0.07281406061529587
-16.33825,0.0360816669403651
-16.338125,-0.009666859725342619
-16.338,-0.04773293831821428
-16.337875,-0.08379950877770689
-16.33775,-0.1228694184130615
-16.337625,-0.1606036046420792
-16.3375,-0.1970020674652071
-16.337375,-0.2277216673222199
-16.33725,-0.2564397205584926
-16.337125,-0.2848238429435698
-16.337,-0.3138758270313977
-16.336875,-0.340592333645978
-16.33675,-0.3663050092183571
-16.336625,-0.3933534081958923
-16.3365,-0.4203997686867663
-16.336375,-0.4407695506334042
-16.33625,-0.4598036091737051
-16.336125,-0.4748304974949954
-16.336,-0.479171598565707
-16.335875,-0.4871859390034952
-16.33575,-0.4935306251837121
-16.335625,-0.494866348590049
-16.3355,-0.4952002794416333
-16.335375,-0.4941984868868806
-16.33525,-0.4941984868868757
-16.335125,-0.4938645560353012
-16.335,-0.4911931092226225
-16.334875,-0.4881877315583645
-16.33475,-0.4841805613393537
-16.334625,-0.4795055294170774
-16.3345,-0.4728269123853442
-16.334375,-0.4628089868381089
-16.33425,-0.4497856836261783
-16.334125,-0.436094518711225
-16.334,-0.4264105240152823
-16.333875,-0.4160586676159624
-16.33375,-0.4016996409978357
-16.333625,-0.3870066835285573
-16.3335,-0.3736494494649744
-16.333375,-0.3579567379283578
-16.33325,-0.3445974653771466
-16.333125,-0.3142097578824377
-16.333,-0.2768095025052228
-16.332875,-0.2544381739375727
-16.33275,-0.2310609758385092
-16.332625,-0.1916571353515703
-16.3325,-0.1489139863487892
-16.332375,-0.114187216271376
-16.33225,-0.08012626940987219
-16.332125,-0.05207607787761345
-16.332,-0.02870091826630933
-16.331875,-0.01033472142917681
-16.33175,0.003690374337360752
-16.331625,0.0160458158461181
-16.3315,0.02572981054202671
-16.331375,0.03307832776450793
-16.33125,0.04142659905422056
-16.331125,0.05010880119541048
-16.331,0.05711931059083718
-16.330875,0.06446782781366348
-16.33075,0.07348396080644731
-16.330625,0.08316591701426604
-16.3305,0.09017846489767571
-16.330375,0.1128898397810874
-16.33025,0.1760027707305064
-16.330125,0.2040488852882035
-16.33,0.2250865289383062
-16.329875,0.2664959930213874
-16.32975,0.3119105888374449
-16.329625,0.3513144293243838
-16.3295,0.3857072685497172
-16.329375,0.3867090611044261
-16.32925,0.3837036834401292
-16.329125,0.3780268589633625
-16.329,0.3736877963805271
-16.328875,0.3693466953099321
-16.32875,0.3630020091298318
-16.328625,0.3586609080591785
-16.3285,0.3546537378401435
-16.328375,0.3489769133633768
-16.32825,0.3433000888863623
-16.328125,0.3379571952610147
-16.328,0.3312765397414881
-16.327875,0.3259336461160723
-16.32775,0.3212586141940293
-16.327625,0.3165856207596922
-16.3275,0.3119105888374449
-16.327375,0.3082373494700185
-16.32725,0.3018926632899181
-16.327125,0.2972155928798629
-16.327,0.2948801154066833
-16.326875,0.2928744918093311
-16.32675,0.2905390143360544
-16.326625,0.2865318441170436
-16.3265,0.2801871579369433
-16.326375,0.2745103334599192
-16.32625,0.2681656472800034
-16.326125,0.2641584770609587
-16.326,0.2614870302482266
-16.325875,0.2581477217323843
-16.32575,0.2544744823649578
-16.325625,0.2538066206617408
-16.3255,0.2504673121459956
-16.325375,0.2481277576970495
-16.32525,0.2467940727785206
-16.325125,0.2424509332200835
-16.325,0.2374419704463201
-16.324875,0.2317651459693008
-16.32475,0.2257543906409596
-16.324625,0.2220811512734991
-16.3245,0.2177420886906928
-16.324375,0.2123991950653451
-16.32425,0.2090598865495028
-16.324125,0.2053866471819938
-16.324,0.1997098227052271
-16.323875,0.1936970288888738
-16.32375,0.1866865194933596
-16.323625,0.1786721790553381
-16.3235,0.1703239077657324
-16.323375,0.1629753905429207
-16.32325,0.1549610501051325
-16.323125,0.1479485022218492
-16.323,0.1412698851900625
-16.322875,0.1335915140914674
-16.32275,0.1235735885439406
-16.322625,0.114555417063198
-16.3225,0.1058752534101028
-16.322375,0.09886270552680977
-16.32225,0.09185015764343894
-16.322125,0.08917871083076512
-16.322,0.0731479914668801
-16.321875,0.03007091161220377
-16.32175,0.008701375599277222
-16.321625,-0.01601154590574905
-16.3215,-0.05942255661205827
-16.321375,-0.1021657056148394
-16.32125,-0.1408996459107677
-16.321125,-0.1789698014797803
-16.321,-0.2180397111139979
-16.320875,-0.254104243085663
-16.32075,-0.2871613589046594
-16.320625,-0.3182169281019926
-16.3205,-0.3452673655681571
-16.320375,-0.3716479028437047
-16.32025,-0.3986942633333979
-16.320125,-0.4240730080541928
-16.32,-0.4494517527745941
-16.319875,-0.4734947740886585
-16.31975,-0.4935306251837121
-16.319625,-0.5112289603178755
-16.3195,-0.5249201252324303
-16.319375,-0.525587986935798
-16.31925,-0.5295951571548088
-16.319125,-0.5326005348190668
-16.319,-0.5315987422642802
-16.318875,-0.5292612263031663
-16.31875,-0.5252540560842721
-16.318625,-0.5212468858652031
-16.3185,-0.5172397156461923
-16.318375,-0.5128986145755974
-16.31825,-0.5065539283954047
-16.318125,-0.5002092422152801
-16.318,-0.4921949017774919
-16.317875,-0.4841805613393537
-16.31775,-0.4741626357918269
-16.317625,-0.4594696783221209
-16.3175,-0.4434409974458738
-16.317375,-0.4294159016793606
-16.31725,-0.4170604601711038
-16.317125,-0.4033692952559707
-16.317,-0.3860048909735908
-16.316875,-0.3703121794369742
-16.31675,-0.3552852911155188
-16.316625,-0.3439316421615092
-16.3165,-0.3225559906850565
-16.316375,-0.2824863269824803
-16.31625,-0.2554399664919999
-16.316125,-0.2357360077606884
-16.316,-0.2030107843048364
-16.315875,-0.1619372895600298
-16.31575,-0.1245370341836848
-16.315625,-0.08813857136045976
-16.3155,-0.05741693301471082
-16.315375,-0.03170425744272529
-16.31525,-0.01200233719901778
-16.315125,0.004358236040723581
-16.315,0.01771547010370394
-16.314875,0.0284012573545936
-16.31475,0.03741942883520983
-16.314625,0.04609959248855766
-16.3145,0.05478179462986424
-16.314375,0.0627981735557326
-16.31425,0.07114440635725328
-16.314125,0.07949267764698043
-16.314,0.08817691827601244
-16.313875,0.09552135852302335
-16.31375,0.1052073917076633
-16.313625,0.1639812600740476
-16.3135,0.2033810235841556
-16.313375,0.2234168746797825
-16.31325,0.2581477217323843
-16.313125,0.3028944558446708
-16.313,0.3419623269927325
-16.312875,0.3796985517092229
-16.31275,0.3920499162417957
-16.312625,0.3850394068465487
-16.3125,0.3783628283027062
-16.312375,0.3736877963805271
-16.31225,0.3703484878646167
-16.312125,0.3656714174547316
-16.312,0.3599945929778142
-16.311875,0.3556555303949788
-16.31175,0.3499787059180469
-16.311625,0.3439679505895308
-16.3115,0.3402926727341699
-16.311375,0.3339500250420963
-16.31125,0.3292729546320508
-16.311125,0.3255997152645562
-16.311,0.3225943376002982
-16.310875,0.3195889599360401
-16.31075,0.3159157205685456
-16.310625,0.3112406886465025
-16.3105,0.3082353109822201
-16.310375,0.3052299333179183
-16.31025,0.3015566939504918
-16.310125,0.2992191779894022
-16.31,0.2968837005161012
-16.309875,0.2932104611487816
-16.30975,0.2905369758482512
-16.309625,0.2895351832934596
-16.3095,0.2858619439260331
-16.309375,0.2838583588165277
-16.30925,0.2811889504916571
-16.309125,0.278515465191219
-16.309,0.2768458109332833
-16.308875,0.273842471756843
-16.30875,0.2701692323894165
-16.308625,0.2681656472799111
-16.3085,0.2651602696156191
-16.308375,0.2628227536545975
-16.30825,0.2608171300572452
-16.308125,0.2564760289866211
-16.308,0.2544744823649578
-16.307875,0.2518030355522839
-16.30775,0.2477958653332392
-16.307625,0.2454563108843756
-16.3075,0.2427848640717066
-16.307375,0.238777693852657
-16.30725,0.2344365927820621
-16.307125,0.2297615608598829
-16.307,0.2250885674254972
-16.306875,0.2217492589097521
-16.30675,0.2170742269875923
-16.306625,0.2100616791042555
-16.3065,0.203383062072571
-16.306375,0.1977062375956391
-16.30625,0.1906936897122682
-16.306125,0.1836791033413615
-16.306,0.1753328705396173
-16.305875,0.1669845992498901
-16.30575,0.1599700128787793
-16.305625,0.1526235341439263
-16.3055,0.1469467096668195
-16.305375,0.1349251990101372
-16.30525,0.0958532508867655
-16.305125,0.067137236138364
-16.305,0.04042276801162579
-16.304875,-0.004323966100660709
-16.30475,-0.04973856191667935
-16.304625,-0.0884745406993224
-16.3045,-0.1275444503352407
-16.304375,-0.1689498374438429
-16.30425,-0.2070179545244448
-16.304125,-0.241078901386036
-16.304,-0.2718005397322272
-16.303875,-0.3021902857133495
-16.30375,-0.3329119240595407
-16.303625,-0.3629657007021212
-16.3035,-0.3920156463021069
-16.303375,-0.4203997686871987
-16.30325,-0.4501196144781319
-16.303125,-0.4754983591977945
-16.303,-0.4972038645511386
-16.302875,-0.5162379230914397
-16.30275,-0.5282594337484718
-16.302625,-0.5382773592961736
-16.3025,-0.5502988699531378
-16.302375,-0.5576453486877769
-16.30225,-0.5603167955005577
-16.302125,-0.5616525189068946
-16.302,-0.5633221731648157
-16.301875,-0.5636561040164
-16.30175,-0.5636561040163708
-16.301625,-0.5616525189069238
-16.3015,-0.5596489337973892
-16.301375,-0.55497390187521
-16.30125,-0.5486292156951097
-16.301125,-0.5422865680026716
-16.301,-0.5299290880061694
