csv saver/84_2/homepod.csv

#Digilent WaveForms Oscilloscope Acquisition
#Device Name: Discovery2
#Serial Number: SN:210321B2DC85
#Date Time: 2023-08-27 15:59:19.546
#Sample rate: 8000Hz
#Samples: 27158
#Trigger: Source: Channel 1 Type: Edge Condition: Rising Level: -11.02 mV Hyst.: Auto HoldOff: 0 s
#Math 1: Function: C1 - C2

Time (s),Math 1 (V)
-16.384,-0.03735458157771002
-16.383875,-0.0440617374391838
-16.38375,-0.04372780658759957
-16.383625,-0.04272601403283231
-16.3835,-0.04172422147810879
-16.383375,-0.03838491296225193
-16.38325,-0.03270808848532006
-16.383125,-0.02703126400838819
-16.383,-0.01968478527353518
-16.382875,-0.01167044483539224
-16.38275,-0.003322173546029509
-16.382625,0.005360028595281891
-16.3825,0.01404223073647181
-16.382375,0.02272443287766172
-16.38225,0.03107270416726741
-16.382125,0.03908704460539096
-16.382,0.04610163097629767
-16.381875,0.05378000207499489
-16.38175,0.06045861910667945
-16.381625,0.06680330528677977
-16.3815,0.0728140606153396
-16.381375,0.07581943827958797
-16.38125,0.07815899272845156
-16.381125,0.08083043954115943
-16.381,0.08316795550224902
-16.380875,0.08583736382708075
-16.38075,0.08784298742445251
-16.380625,0.08951264168236392
-16.3805,0.09051443423708747
-16.380375,0.09151622679185471
-16.38025,0.09185015764343894
-16.380125,0.09285195019819162
-16.38,0.09318588104978071
-16.379875,0.09351981190136008
-16.37975,0.09351981190136008
-16.379625,0.09351981190136008
-16.3795,0.09318588104977585
-16.379375,0.09285195019819162
-16.37925,0.09218408849500373
-16.379125,0.0908483650886571
-16.379,0.08884477997921005
-16.378875,0.08650522553024921
-16.37875,0.08383581720541748
-16.378625,0.08149830124432789
-16.3785,0.07949267764693187
-16.378375,0.07615540761894134
-16.37825,0.07348192231850323
-16.378125,0.06981072143887991
-16.378,0.06646937443519554
-16.377875,0.06146041166143214
-16.37775,0.05611751803601159
-16.377625,0.0511085552622385
-16.3775,0.04543376927331387
-16.377375,0.03908704460528888
-16.37725,0.0310747426551095
-16.377125,0.02439408713558287
-16.377,0.01838333180699874
-16.376875,0.01370829988481955
-16.37675,0.009033267962776426
-16.376625,0.005360028595281891
-16.3765,0.002354650931023843
-16.376375,0.0003510658215184776
-16.37625,-0.001652519288006329
-16.376125,-0.002988242694333519
-16.376,-0.003656104397482538
-16.375875,-0.004323966100660709
-16.37575,-0.004991827803829165
-16.375625,-0.005993620358581848
-16.3755,-0.00699541291334911
-16.375375,-0.007997205468121231
-16.37525,-0.01033472142914279
-16.375125,-0.01667940760927714
-16.375,-0.0246937480472986
-16.374875,-0.03037057252423047
-16.37475,-0.03704918955603647
-16.374625,-0.04539542235755717
-16.3745,-0.05341180128342553
-16.374375,-0.06176007257314787
-16.37425,-0.07010834386275357
-16.374125,-0.07244585982384315
-16.374,-0.07177799812066012
-16.373875,-0.07077620556593658
-16.37375,-0.06977237452334185
-16.373625,-0.06777082790166396
-16.3735,-0.06610117364374282
-16.373375,-0.06443151938582169
-16.37325,-0.06276186512786654
-16.373125,-0.06042434916684497
-16.373,-0.05541538639312044
-16.372875,-0.05007045427985781
-16.37275,-0.04439566829076803
-16.372625,-0.04005456722017307
-16.3725,-0.03771705125905432
-16.372375,-0.03571346614960727
-16.37225,-0.03437774274326064
-16.372125,-0.03270808848532006
-16.372,-0.03103843422739892
-16.371875,-0.02970271082106201
-16.37175,-0.02903484911789356
-16.371625,-0.02903484911789356
-16.3715,-0.02903484911789356
-16.371375,-0.02870091826630933
-16.37125,-0.02903484911789356
-16.371125,-0.02903484911789356
-16.371,-0.02870091826630933
-16.370875,-0.02870091826630933
-16.37075,-0.0290348491178887
-16.370625,-0.02903484911789356
-16.3705,-0.02936877996947779
-16.370375,-0.02970271082106201
-16.37025,-0.03003664167264624
-16.370125,-0.03003664167264624
-16.37,-0.03037057252422561
-16.369875,-0.03070450337581469
-16.36975,-0.03103843422739892
-16.369625,-0.03204022678215161
-16.3695,-0.03304201933691401
-16.369375,-0.03370988104006303
-16.36925,-0.03437774274323148
-16.369125,-0.03537953529799388
-16.369,-0.03704918955591502
-16.368875,-0.03838491296225193
-16.36875,-0.03972063636860828
-16.368625,-0.04105635977490631
-16.3685,-0.04205815232966386
-16.368375,-0.04272601403284689
-16.36825,-0.04305994488443111
-16.368125,-0.04372780658759957
-16.368,-0.04439566829077289
-16.367875,-0.0447295991423474
-16.36775,-0.04472959914235226
-16.367625,-0.04472959914235226
-16.3675,-0.04472959914235226
-16.367375,-0.04472959914235226
-16.36725,-0.04439566829075831
-16.367125,-0.0437278065876093
-16.367,-0.04305994488443111
-16.366875,-0.04205815232967844
-16.36675,-0.03972063636858884
-16.366625,-0.0343777427432412
-16.3665,-0.02903484911779151
-16.366375,-0.02202230123472682
-16.36625,-0.01400796079660331
-16.366125,-0.005659689506997622
-16.366,0.003022512634192299
-16.365875,0.01137078392392433
-16.36575,0.02005298606511425
-16.365625,0.02873518820605148
-16.3655,0.03641763628045715
-16.365375,0.0440960073790523
-16.36525,0.0514424861139053
-16.365125,0.05812110314568704
-16.365,0.06479972017737159
-16.364875,0.07147833720886178
-16.36475,0.07515157657638546
-16.364625,0.07782302338905929
-16.3645,0.07982864698640675
-16.364375,0.08283198616285674
-16.36425,0.08517154061178354
-16.364125,0.0871751257212306
-16.364,0.08884477997918089
-16.363875,0.09018050338551781
-16.36375,0.09151418830401262
-16.363625,0.09185015764344866
-16.3635,0.09251801934661712
-16.363375,0.09318588104976613
-16.36325,0.09351981190136008
-16.363125,0.09351981190136008
-16.363,0.09351981190136008
-16.362875,0.09318588104977099
-16.36275,0.09285195019818676
-16.362625,0.09251801934661226
-16.3625,0.09184811915559685
-16.362375,0.08951264168234935
-16.36225,0.08717512572125975
-16.362125,0.0848355712722989
-16.362,0.08283198616278868
-16.361875,0.08049447020176712
-16.36175,0.07748909253747506
-16.361625,0.07414978402163279
-16.3615,0.0708125139936326
-16.361375,0.06813902869304865
-16.36125,0.06346399677085489
-16.361125,0.05778717229408823
-16.361,0.05277820952024222
-16.360875,0.04743531589489457
-16.36075,0.04109062971479425
-16.360625,0.03374415097983433
-16.3605,0.02639767224498618
-16.360375,0.0193851243619215
-16.36025,0.01337436903330335
-16.360125,0.008365406259539939
-16.36,0.004358236040529208
-16.359875,0.0006849966730638293
-16.35975,-0.001986450139595414
-16.359625,-0.00365610439746796
-16.3595,-0.004657896952244939
-16.359375,-0.005659689506997622
-16.35925,-0.006327551210166076
-16.359125,-0.00699541291334911
-16.359,-0.007997205468072636
-16.358875,-0.008665067171245952
-16.35875,-0.009666859726008352
-16.358625,-0.01133651398392949
-16.3585,-0.01634547675769291
-16.358375,-0.0243598171958067
-16.35825,-0.03070450337572236
-16.358125,-0.03704715106798064
-16.358,-0.04472756065451017
-16.357875,-0.05274393958037372
-16.35775,-0.06109221086997941
-16.357625,-0.06944048215962398
-16.3575,-0.07211192897222005
-16.357375,-0.07177799812067955
-16.35725,-0.07044227471433778
-16.357125,-0.06910655130800088
-16.357,-0.06743689705007973
-16.356875,-0.06576724279213431
-16.35675,-0.06409758853426176
-16.356625,-0.06242793427634062
-16.3565,-0.06042434916681096
-16.356375,-0.056083248096216
-16.35625,-0.05040642361928413
-16.356125,-0.04506352999387814
-16.356,-0.04105432128714201
-16.355875,-0.03771705125913204
-16.35575,-0.03571142766173602
-16.355625,-0.03370988104007275
-16.3555,-0.03237415763373584
-16.355375,-0.03070450337579526
-16.35525,-0.02936877996949722
-16.355125,-0.02870091826631905
-16.355,-0.02836494892688302
-16.354875,-0.0283669874147251
-16.35475,-0.0283669874147251
-16.354625,-0.0283669874147251
-16.3545,-0.0283669874147251
-16.354375,-0.0283669874147251
-16.35425,-0.02803305656314087
-16.354125,-0.02803305656314087
-16.354,-0.02903281063005147
-16.353875,-0.02870091826631419
-16.35375,-0.0290348491178887
-16.353625,-0.02903484911789356
-16.3535,-0.02970067233321993
-16.353375,-0.02970271082106201
-16.35325,-0.03003664167264624
-16.353125,-0.03037057252423533
-16.353,-0.03070450337580983
-16.352875,-0.03237415763371154
-16.35275,-0.03337391170064643
-16.352625,-0.03370988104007275
-16.3525,-0.03471167359482542
-16.352375,-0.03637928936492878
-16.35225,-0.03804894362280132
-16.352125,-0.03871884381383615
-16.352,-0.04005456722017307
-16.351875,-0.04139029062650998
-16.35175,-0.04205815232967844
-16.351625,-0.04305994488443597
-16.3515,-0.04339387573601049
-16.351375,-0.0440617374391838
-16.35125,-0.04472756065451017
-16.351125,-0.04439566829076803
-16.351,-0.04472959914235226
-16.350875,-0.04506149150608957
-16.35075,-0.04472959914235709
-16.350625,-0.0440617374391838
-16.3505,-0.04372780658759957
-16.350375,-0.04305994488443111
-16.35025,-0.04205815232966386
-16.350125,-0.041056359774848
-16.35,-0.03571346614965586
-16.349875,-0.03037057252423047
-16.34975,-0.02402588634413014
-16.349625,-0.01601154590610868
-16.3495,-0.007997205467970591
-16.349375,1.713497006544975e-05
-16.34925,0.009033267962577193
-16.349125,0.01771547010389831
-16.349,0.02639767224508823
-16.348875,0.03441201268310969
-16.34875,0.04209242226964897
-16.348625,0.04910497015292262
-16.3485,0.05645144888756181
-16.348375,0.06313006591935327
-16.34825,0.0694747520994536
-16.348125,0.07448371487321701
-16.348,0.07682123083434061
-16.347875,0.07915874679543507
-16.34775,0.08183019360803115
-16.347625,0.08383581720541748
-16.3475,0.08617333316650708
-16.347375,0.08817691827601244
-16.34725,0.09017846489768543
-16.347125,0.09084632660085391
-16.347,0.09151622679184497
-16.346875,0.09218408849502317
-16.34675,0.09285195019819162
-16.346625,0.09318588104977585
-16.3465,0.09351777341351315
-16.346375,0.09318588104977585
-16.34625,0.09318588104977585
-16.346125,0.09285195019819162
-16.346,0.0925180193466074
-16.345875,0.09151622679185471
-16.34575,0.08984657253390442
-16.345625,0.08784298742439903
-16.3455,0.08583736382710994
-16.345375,0.08283402465066479
-16.34525,0.0804965086895752
-16.345125,0.07749113102531716
-16.345,0.07481968421260443
-16.344875,0.07214619891207885
-16.34475,0.06880892888417579
-16.344625,0.06446782781353227
-16.3445,0.05945682655192677
-16.344375,0.05411393292657912
-16.34425,0.04910497015272825
-16.344125,0.04309421482419273
-16.344,0.03574977457739557
-16.343875,0.02873518820617783
-16.34375,0.02138870947132482
-16.343625,0.01537795414280872
-16.3435,0.009703168153650877
-16.343375,0.005026097743765725
-16.34325,0.001352858376324613
-16.343125,-0.001318588436402661
-16.343,-0.0029882426943238
-16.342875,-0.004323966100660709
-16.34275,-0.00565968950700734
-16.342625,-0.006327551210156357
-16.3425,-0.006995412913324814
-16.342375,-0.007663274616502987
-16.34225,-0.008331136319671441
-16.342125,-0.009332928874424126
-16.342,-0.01066865228081449
-16.341875,-0.01434189164813409
-16.34175,-0.02235623208609238
-16.341625,-0.02870091826630933
-16.3415,-0.03471167359482542
-16.341375,-0.04205815232967844
-16.34125,-0.05040642361940562
-16.341125,-0.05875469490876833
-16.341,-0.06710296619837401
-16.340875,-0.07177799812067469
-16.34075,-0.07144406726909046
-16.340625,-0.0704402362264957
-16.3405,-0.06877262045640203
-16.340375,-0.06776878941383647
-16.34025,-0.06610117364376709
-16.340125,-0.06443151938582169
-16.34,-0.06242793427631632
-16.339875,-0.06042434916681096
-16.33975,-0.05675110979931153
-16.339625,-0.05174010853785187
-16.3395,-0.04673114576408843
-16.339375,-0.04139029062650998
-16.33925,-0.03738312040749925
-16.339125,-0.03537953529799388
-16.339,-0.03370988104005331
-16.338875,-0.03237415763375527
-16.33875,-0.03070450337583899
-16.338625,-0.02903484911789356
-16.3385,-0.02803305656314087
-16.338375,-0.02769912571155664
-16.33825,-0.02769912571156147
-16.338125,-0.02803101807529396
-16.338,-0.02803101807529879
-16.337875,-0.02803101807529879
-16.33775,-0.02769912571155664
-16.337625,-0.02736519485997242
-16.3375,-0.02769912571156151
-16.337375,-0.02803305656313601
-16.33725,-0.02836698741472024
-16.337125,-0.0283669874147251
-16.337,-0.0283669874147251
-16.336875,-0.02903281063005147
-16.33675,-0.02903484911789842
-16.336625,-0.02936877996947293
-16.3365,-0.02970271082106201
-16.336375,-0.03003664167264624
-16.33625,-0.03137236507898315
-16.336125,-0.03237415763373584
-16.336,-0.03270808848533464
-16.335875,-0.03370988104005817
-16.33575,-0.03571142766173602
-16.335625,-0.03704918955591502
-16.3355,-0.03838287447440985
-16.335375,-0.03938670551700461
-16.33525,-0.04105432128709825
-16.335125,-0.04205611384182177
-16.335,-0.0427239755450048
-16.334875,-0.04339183724817326
-16.33475,-0.04372576809975749
-16.334625,-0.04372780658760926
-16.3345,-0.04439362980292594
-16.334375,-0.04439362980292594
-16.33425,-0.04472756065451017
-16.334125,-0.04472756065451017
-16.334,-0.04439362980292594
-16.333875,-0.04372780658758985
-16.33375,-0.04305994488441654
-16.333625,-0.04205815232969302
-16.3335,-0.04139029062650998
-16.333375,-0.03704918955591502
-16.33325,-0.03170629593056738
-16.333125,-0.02602947145352861
-16.333,-0.01868299271866102
-16.332875,-0.01033472142929829
-16.33275,-0.001986450139571118
-16.332625,0.0066957520016188
-16.3325,0.01537795414280872
-16.332375,0.02372622543253592
-16.33225,0.03207653520997395
-16.332125,0.03975694479618766
-16.332,0.04710342353115243
-16.331875,0.05444786377816335
-16.33175,0.06112648080984791
-16.331625,0.06713927462629354
-16.3315,0.073147991466919
-16.331375,0.07582147676735712
-16.33125,0.0781589927284856
-16.331125,0.08083043954115943
-16.331,0.08316795550224902
-16.330875,0.08583736382710994
-16.33075,0.08784298742444765
-16.330625,0.08917871083074567
-16.3305,0.09018050338551781
-16.330375,0.09118229594027048
-16.33025,0.09185015764343894
-16.330125,0.09251801934661226
-16.33,0.09285195019819648
-16.329875,0.09318588104977099
-16.32975,0.09318588104977585
-16.329625,0.09318588104977585
-16.3295,0.09285195019819162
-16.329375,0.09251801934659283
-16.32925,0.09151622679184014
-16.329125,0.09051443423711661
-16.329,0.08851084912759666
-16.328875,0.08583940231492285
-16.32875,0.08316795550224902
-16.328625,0.08083043954112541
-16.3285,0.0784929235800261
-16.328375,0.07548754591585552
-16.32825,0.07281609910313797
-16.328125,0.06947679058729569
-16.328,0.06580355121986918
-16.327875,0.06079254995818107
-16.32775,0.05511572548141442
-16.327625,0.05044069355922065
-16.3275,0.04443197671847861
-16.327375,0.03775335968679406
-16.32725,0.03040688095194105
-16.327125,0.02305836372914391
-16.327,0.01604581584607922
-16.326875,0.01003506051754855
-16.32675,0.004694205379955524
-16.326625,0.0006870351609447895
-16.3265,-0.001652519287986891
-16.326375,-0.003656104397511694
-16.32625,-0.004991827803809728
-16.326125,-0.006327551210146639
-16.326,-0.006995412913334532
-16.325875,-0.007995166980245128
-16.32575,-0.008663028683413582
-16.325625,-0.008998998022854476
-16.3255,-0.010000790577578
-16.325375,-0.01133651398391005
-16.32525,-0.01367402994501908
-16.325125,-0.02035264697670364
-16.325,-0.02769912571155664
-16.324875,-0.03370988104017962
-16.32475,-0.04105432128697679
-16.324625,-0.04840283850967183
-16.3245,-0.05675110979938445
-16.324375,-0.06509938108899015
-16.32425,-0.07177595963283259
-16.324125,-0.07177595963282288
-16.324,-0.07110809792967386
-16.323875,-0.06944048215960938
-16.32375,-0.06810475875324819
-16.323625,-0.06676699685906919
-16.3235,-0.06509734260114805
-16.323375,-0.06276186512787625
-16.32325,-0.06109221087000371
-16.323125,-0.05842076405734446
-16.323,-0.05340976279570009
-16.322875,-0.04806686917035245
-16.32275,-0.04239208318126266
-16.322625,-0.03871884381380214
-16.3225,-0.03638132785278058
-16.322375,-0.03437774274327036
-16.32225,-0.03304201933690429
-16.322125,-0.03137236507898315
-16.322,-0.02936877996947779
-16.321875,-0.02836698741471538
-16.32175,-0.02769912571156636
-16.321625,-0.02769912571155664
-16.3215,-0.02769912571155664
-16.321375,-0.02769912571155664
-16.32125,-0.02769912571155664
-16.321125,-0.02769912571155664
-16.321,-0.02769912571155664
-16.320875,-0.02769912571155664
-16.32075,-0.02803305656314087
-16.320625,-0.0283669874147251
-16.3205,-0.0283669874147251
-16.320375,-0.02870091826631416
-16.32025,-0.02903281063004664
-16.320125,-0.02903484911789356
-16.32,-0.02936877996947779
-16.319875,-0.02970271082106201
-16.31975,-0.03036853403638838
-16.319625,-0.03103843422741836
-16.3195,-0.0323741576337164
-16.319375,-0.03304201933690429
-16.31925,-0.03370988104007275
-16.319125,-0.03537953529799388
-16.319,-0.03671525870435022
-16.318875,-0.03805098211068714
-16.31875,-0.03938670551698518
-16.318625,-0.04072242892334153
-16.3185,-0.04172422147809421
-16.318375,-0.04239208318126266
-16.31825,-0.04305994488444084
-16.318125,-0.04372780658760443
-16.318,-0.04406173743917895
-16.317875,-0.04472756065451017
-16.31775,-0.04472959914235226
-16.317625,-0.04472959914235226
-16.3175,-0.0447295991423474
-16.317375,-0.04439566829076803
-16.31725,-0.04439566829076803
-16.317125,-0.04372780658759957
-16.317,-0.04305994488443111
-16.316875,-0.04205815232967844
-16.31675,-0.03905277466534263
-16.316625,-0.033709881039995
-16.3165,-0.02836698741480285
-16.316375,-0.02135443953145632
-16.31625,-0.01300616824185063
-16.316125,-0.004991827803829165
-16.316,0.003690374337487094
-16.315875,0.01237257647867215
-16.31575,0.02072084776803488
-16.315625,0.02940304990934628
-16.3155,0.0370854979836256
-16.315375,0.04476386908222076
-16.31525,0.05177845545343363
-16.315125,0.05878896484885064
-16.315,0.06513365102876631
-16.314875,0.07147833720895896
-16.31475,0.07481764572480123
-16.314625,0.07715720017373293
-16.3145,0.07949471613486137
-16.314375,0.08216412445968829
-16.31425,0.08450367890855189
-16.314125,0.08684119486967552
-16.314,0.08851084912759666
-16.313875,0.08951264168234935
-16.31375,0.09051443423711172
-16.313625,0.09118025745243813
-16.3135,0.0918501576434292
-16.313375,0.0925180193466074
-16.31325,0.09285195019819162
-16.313125,0.09285195019819162
-16.313,0.09285195019818676
-16.312875,0.09251801934660255
-16.31275,0.09218408849502803
-16.312625,0.09151622679185471
-16.3125,0.09051443423710204
-16.312375,0.08851084912759666
-16.31225,0.08617333316646821
-16.312125,0.08350188635387212
-16.312,0.08116437039277767
-16.311875,0.07882685443165406
-16.31175,0.07648729998272237
-16.311625,0.0731500299547222
-16.3115,0.07047654465414799
-16.311375,0.06647141292309593
-16.31125,0.06179638100092647
-16.311125,0.05678537973925295
-16.311,0.05144452460174739
-16.310875,0.04610163097639975
-16.31075,0.03942301394460829
-16.310625,0.03207653520996909
-16.3105,0.02473005647511608
-16.310375,0.01804940095548254
-16.31025,0.01170675326322431
-16.310125,0.006697790489460889
-16.31,0.002688581782559476
-16.309875,-0.0006507267331856115
-16.30975,-0.002988242694289785
-16.309625,-0.004323966100660709
-16.3095,-0.005659689506997622
-16.309375,-0.006993374425492445
-16.30925,-0.007327305277081563
-16.309125,-0.007663274616498098
-16.309,-0.008331136319661724
-16.308875,-0.009332928874424126
-16.30875,-0.01033472142917681
-16.308625,-0.01233830653868217
-16.3085,-0.01768120016414158
-16.308375,-0.02536160975035529
-16.30825,-0.03137236507889568
-16.308125,-0.03771705125908348
-16.308,-0.04572935320926285
-16.307875,-0.05407762449886854
-16.30775,-0.06209400342484871
-16.307625,-0.07010834386263694
-16.3075,-0.07144406726907102
-16.307375,-0.07077620556592201
-16.30725,-0.06944048215958511
-16.307125,-0.06810475875324819
-16.307,-0.06676903534688698
-16.306875,-0.06509938108901445
-16.30675,-0.06309579597951392
-16.306625,-0.06142614172156364
-16.3065,-0.05942255661205827
-16.306375,-0.05441359383829486
-16.30625,-0.04873676936129009
-16.306125,-0.04372780658767246
-16.306,-0.03938670551706779
-16.305875,-0.03638132785274657
-16.30575,-0.0343777427432412
-16.305625,-0.03270808848532006
-16.3055,-0.03103843422737949
-16.305375,-0.02970271082108145
-16.30525,-0.02803305656314087
-16.305125,-0.02769912571155664
-16.305,-0.02736519485997242
-16.304875,-0.02736519485997242
-16.30475,-0.02736519485997242
-16.304625,-0.02736519485997242
-16.3045,-0.02736519485997242
-16.304375,-0.02736519485997242
-16.30425,-0.02736519485997242
-16.304125,-0.02803101807529879
