csv saver/84_2/homepod_ut.csv

#Digilent WaveForms Oscilloscope Acquisition
#Device Name: Discovery2
#Serial Number: SN:210321B2DC85
#Date Time: 2023-08-27 15:58:35.630
#Sample rate: 8000Hz
#Samples: 29379
#Trigger: Source: Channel 1 Type: Edge Condition: Rising Level: -11.02 mV Hyst.: Auto HoldOff: 0 s
#Math 1: Function: C1 - C2

Time (s),Math 1 (V)
-16.384,-0.04167529776988412
-16.383875,-0.09749067369266022
-16.38375,-0.09782460454424445
-16.383625,-0.09782460454424445
-16.3835,-0.09782460454424445
-16.383375,-0.09782460454424445
-16.38325,-0.09749067369266022
-16.383125,-0.09682281198949176
-16.383,-0.09648888113790755
-16.382875,-0.09548708858314997
-16.38275,-0.09515111924373341
-16.382625,-0.09414932668897585
-16.3825,-0.09314957262206526
-16.382375,-0.09214778006731258
-16.38225,-0.0911459875125599
-16.382125,-0.09014419495779265
-16.382,-0.0891424024030691
-16.381875,-0.08813857136045976
-16.38175,-0.08680488644196493
-16.381625,-0.08580309388721226
-16.3815,-0.0844673704808559
-16.381375,-0.08313164707452386
-16.38125,-0.08212985451980033
-16.381125,-0.08112602347719097
-16.381,-0.07979030007085407
-16.380875,-0.07845457666451716
-16.38075,-0.07711885325816567
-16.380625,-0.07611706070339842
-16.3805,-0.07411551408179343
-16.380375,-0.07277979067542738
-16.38025,-0.07111013641750624
-16.380125,-0.06944048215958511
-16.38,-0.0677708279016348
-16.379875,-0.06576724279212945
-16.37975,-0.06376365768268238
-16.379625,-0.06176007257314787
-16.3795,-0.05908862576047404
-16.379375,-0.05675110979938445
-16.37925,-0.05441359383826085
-16.379125,-0.05207607787717122
-16.379,-0.04973652342830762
-16.378875,-0.04673318425185762
-16.37875,-0.0440617374391838
-16.378625,-0.04139029062650998
-16.3785,-0.03871884381379242
-16.378375,-0.03571346614953438
-16.37825,-0.03270808848536379
-16.378125,-0.02970271082106201
-16.378,-0.02703126400838819
-16.377875,-0.02402588634413014
-16.37775,-0.02102050867979434
-16.377625,-0.01567761505443698
-16.3775,-0.00966685972609582
-16.377375,-0.003656104397492256
-16.37725,0.005026097743697664
-16.377125,0.01437616158805603
-16.377,0.02372622543255533
-16.376875,0.03341022012850279
-16.37675,0.04342814567573806
-16.376625,0.05311214037182645
-16.3765,0.06246220421618481
-16.376375,0.0708125139936326
-16.37625,0.07882685443176582
-16.376125,0.08650726401819334
-16.376,0.09351981190125803
-16.375875,0.1005323597846289
-16.37575,0.1078768000316398
-16.375625,0.1142235246995822
-16.3755,0.1205682108797748
-16.375375,0.1269128970598654
-16.37525,0.1325897215366321
-16.375125,0.1369308226073097
-16.375,0.1409359543384783
-16.374875,0.1429395394479837
-16.37475,0.1442773013421821
-16.374625,0.1456109862606381
-16.3745,0.1466127788153956
-16.374375,0.1472806405185787
-16.37425,0.1476145713701629
-16.374125,0.1476145713701629
-16.374,0.1472806405185738
-16.373875,0.1469467096669993
-16.37375,0.1459449171122563
-16.373625,0.1442752628543206
-16.3735,0.1426056085963995
-16.373375,0.1402680926353098
-16.37325,0.1372627149709984
-16.373125,0.1335894756036788
-16.373,0.1299162362362523
-16.372875,0.1269108585719408
-16.37275,0.1229057268407721
-16.372625,0.1192304489855035
-16.3725,0.1152232787664345
-16.372375,0.1112161085475404
-16.37225,0.1065410766253709
-16.372125,0.09986245959361831
-16.372,0.0925180193466074
-16.371875,0.08683915638183343
-16.37175,0.07982660849843831
-16.371625,0.07114440635750108
-16.3715,0.06212827336473178
-16.371375,0.05311214037182645
-16.37125,0.04476386908222076
-16.371125,0.03674952864419929
-16.371,0.02973698076084304
-16.370875,0.02372622543250187
-16.37075,0.01804940095556515
-16.370625,0.01304043818171913
-16.3705,0.008699337111124169
-16.370375,0.005026097743697664
-16.37025,0.001352858376222567
-16.370125,-0.001986450139522524
-16.37,-0.00565968950694417
-16.369875,-0.008998998022839898
-16.36975,-0.01200437568709795
-16.369625,-0.01534368420294022
-16.3695,-0.01868299271889423
-16.369375,-0.02636136381726591
-16.36925,-0.03504560444628328
-16.369125,-0.04139029062650998
-16.369,-0.04906866172510513
-16.368875,-0.05808479471787927
-16.36875,-0.06710296619863641
-16.368625,-0.07678696089429719
-16.3685,-0.08613702473866043
-16.368375,-0.0911459875125599
-16.36825,-0.09348350347364949
-16.368125,-0.09515315773157063
-16.368,-0.09615495028633303
-16.367875,-0.09682281198948205
-16.36775,-0.09715674284107599
-16.367625,-0.09749067369266022
-16.3675,-0.09782460454424445
-16.367375,-0.09815853539582868
-16.36725,-0.09815853539582868
-16.367125,-0.09815853539582868
-16.367,-0.09815853539582868
-16.366875,-0.09849246624741291
-16.36675,-0.09815853539582868
-16.366625,-0.09815853539582868
-16.3665,-0.09782256605639264
-16.366375,-0.09715470435324361
-16.36625,-0.09648888113790755
-16.366125,-0.09548708858315486
-16.366,-0.0948192268799864
-16.365875,-0.09414932668896614
-16.36575,-0.09348146498578799
-16.365625,-0.09214778006733199
-16.3655,-0.0911459875125599
-16.365375,-0.08981026410622299
-16.36525,-0.08914036391521243
-16.365125,-0.08780667899669818
-16.365,-0.08647095559036613
-16.364875,-0.0854691630356426
-16.36475,-0.08413343962929112
-16.364625,-0.08312960858669634
-16.3645,-0.08212781603194366
-16.364375,-0.0807920926255873
-16.36425,-0.07945636921925039
-16.364125,-0.07812064581295237
-16.364,-0.07645303004285388
-16.363875,-0.07544919900025911
-16.36375,-0.07344765237859584
-16.363625,-0.07177799812065039
-16.3635,-0.07010834386272927
-16.363375,-0.06843868960485672
-16.36325,-0.06676903534691128
-16.363125,-0.06476545023740592
-16.363,-0.06276186512790055
-16.362875,-0.06042434916677694
-16.36275,-0.05808683320568735
-16.362625,-0.05574931724466578
-16.3625,-0.05374369364728432
-16.362375,-0.05074035447086835
-16.36225,-0.04806890765819453
-16.362125,-0.04539746084548184
-16.362,-0.04272601403280802
-16.361875,-0.04005456722021195
-16.36175,-0.03704918955591502
-16.361625,-0.03437570425539911
-16.3615,-0.03137236507898315
-16.361375,-0.02836698741468619
-16.36125,-0.02569350211416549
-16.361125,-0.02269016293783694
-16.361,-0.01801513101561404
-16.360875,-0.01167044483551372
-16.36075,-0.005993620358581848
-16.360625,0.002020720079575674
-16.3605,0.01137078392393405
-16.360375,0.0207208477680203
-16.36025,0.02973901924877259
-16.360125,0.03975694479629942
-16.36,0.05010676270756839
-16.359875,0.05945682655205312
-16.35975,0.06813902869323334
-16.359625,0.07615540761886358
-16.3595,0.08383581720541748
-16.359375,0.09151418830401262
-16.35925,0.09819484382353927
-16.359125,0.1055392840706522
-16.359,0.1125518319537169
-16.358875,0.118896518133827
-16.35875,0.1249093119502775
-16.358625,0.1312519596425357
-16.3585,0.1362609224162991
-16.358375,0.1396002309321755
-16.35825,0.141939785381039
-16.358125,0.1436094396389699
-16.358,0.1452770554090733
-16.357875,0.146278847963826
-16.35775,0.1469467096669944
-16.357625,0.1472806405185835
-16.3575,0.147614571370158
-16.357375,0.1476145713701629
-16.35725,0.1469467096669944
-16.357125,0.1459449171122418
-16.357,0.1446091937059048
-16.356875,0.1432734702995339
-16.35675,0.1409359543385123
-16.356625,0.137930576674264
-16.3565,0.134591268158378
-16.356375,0.1309180287909515
-16.35625,0.1272468279113671
-16.356125,0.1239075193954665
-16.356,0.1199003491765724
-16.355875,0.1162250713212989
-16.35575,0.1118860087384926
-16.355625,0.108210730883224
-16.3555,0.1015341523393815
-16.355375,0.09452160445602527
-16.35525,0.08850881063984208
-16.355125,0.08183223209600927
-16.355,0.07348396080630643
-16.354875,0.06446782781353227
-16.35475,0.05545169482075812
-16.354625,0.04643556182785764
-16.3545,0.0377533596869204
-16.354375,0.02973901924888921
-16.35425,0.02306040221708804
-16.354125,0.01738153925231408
-16.354,0.01203864562696645
-16.353875,0.007697544556308345
-16.35375,0.003358481973681752
-16.353625,-0.0003167958815964962
-16.3535,-0.003656104397492256
-16.353375,-0.006995412913334532
-16.35325,-0.01033472142917681
-16.353125,-0.01367402994506768
-16.353,-0.01701333846081277
-16.352875,-0.02001871612507567
-16.35275,-0.02602743296579342
-16.352625,-0.03537749681015179
-16.3525,-0.04172422147809421
-16.352375,-0.04873473087364725
-16.35225,-0.05741693301458448
-16.352125,-0.06676699685906919
-16.352,-0.07611706070342755
-16.351875,-0.08580105539937016
-16.35175,-0.09047812580939145
-16.351625,-0.09314753413424263
-16.3515,-0.09448529602838271
-16.351375,-0.09548708858315486
-16.35125,-0.09615495028632332
-16.351125,-0.09682281198949176
-16.351,-0.09715674284107599
-16.350875,-0.09749067369266022
-16.35075,-0.09749067369266022
-16.350625,-0.09749067369266022
-16.3505,-0.09782256605640235
-16.350375,-0.09782460454424445
-16.35025,-0.09782460454423959
-16.350125,-0.09749067369266022
-16.35,-0.09749067369266022
-16.349875,-0.09749067369266022
-16.34975,-0.09682281198949176
-16.349625,-0.09615495028632332
-16.3495,-0.09515315773156091
-16.349375,-0.09448529602839729
-16.34925,-0.09414932668898074
-16.349125,-0.09348146498580739
-16.349,-0.09181384921572835
-16.348875,-0.09081205666097567
-16.34875,-0.08981026410620842
-16.348625,-0.08880847155145573
-16.3485,-0.0878066789967322
-16.348375,-0.08680284795412284
-16.34825,-0.08546916303562803
-16.348125,-0.08413343962929112
-16.348,-0.0831296085866769
-16.347875,-0.08179388518034486
-16.34775,-0.08079209262562131
-16.347625,-0.07945636921926984
-16.3475,-0.07812064581293293
-16.347375,-0.07678492240659601
-16.34725,-0.0751173066364975
-16.347125,-0.07377954474231367
-16.347,-0.07210989048444112
-16.346875,-0.0704402362264957
-16.34675,-0.06843868960483242
-16.346625,-0.06676903534691128
-16.3465,-0.06509938108896099
-16.346375,-0.06309579597945561
-16.34625,-0.06109221087000857
-16.346125,-0.05875469490888981
-16.346,-0.05641514045995814
-16.345875,-0.0537457321351264
-16.34575,-0.05174010853774007
-16.345625,-0.04906866172506143
-16.3455,-0.04606532254873287
-16.345375,-0.04339387573601534
-16.34525,-0.04072242892334153
-16.345125,-0.03771705125908348
-16.345,-0.03471167359478655
-16.344875,-0.03204022678210787
-16.34475,-0.02903484911793729
-16.344625,-0.02602947145363551
-16.3445,-0.02335802464096168
-16.344375,-0.01935085442195095
-16.34425,-0.01334009909335225
-16.344125,-0.007663274616400941
-16.344,-0.000650726733336251
-16.343875,0.008699337111124169
-16.34375,0.01771547010389831
-16.343625,0.02739946479984091
-16.3435,0.0370834594959293
-16.343375,0.04710138504316456
-16.34325,0.05678537973911203
-16.343125,0.0658015127320271
-16.343,0.07414978402163279
-16.342875,0.08216412445965425
-16.34275,0.08951060319461415
-16.342625,0.09685708192925337
-16.3425,0.1035356989609476
-16.342375,0.1105482468443136
-16.34225,0.1168929330244139
-16.342125,0.1232376192045142
-16.342,0.1295823053846923
-16.341875,0.1349251990098845
-16.34175,0.1385984383773353
-16.341625,0.1416038160416468
-16.3415,0.1436074011511521
-16.341375,0.1449431245574891
-16.34125,0.1459449171122515
-16.341125,0.1466127788154005
-16.341,0.147280640518569
-16.340875,0.1476145713701629
-16.34075,0.1476145713701629
-16.340625,0.1472806405185787
-16.3405,0.1462788479638066
-16.340375,0.1449431245575085
-16.34025,0.1436074011511716
-16.340125,0.1416038160416468
-16.34,0.138932369228973
-16.339875,0.1359269915647149
-16.33975,0.1322537521972398
-16.339625,0.1289144436814947
-16.3395,0.1252432428019151
-16.339375,0.121236072582851
-16.33925,0.1175607947275824
-16.339125,0.1135536245085716
-16.339,0.1098803851410577
-16.338875,0.1038716683005586
-16.33875,0.09685912041730439
-16.338625,0.09017846489767571
-16.3385,0.08383377871757539
-16.338375,0.0768212308343066
-16.33825,0.06780509784139641
-16.338125,0.05845503399731014
-16.338,0.04943890100453113
-16.337875,0.04075669886321002
-16.33775,0.03307628927677278
-16.337625,0.026063741393504
-16.3375,0.02005298606491016
-16.337375,0.01471009243971801
-16.33725,0.009703168153791797
-16.337125,0.005695997934708206
-16.337,0.002020720079439613
-16.336875,-0.001318588436402661
-16.33675,-0.004657896952293532
-16.336625,-0.007997205468038622
-16.3365,-0.01133651398392949
-16.336375,-0.01467582249977177
-16.33625,-0.01801513101561404
-16.336125,-0.02202230123462477
-16.336,-0.03103843422750583
-16.335875,-0.03838491296214502
-16.33575,-0.04506352999393648
-16.335625,-0.05307787043195795
-16.3355,-0.06242793427631632
-16.335375,-0.07210989048441682
-16.33525,-0.08179388518046636
-16.335125,-0.0891424024029476
-16.335,-0.09214778006731258
-16.334875,-0.09415136517681795
-16.33475,-0.09548708858315486
-16.334625,-0.09615495028633303
-16.3345,-0.09682281198949662
-16.334375,-0.09715674284107113
-16.33425,-0.09749067369266022
-16.334125,-0.09782460454424445
-16.334,-0.09782460454424445
-16.333875,-0.09782460454424445
-16.33375,-0.09782460454424931
-16.333625,-0.09815853539582382
-16.3335,-0.09782460454424445
-16.333375,-0.09782460454424445
-16.33325,-0.09749067369266022
-16.333125,-0.09715674284107111
-16.333,-0.09682077350163514
-16.332875,-0.09582101943475363
-16.33275,-0.09515315773157063
-16.332625,-0.09448325754056008
-16.3325,-0.09348146498580739
-16.332375,-0.09281360328262438
-16.33225,-0.09181181072787169
-16.332125,-0.09081001817314815
-16.332,-0.08947633325463876
-16.331875,-0.0888064330636282
-16.33175,-0.08713881729354916
-16.331625,-0.08580309388719769
-16.3315,-0.08480130133244496
-16.331375,-0.08379747028987941
-16.33125,-0.08246174688352789
-16.331125,-0.08112602347719097
-16.331,-0.07979233855869615
-16.330875,-0.07878850751607712
-16.33075,-0.0771208917460029
-16.330625,-0.07578516833970486
-16.3305,-0.0741155140817643
-16.330375,-0.07277775218758528
-16.33025,-0.07111013641750624
-16.330125,-0.06944048215956081
-16.33,-0.0677708279016348
-16.329875,-0.06576724279218776
-16.32975,-0.06376365768265323
-16.329625,-0.06176007257314787
-16.3295,-0.05942255661205827
-16.329375,-0.05708300216309257
-16.32925,-0.05474548620200299
-16.329125,-0.05240797024098142
-16.329,-0.05007045427985781
-16.328875,-0.04706507661559976
-16.32875,-0.04439566829076803
-16.328625,-0.04139029062647111
-16.3285,-0.03871884381379242
-16.328375,-0.03571346614962185
-16.32825,-0.03270808848532006
-16.328125,-0.02970271082106201
-16.328,-0.02669733315680396
-16.327875,-0.02402588634408641
-16.32775,-0.02102050867991583
-16.327625,-0.01534368420302283
-16.3275,-0.009666859726008352
-16.327375,-0.0029882426943238
-16.32725,0.005693959446866117
-16.327125,0.01504402329136056
-16.327,0.0243940871354468
-16.326875,0.03407808183138454
-16.32675,0.0440960073790523
-16.326625,0.05378000207499489
-16.3265,0.06279613506776904
-16.326375,0.07147833720907076
-16.32625,0.07916078528312649
-16.326125,0.08684119486956376
-16.326,0.09451956596827067
-16.325875,0.1015321138515394
-16.32575,0.108210730883224
-16.325625,0.1148893479150009
-16.3255,0.1212340340949166
-16.325375,0.1275787202750169
-16.32525,0.1332555447520411
-16.325125,0.1375966458226361
-16.325,0.1409359543384783
-16.324875,0.142939539448008
-16.32475,0.1446091937058805
-16.324625,0.1456109862606429
-16.3245,0.1466127788154102
-16.324375,0.1469467096669944
-16.32425,0.1476145713701629
-16.324125,0.1472806405185787
-16.324,0.1472806405185787
-16.323875,0.1466127788154199
-16.32375,0.1456109862606575
-16.323625,0.1439413320027364
-16.3235,0.1422716777448152
-16.323375,0.1399341617836819
-16.32325,0.1369287841195113
-16.323125,0.1332555447520945
-16.323,0.1295823053846146
-16.322875,0.1262429968687723
-16.32275,0.1225717959891879
-16.322625,0.118896518133861
-16.3225,0.1148893479149669
-16.322375,0.1105482468443768
-16.32225,0.1058732149221344
-16.322125,0.09886066703886563
-16.322,0.09218205000718108
-16.321875,0.08617129467855811
-16.32175,0.07882685443176093
-16.321625,0.07014465229059048
-16.3215,0.06112648080984791
-16.321375,0.05244427866865799
-16.32125,0.0440960073790523
-16.321125,0.0360837054287757
-16.321,0.0294030499094435
-16.320875,0.02305836372924595
-16.32075,0.01771547010389831
-16.320625,0.01304043818171913
-16.3205,0.008699337111124169
-16.320375,0.004692166892064841
-16.32025,0.001352858376319754
-16.320125,-0.002320380991155344
-16.32,-0.005659689506997622
-16.319875,-0.008998998022839898
-16.31975,-0.01233830653868217
-16.319625,-0.01567761505457304
-16.3195,-0.01901692357031813
-16.319375,-0.02736315637213033
-16.31925,-0.03537953529799388
-16.319125,-0.04172422147809421
-16.319,-0.04907070021308328
-16.318875,-0.05842076405744166
-16.31875,-0.0677708279015279
-16.318625,-0.07712089174602234
-16.3185,-0.08680488644196493
-16.318375,-0.0911459875125599
-16.31825,-0.09348350347367379
-16.318125,-0.0951531577315852
-16.318,-0.09615495028630874
-16.317875,-0.09715470435323389
-16.31775,-0.09715674284107599
-16.317625,-0.09749067369266022
-16.3175,-0.09782460454424931
-16.317375,-0.09815853539582868
-16.31725,-0.09815853539582868
-16.317125,-0.09849042775957081
-16.317,-0.09815853539582868
-16.316875,-0.09815853539582868
-16.31675,-0.09815853539582868
-16.316625,-0.09815853539581897
-16.3165,-0.09749067369266994
-16.316375,-0.09682281198949176
-16.31625,-0.09615495028632332
-16.316125,-0.09548708858315486
-16.316,-0.09481922687997665
-16.315875,-0.09414932668895645
-16.31575,-0.09281564177050043
-16.315625,-0.09247967243105472
-16.3155,-0.09081205666097567
-16.315375,-0.08981026410622299
-16.31525,-0.08880847155146056
-16.315125,-0.08813857136044032
-16.315,-0.08680284795414228
-16.314875,-0.08546712454778593
-16.31475,-0.08413140114144903
-16.314625,-0.08312960858669634
-16.3145,-0.08179388518034486
-16.314375,-0.0807920926255873
-16.31425,-0.07945636921928928
-16.314125,-0.07812064581293293
-16.314,-0.07678492240659601
-16.313875,-0.07478337578493274
-16.31375,-0.07344765237857154
-16.313625,-0.07177799812065522
-16.3135,-0.07044023622651517
-16.313375,-0.06843665111699032
-16.31325,-0.06643510449532705
-16.313125,-0.06476341174956382
-16.313,-0.06242793427628231
-16.312875,-0.06009041831519271
-16.31275,-0.05775290235417115
-16.312625,-0.05541334790520545
-16.3125,-0.05307583194411586
-16.312375,-0.05073831598302627
-16.31225,-0.04806686917030874
-16.312125,-0.04506352999398018
-16.312,-0.04239208318130153
-16.311875,-0.03938670551700461
-16.31175,-0.03638132785274657
-16.311625,-0.03404177340381489
-16.3115,-0.03070450337577096
-16.311375,-0.02769912571160038
-16.31125,-0.0250276788989217
-16.311125,-0.022356232086209
-16.311,-0.01734726931244559
-16.310875,-0.01133651398392949
-16.31075,-0.004991827803717401
-16.310625,0.002688581782496305
-16.3105,0.01203864562683039
-16.310375,0.02138870947132482
-16.31025,0.03107270416726741
-16.310125,0.04075873735105211
-16.31,0.05077462441087292
-16.309875,0.06012468825495916
-16.30975,0.06914082124773817
-16.309625,0.07715516168589083
-16.3095,0.08483557127232806
-16.309375,0.09185015764343894
-16.30925,0.09886270552680977
-16.309125,0.1058752534098745
-16.309,0.1125538704415639
-16.308875,0.1188985566217614
-16.30875,0.1255751351656038
-16.308625,0.1315858904941199
-16.3085,0.1359290300526153
-16.308375,0.1399341617836673
-16.30825,0.1422716777447812
-16.308125,0.1439413320027364
-16.308,0.1452770554090733
-16.307875,0.1459469556000838
-16.30775,0.1469467096669993
-16.307625,0.1472806405185738
-16.3075,0.1472806405185787
-16.307375,0.1472806405185787
-16.30725,0.1462808864516681
-16.307125,0.1456109862606575
-16.307,0.1446091937058805
-16.306875,0.142939539448008
-16.30675,0.1409359543385074
-16.306625,0.1379305766742203
-16.3065,0.1342573373067938
-16.306375,0.1305840979393673
-16.30625,0.1272447894234716
-16.306125,0.123573588543994
-16.306,0.1199003491765675
-16.305875,0.1158911404696612
-16.30575,0.1118839702506505
-16.305625,0.1075428691800555
-16.3055,0.1008662906361111
-16.305375,0.09385374275304635
-16.30525,0.08750905657284398
-16.305125,0.08083043954115943
-16.305,0.0731479914668801
-16.304875,0.06379792762252172
-16.30475,0.05511572548120061
-16.304625,0.04609959248868886
-16.3045,0.0380852520505362
-16.304375,0.03073877331568319
-16.30425,0.02406015628399864
-16.304125,0.01838333180706677
-16.304,0.01337436903324018
-16.303875,0.009033267962771567
-16.30375,0.005026097743697664
-16.303625,0.00135285837627116
-16.3035,-0.002320380991155344
-16.303375,-0.005659689507046215
-16.30325,-0.008998998022888491
