csv saver/84_2/noise.csv

#Digilent WaveForms Oscilloscope Acquisition
#Device Name: Discovery2
#Serial Number: SN:210321B2DC85
#Date Time: 2023-08-27 14:21:32.227
#Sample rate: 8000Hz
#Samples: 28749
#Trigger: Source: Channel 1 Type: Edge Condition: Rising Level: -11.02 mV Hyst.: Auto HoldOff: 0 s
#Math 1: Function: C1 - C2

Time (s),Math 1 (V)
-16.384,-0.3222118673939508
-16.383875,-0.3956888856695334
-16.38375,-0.3769907964686587
-16.383625,-0.3646353549595758
-16.3835,-0.3325759547205809
-16.383375,-0.2898328057173333
-16.38325,-0.2621185835236844
-16.383125,-0.2350681460575199
-16.383,-0.1939946513126599
-16.382875,-0.1509175714577261
-16.38275,-0.1118497003113505
-16.382625,-0.07812268430077503
-16.3825,-0.0500724927676999
-16.382375,-0.02636340230521973
-16.38225,-0.005993620358581848
-16.382125,0.009701129666056647
-16.382,0.02205657117431348
-16.381875,0.03174056587043587
-16.38175,0.03975490630845734
-16.381625,0.04676745419172612
-16.3815,0.05311214037192849
-16.381375,0.06012468825520213
-16.38125,0.06747116698984133
-16.381125,0.07515157657638546
-16.381,0.08450164042074385
-16.380875,0.09084632660084417
-16.38075,0.116227109810074
-16.380625,0.1840150726810988
-16.3805,0.21239715657709
-16.380375,0.2364401778915674
-16.38025,0.2838583588165277
-16.380125,0.3306086780383196
-16.38,0.3710143110805894
-16.379875,0.4107520824185585
-16.37975,0.412419698188589
-16.379625,0.4024017726410865
-16.3795,0.3933876781361544
-16.379375,0.3860411994013014
-16.37925,0.3790286515179257
-16.379125,0.3716821727830776
-16.379,0.3646696249000129
-16.378875,0.3579910078682263
-16.37875,0.3513123908365417
-16.378625,0.3446337738048572
-16.3785,0.3372872950699118
-16.378375,0.3309426088898018
-16.37825,0.3239300610067371
-16.378125,0.3172514439749505
-16.378,0.3145799971622767
-16.377875,0.3085692418337606
-16.37775,0.30322634820834
-16.377625,0.2982173854345767
-16.3775,0.293208422660959
-16.377375,0.2888673215902912
-16.37725,0.2848601513712804
-16.377125,0.2805190503006855
-16.377,0.276177949230037
-16.376875,0.2725047098626057
-16.37675,0.2684975396437115
-16.376625,0.2648243002762268
-16.3765,0.2614849917603845
-16.376375,0.2581456832445422
-16.37625,0.2554742364318295
-16.376125,0.2528027896191557
-16.376,0.2501313428065596
-16.375875,0.2471259651422627
-16.37575,0.2447884491811731
-16.375625,0.2424509332200835
-16.3755,0.2401134172589648
-16.375375,0.23810983214944
-16.37525,0.2347705236336949
-16.375125,0.2337687310788936
-16.375,0.2334348002273094
-16.374875,0.231431215117804
-16.37475,0.229761560859878
-16.374625,0.2294276300083035
-16.3745,0.2294276300082987
-16.374375,0.2284278759413881
-16.37425,0.2270901140472091
-16.374125,0.2234168746797825
-16.374,0.2207454278670747
-16.373875,0.2184079119060532
-16.37375,0.2147346725386461
-16.373625,0.2097257097648292
-16.3735,0.2047167469910658
-16.373375,0.1997077842173024
-16.37325,0.193697028888694
-16.373125,0.1873523427087783
-16.373,0.181007656528678
-16.372875,0.1743290394969011
-16.37275,0.1673164916136323
-16.372625,0.1603039437303635
-16.3725,0.1566307043627037
-16.372375,0.1405999849992852
-16.37225,0.0928499117110444
-16.372125,0.07047654465420627
-16.372,0.04209038378170484
-16.371875,-0.009001036510681985
-16.37175,-0.05775290235472997
-16.371625,-0.09849246624682007
-16.3715,-0.1378963067337783
-16.371375,-0.1816412482918856
-16.37125,-0.2253861898494194
-16.371125,-0.2637861992937635
-16.371,-0.2925062910182767
-16.370875,-0.3218922059568336
-16.37075,-0.3522799134509837
-16.370625,-0.381665828390838
-16.3705,-0.4090481582207446
-16.370375,-0.4384340731601566
-16.37025,-0.4674840187605262
-16.370125,-0.4938645560349124
-16.37,-0.5149042381726385
-16.369875,-0.5336023273738195
-16.36975,-0.5386112901475829
-16.369625,-0.5456258765186938
-16.3695,-0.5519705626988426
-16.369375,-0.5553078327267458
-16.36925,-0.5543080786598982
-16.369125,-0.5523044935503783
-16.369,-0.5516366318472098
-16.368875,-0.5509687701440413
-16.36875,-0.5482973233313092
-16.368625,-0.5442901531124151
-16.3685,-0.5382793977839282
-16.368375,-0.5319347116037404
-16.36825,-0.5242543020173032
-16.368125,-0.5152361305366869
-16.368,-0.5002092422151342
-16.367875,-0.4821769762301108
-16.36775,-0.4658164029900633
-16.367625,-0.4534589229936048
-16.3675,-0.4394358657149093
-16.367375,-0.421403599729361
-16.36725,-0.4047050186620598
-16.367125,-0.3876745452317598
-16.367,-0.3723157645464796
-16.366875,-0.3469349813382362
-16.36675,-0.3035239706322866
-16.366625,-0.2738061633291324
-16.3665,-0.2531024505303709
-16.366375,-0.2160340875177584
-16.36625,-0.1659464982674269
-16.366125,-0.12353728011623
-16.366,-0.08546916303562803
-16.365875,-0.0437278065870942
-16.36575,-0.008998998022470589
-16.365625,0.01637974669719209
-16.3655,0.03541380523786238
-16.365375,0.04977283185598416
-16.36525,0.06079254995826368
-16.365125,0.06947475209955564
-16.365,0.0764872999828147
-16.364875,0.08283198616273037
-16.36475,0.08917871083076512
-16.364625,0.09585528937460758
-16.3645,0.1028678372578764
-16.364375,0.1105482468444157
-16.36425,0.1175607947276893
-16.364125,0.1249093119501705
-16.364,0.1863546271296175
-16.363875,0.2334348002273094
-16.36375,0.2518009970644419
-16.363625,0.2851961207114064
-16.3635,0.3332801248516447
-16.363375,0.3780288974504708
-16.36325,0.4127556675280396
-16.363125,0.406075012008513
-16.363,0.3963930558004125
-16.362875,0.388044784510695
-16.36275,0.3803664134121096
-16.362625,0.3733538655290449
-16.3625,0.3666732100094162
-16.362375,0.3596606621261474
-16.36225,0.3526501527307207
-16.362125,0.3459715356989438
-16.362,0.3396248110309966
-16.361875,0.3329461939995064
-16.36175,0.3259336461161404
-16.361625,0.3192550290844559
-16.3615,0.3122424812011871
-16.361375,0.3082353109821132
-16.36125,0.3038942099115036
-16.361125,0.2985513162863115
-16.361,0.2932084226608861
-16.360875,0.2881994598871227
-16.36075,0.2835244279649435
-16.360625,0.2795172577458696
-16.3605,0.2751761566752796
-16.360375,0.2711689864563854
-16.36025,0.2668299238735742
-16.360125,0.2631546460183056
-16.36,0.2598153375024633
-16.359875,0.2561420981349883
-16.35975,0.2528027896191605
-16.359625,0.250465273658139
-16.3595,0.2477938268454312
-16.359375,0.2451223800327574
-16.35925,0.2424509332200835
-16.359125,0.2401134172589599
-16.359,0.2377759012979384
-16.358875,0.2354383853368488
-16.35875,0.2331008693757252
-16.358625,0.2304294225630514
-16.3585,0.228425837453546
-16.358375,0.2287597683051108
-16.35825,0.2274240448988127
-16.358125,0.2250865289377377
-16.358,0.2244186672345352
-16.357875,0.224084736382951
-16.35775,0.2237508055313668
-16.357625,0.2234168746797534
-16.3575,0.2214132895703063
-16.357375,0.2190757736092216
-16.35725,0.2160724344327716
-16.357125,0.212397156577503
-16.357,0.2077221246553238
-16.356875,0.2023812695177454
-16.35675,0.1973723067441278
-16.356625,0.1926952363341017
-16.3565,0.1860186577901911
-16.356375,0.1796719331222487
-16.35625,0.1729933160905642
-16.356125,0.1659807682071885
-16.356,0.1586342894725493
-16.355875,0.1542931884019106
-16.35575,0.146278847963826
-16.355625,0.1082086923953819
-16.3555,0.07381789165789066
-16.355375,0.04943890100376333
-16.35525,0.005691920959660632
-16.355125,-0.04038849807108674
-16.355,-0.08179592366820153
-16.354875,-0.1258747960773196
-16.35475,-0.1716233227443587
-16.354625,-0.2126968174897872
-16.3545,-0.2517646886361629
-16.354375,-0.2838240888761927
-16.35425,-0.314211796370824
-16.354125,-0.3442655730134044
-16.354,-0.3733175571012323
-16.353875,-0.4017016794863143
-16.35375,-0.4307516250854546
-16.353625,-0.458469924254807
-16.3535,-0.485852254085117
-16.353375,-0.5092253752081708
-16.35325,-0.5285954030878981
-16.353125,-0.5426184603666423
-16.353,-0.5459598073702293
-16.352875,-0.552302455062444
-16.35275,-0.5556417635783785
-16.352625,-0.5566455946209732
-16.3525,-0.5569774869847154
-16.352375,-0.5559777329177902
-16.35225,-0.5549759403630666
-16.352125,-0.5516366318472098
-16.352,-0.5482973233313675
-16.351875,-0.5439562222607726
-16.35175,-0.5379454669322564
-16.351625,-0.5309308805610145
-16.3515,-0.5219147475685028
-16.351375,-0.5085575135050024
-16.35125,-0.4918630094136331
-16.351125,-0.4751664668344217
-16.351,-0.4614753019194683
-16.350875,-0.4491178219227523
-16.35075,-0.4314194867893033
-16.350625,-0.4137211516550817
-16.3505,-0.3953549548179492
-16.350375,-0.380330104984501
-16.35025,-0.3676407326237269
-16.350125,-0.3282348536488926
-16.35,-0.285159812283623
-16.349875,-0.2601149984141791
-16.34975,-0.2327306300964303
-16.349625,-0.1903214119452334
-16.3495,-0.1469104012387007
-16.349375,-0.1068407375364258
-16.34925,-0.06610117364433565
-16.349125,-0.03270808848532006
-16.349,-0.007997205468087215
-16.348875,0.01137078392379799
-16.34875,0.02606374139366436
-16.348625,0.03708345949590986
-16.3485,0.04576566163684709
-16.348375,0.05277820952024222
-16.34825,0.05945682655192677
-16.348125,0.0658015127320271
-16.348,0.07214619891222945
-16.347875,0.07915874679551282
-16.34775,0.08717308723330103
-16.347625,0.09552135852302335
-16.3475,0.1005303212967868
-16.347375,0.1389364462046571
-16.34725,0.1957026524864642
-16.347125,0.2184079119064711
-16.347,0.2494655195907425
-16.346875,0.2965477311767284
-16.34675,0.3402926727342622
-16.346625,0.3820340291822907
-16.3465,0.4130895983794926
-16.346375,0.4040714268988715
-16.34625,0.3947234015426274
-16.346125,0.3863751302528856
-16.346,0.3793625823696168
-16.345875,0.3723500344863481
-16.34575,0.3650035557513979
-16.345625,0.3583249387197134
-16.3455,0.3516483601760652
-16.345375,0.3449677046564414
-16.34525,0.3382890876247568
-16.345125,0.3312765397414881
-16.345,0.3249318535612808
-16.344875,0.3175853748264521
-16.34475,0.3119085503496855
-16.344625,0.3089031726853448
-16.3445,0.3028924173568287
-16.344375,0.2975495237314811
-16.34425,0.2925405609576496
-16.344125,0.2878655290354802
-16.344,0.283858358816586
-16.343875,0.2795172577459328
-16.34375,0.2751761566753378
-16.343625,0.2708350556047429
-16.3435,0.2671618162372629
-16.343375,0.2634885768699433
-16.34325,0.2598153375025168
-16.343125,0.2564760289866211
-16.343,0.253470651322363
-16.342875,0.2511331353612734
-16.34275,0.2487956194001401
-16.342625,0.2457902417359696
-16.3425,0.2431187949232909
-16.342375,0.2404473481105782
-16.34225,0.2381098321494886
-16.342125,0.2361062470399832
-16.342,0.2341026619304292
-16.341875,0.2307633534146842
-16.34175,0.2300954917114768
-16.341625,0.2297615608598829
-16.3415,0.2277579757503775
-16.341375,0.2264222523440406
-16.34125,0.2260883214924466
-16.341125,0.2254204597892976
-16.341,0.2234168746798117
-16.340875,0.2200775661639403
-16.34075,0.2164043267965138
-16.340625,0.21373287998384
-16.3405,0.2107295408073657
-16.340375,0.2067223705884715
-16.34025,0.2023792310300394
-16.340125,0.1977062375956391
-16.34,0.1930291671856178
-16.339875,0.1870184118571017
-16.33975,0.1810076565284982
-16.339625,0.174996901200157
-16.3395,0.1683182841684822
-16.339375,0.160971805433532
-16.33925,0.1546271192534317
-16.339125,0.1506199490344209
-16.339,0.1272427509350755
-16.338875,0.08550343297610391
-16.33875,0.06646937443547253
-16.338625,0.02940101142150419
-16.3385,-0.02169040887088263
-16.338375,-0.06543331194057438
-16.33825,-0.1071746683892297
-16.338125,-0.1502517482423413
-16.338,-0.1933288280967067
-16.337875,-0.2340683919906093
-16.33775,-0.2691311314069532
-16.337625,-0.299518838901118
-16.3375,-0.3309083389504776
-16.337375,-0.3612960464437578
-16.33725,-0.3883444454221289
-16.337125,-0.4157267752524292
-16.337,-0.4457805518950096
-16.336875,-0.475832290049748
-16.33675,-0.5005431730672434
-16.336625,-0.5185754390522668
-16.3365,-0.534270189076988
-16.336375,-0.5412827369602567
-16.33625,-0.5506348392924572
-16.336125,-0.5559756944299628
-16.336,-0.5559777329177853
-16.335875,-0.5546420095114872
-16.33575,-0.5526384244019625
-16.335625,-0.5526384244019625
-16.3355,-0.5513027009956256
-16.335375,-0.5499649391014466
-16.33525,-0.5452899071791752
-16.335125,-0.5389472594871014
-16.335,-0.5319347116037404
-16.334875,-0.5239183326778769
-16.33475,-0.5129006530634393
-16.334625,-0.4975377954024799
-16.3345,-0.4808412528232879
-16.334375,-0.4654804336508606
-16.33425,-0.4517892687356836
-16.334125,-0.4367623804143934
-16.334,-0.4197339454714399
-16.333875,-0.4023675027009458
-16.33375,-0.3836673750123118
-16.333625,-0.3706461102887479
-16.3335,-0.345265327080315
-16.333375,-0.2998507312648601
-16.33325,-0.2684632697037848
-16.333125,-0.2457559717954984
-16.333,-0.2073518853753536
-16.332875,-0.1609354970064968
-16.33275,-0.1201979716003877
-16.332625,-0.08780667899671762
-16.3325,-0.06309579597948477
-16.332375,-0.04105635977464877
-16.33225,-0.02202230123438181
-16.332125,-0.005325758655656359
-16.332,0.007697544556371486
-16.331875,0.01771547010389831
-16.33175,0.026063741393504
-16.331625,0.03307628927686997
-16.3315,0.03975490630856424
-16.331375,0.04710138504320343
-16.33125,0.05378000207499489
-16.331125,0.06179434251301635
-16.331,0.07047654465420627
-16.330875,0.07782302338927799
-16.33075,0.09285195019916838
-16.330625,0.1599740898534867
-16.3305,0.1970363374046286
-16.330375,0.216738257648098
-16.33025,0.2571459291776316
-16.330125,0.3068995875764663
-16.33,0.3499766674308123
-16.329875,0.3917200623654679
-16.32975,0.4167607992592083
-16.329625,0.4054091887931866
-16.3295,0.3963930558004125
-16.329375,0.3883787153622938
-16.32925,0.3817000983305995
-16.329125,0.3743536195959604
-16.329,0.3673410717125846
-16.328875,0.3603285238293158
-16.32875,0.3533180144338892
-16.328625,0.3469712897658496
-16.3285,0.340292672734165
-16.328375,0.3336140557026749
-16.32825,0.3262675769677246
-16.328125,0.3192550290844559
-16.328,0.3162496514201978
-16.327875,0.3109067577947724
-16.32775,0.3055638641695803
-16.327625,0.2998870396926533
-16.3275,0.2952120077703915
-16.327375,0.2905369758482123
-16.32725,0.2865298056292016
-16.327125,0.2821887045585434
-16.327,0.2778476034880748
-16.326875,0.2738404332690592
-16.32675,0.2701671939015744
-16.326625,0.2664939545341479
-16.3265,0.2624867843151372
-16.326375,0.2594814066508402
-16.32625,0.2568099598382442
-16.326125,0.2541385130255703
-16.326,0.2518009970644419
-16.325875,0.2487956194001839
-16.32575,0.2464581034390943
-16.325625,0.2441205874779658
-16.3255,0.2414491406653698
-16.325375,0.2394455555558546
-16.32525,0.2364401778915674
-16.325125,0.2344365927820621
-16.325,0.2347705236336463
-16.324875,0.233100869375696
-16.32475,0.231097284266249
-16.324625,0.2300954917114817
-16.3245,0.2297615608598829
-16.324375,0.2287597683051302
-16.32425,0.2257543906408721
-16.324125,0.2217472204218129
-16.324,0.2184099503939098
-16.323875,0.2160703959449636
-16.32375,0.212397156577503
-16.323625,0.2080560555069081
-16.3235,0.2037149544363131
-16.323375,0.1990399225140513
-16.32325,0.1933630980372847
-16.323125,0.1873523427087734
-16.323,0.1806737256770014
-16.322875,0.1743290394969011
-16.32275,0.1673164916136323
-16.322625,0.1603039437303052
-16.3225,0.1562967735114111
-16.322375,0.1472786020308678
-16.32225,0.1028657987700343
-16.322125,0.0731500299547222
-16.322,0.05044069355915262
-16.321875,0.005024059255116987
-16.32175,-0.04573139169636635
-16.321625,-0.08880847155084345
-16.3215,-0.1305498279994987
-16.321375,-0.1722911844475272
-16.32125,-0.2150343334503083
-16.321125,-0.2537703122345404
-16.321,-0.2854937431341187
-16.320875,-0.3152135889255767
-16.32075,-0.3462691581229098
-16.320625,-0.3749872113591534
-16.3205,-0.4030353644043864
-16.320375,-0.4324212793442115
-16.32025,-0.4608074402158868
-16.320125,-0.4875219083430381
-16.32,-0.5102292062507655
-16.319875,-0.5295971956426507
-16.31975,-0.5389452209991671
-16.319625,-0.543622291409271
-16.3195,-0.5492991158860376
-16.319375,-0.5536402169567152
-16.31925,-0.5543060401720417
-16.319125,-0.5529723552535467
-16.319,-0.5516366318471952
-16.318875,-0.5506348392924183
-16.31875,-0.5479633924798222
-16.318625,-0.5442901531123568
-16.3185,-0.5392811903385933
-16.318375,-0.5326025733069089
-16.31825,-0.5255879869356668
-16.318125,-0.5165718539428246
-16.318,-0.5028806890282698
-16.317875,-0.4861841464488591
-16.31775,-0.4698215347212319
-16.317625,-0.4564643006578629
-16.3175,-0.4414374123363248
-16.317375,-0.4244069389055389
-16.31725,-0.408044327178388
-16.317125,-0.3910138537473543
-16.317,-0.3756550730623218
-16.316875,-0.3559511143310103
-16.31675,-0.3118722419213724
-16.316625,-0.2761436792899353
-16.3165,-0.2564417590470393
-16.316375,-0.2257180822131616
-16.31625,-0.1793016938429539
-16.316125,-0.1335531671759147
-16.316,-0.09415136517633688
-16.315875,-0.06109221086956636
-16.31575,-0.0327080884857331
-16.315625,-0.01000079057759258
-16.3155,0.007697544556371486
-16.315375,0.02138870947132482
-16.31525,0.03207449672214158
-16.315125,0.04042276801172783
-16.315,0.04743531589479252
-16.314875,0.05411393292657912
-16.31475,0.06079254995826368
-16.314625,0.06780509784153246
-16.3145,0.07481968421276479
-16.314375,0.08316591701452844
-16.31425,0.0915162267917332
-16.314125,0.09618922022619181
-16.314,0.1439454089784205
-16.313875,0.2033810235847289
-16.31375,0.2237508055317944
-16.313625,0.2531367204714834
-16.3135,0.3015587324376292
-16.313375,0.3459694972111941
-16.31325,0.3883807538502331
-16.313125,0.4160949760438819
-16.313,0.4057431196446396
-16.312875,0.3967269866518752
-16.31275,0.3883787153625124
-16.312625,0.3813661674791222
-16.3125,0.3743536195958534
-16.312375,0.3670071408610004
-16.31225,0.3603285238292186
-16.312125,0.3536499067977285
-16.312,0.346971289766044
-16.311875,0.339958741882678
-16.31175,0.3336140557025777
-16.311625,0.3266015078193089
-16.3115,0.3195889599359623
-16.311375,0.3142460663107702
-16.31125,0.3109067577948987
-16.311125,0.3048960024663341
-16.311,0.2998870396925707
-16.310875,0.2948780769188072
-16.31075,0.2898691141449807
-16.310625,0.285528013074512
-16.3105,0.2811869120039171
-16.310375,0.2771797417848432
-16.31025,0.2731725715658325
-16.310125,0.2691654013468217
-16.31,0.2654921619793418
-16.309875,0.2618189226120222
-16.30975,0.258479614096175
-16.309625,0.2558081672834526
-16.3095,0.2528048281070366
-16.309375,0.2504652736581049
-16.30925,0.2477938268453923
-16.309125,0.2451223800327962
-16.309,0.2427848640717018
-16.308875,0.240113417258994
-16.30875,0.2381098321494886
-16.308625,0.2354383853368147
-16.3085,0.232766938524141
-16.308375,0.232766938524141
-16.30825,0.2317651459694028
-16.308125,0.2297615608598829
-16.308,0.228425837453546
-16.307875,0.2280919066019617
-16.30775,0.2277579757503581
-16.307625,0.22642225234406
-16.3075,0.224084736382985
-16.307375,0.2217472204218614
-16.30725,0.2190757736091876
-16.307125,0.2154045727296031
-16.307,0.2110634716589353
-16.306875,0.2060524703974757
-16.30675,0.2013774384752915
-16.306625,0.1963684757014601
-16.3065,0.190357720372944
-16.306375,0.1843469650444279
-16.30625,0.1780022788642255
-16.306125,0.1709897309811609
-16.306,0.1633093213947334
-16.305875,0.1572985660661055
-16.30575,0.1532913958470948
-16.305625,0.1229016498650879
-16.3055,0.08082840105301606
-16.305375,0.0601246882553965
-16.30525,0.02138667098348273
-16.305125,-0.02803305656314087
-16.305,-0.07144406726909046
-16.304875,-0.1141872162718716
-16.30475,-0.1586000195331862
-16.304625,-0.2006753068315743
-16.3045,-0.2404110396828676
-16.304375,-0.2748079558838851
-16.30425,-0.3061974559328025
-16.304125,-0.3365851634269672
-16.304,-0.3639674932572821
-16.303875,-0.3920176847895408
-16.30375,-0.4220714614325295
-16.303625,-0.4524591689266942
-16.3035,-0.4798394602687588
-16.303375,-0.5018788964735948
-16.30325,-0.5209149935017038
-16.303125,-0.5376115360804293
-16.303,-0.5422845295150094
-16.302875,-0.5496330467377044
-16.30275,-0.5539741478082995
-16.302625,-0.5543080786598739
-16.3025,-0.5536402169567103
-16.302375,-0.5533062861051359
-16.30225,-0.553306286105131
-16.302125,-0.5513027009956256
-16.302,-0.547629461628199
-16.301875,-0.5422865680027738
-16.30175,-0.5369436743774018
-16.301625,-0.529931126494337
-16.3015,-0.5219167860562135
-16.301375,-0.5102292062507655
-16.30125,-0.4941984868868806
-16.301125,-0.475832290049544
-16.301,-0.4618092327708777
-16.300875,-0.4497877221141953
