csv saver/84_2/sanding_ut.csv

#Digilent WaveForms Oscilloscope Acquisition
#Device Name: Discovery2
#Serial Number: SN:210321B2DC85
#Date Time: 2023-08-27 14:26:45.891
#Sample rate: 8000Hz
#Samples: 28468
#Trigger: Source: Channel 1 Type: Edge Condition: Rising Level: -11.02 mV Hyst.: Auto HoldOff: 0 s
#Math 1: Function: C1 - C2

Time (s),Math 1 (V)
-16.384,-0.1475415701612947
-16.383875,-0.358290668779942
-16.38375,-0.3345795398296197
-16.383625,-0.2921703216780001
-16.3835,-0.2631203760788599
-16.383375,-0.2427485556439572
-16.38325,-0.207351885376029
-16.383125,-0.1649426672248321
-16.383,-0.1288801737415776
-16.382875,-0.09815853539540592
-16.38275,-0.06910655130842364
-16.382625,-0.04539746084552071
-16.3825,-0.02636340230521973
-16.382375,-0.01100258313234526
-16.38225,0.00101892752468693
-16.382125,0.01137078392393891
-16.382,0.02105477861959967
-16.381875,0.02940304990934628
-16.38175,0.03841918290212042
-16.381625,0.04676745419172612
-16.3815,0.0547817946298642
-16.381375,0.06279613506790024
-16.38125,0.07181226806041199
-16.381125,0.07849088509222774
-16.381,0.08917667234292302
-16.380875,0.1496222334553524
-16.38075,0.1850148267478248
-16.380625,0.2007095767726188
-16.3805,0.2394475940431039
-16.380375,0.2881994598871227
-16.38025,0.32827116207723
-16.380125,0.3690127644583479
-16.38,0.3900483696202101
-16.379875,0.3830358217369608
-16.37975,0.3773589972601941
-16.379625,0.3730178961895165
-16.3795,0.3700145570131005
-16.379375,0.3643356940483266
-16.37925,0.3573231461649655
-16.379125,0.3509784599848457
-16.379,0.343298050398632
-16.378875,0.3362855025152515
-16.37875,0.3286050929288142
-16.378625,0.3215925450455455
-16.3785,0.3139121354590062
-16.378375,0.3068995875757763
-16.37825,0.3025584865053076
-16.378125,0.2972155928798969
-16.378,0.2922066301061334
-16.377875,0.2878655290355385
-16.37775,0.2851940822228355
-16.377625,0.283190497113335
-16.3775,0.2815208428554625
-16.377375,0.279851188597517
-16.37725,0.2771797417848432
-16.377125,0.2738404332690009
-16.377,0.2708350556046797
-16.376875,0.2664939545340848
-16.37675,0.2621528534636161
-16.376625,0.2574778215413738
-16.3765,0.2524688587676103
-16.376375,0.2487956194001839
-16.37625,0.2451223800327039
-16.376125,0.241449140665292
-16.376,0.2387776938526959
-16.375875,0.2371080395947359
-16.37575,0.2374419704463201
-16.375625,0.2381098321494886
-16.3755,0.2381098321494886
-16.375375,0.238109832149508
-16.37525,0.2394455555558061
-16.375125,0.2381098321494886
-16.375,0.2344365927820621
-16.374875,0.2317651459693883
-16.37475,0.2300954917114137
-16.374625,0.226422252344094
-16.3745,0.2227490129766676
-16.374375,0.2177400502028507
-16.37425,0.2130650182806715
-16.374125,0.2087259556979186
-16.374,0.2040488852878245
-16.373875,0.1990399225142068
-16.37375,0.1943648905920228
-16.373625,0.190357720372944
-16.3735,0.1870184118571017
-16.373375,0.1823433799349225
-16.37325,0.1776703865005222
-16.373125,0.1733272469422116
-16.373,0.1676504224652991
-16.372875,0.160971805433532
-16.37275,0.1562988119991948
-16.372625,0.1469446711791523
-16.3725,0.1062051072854441
-16.372375,0.07648729998315482
-16.37225,0.05311214037216661
-16.372125,0.007361575216945171
-16.372,-0.04239208318126266
-16.371875,-0.0851352321840438
-16.37175,-0.1265426577810663
-16.371625,-0.1662804291184329
-16.3715,-0.2020110302380035
-16.371375,-0.2377416313580358
-16.37125,-0.2684632697037848
-16.371125,-0.2958435610458494
-16.371,-0.3225600676608524
-16.370875,-0.3516120517478347
-16.37075,-0.3803301049840832
-16.370625,-0.4100479122876552
-16.3705,-0.4387680040117409
-16.370375,-0.4661503338416476
-16.37025,-0.4908612168591768
-16.370125,-0.5112289603173797
-16.37,-0.5199111624587398
-16.369875,-0.5255900254236401
-16.36975,-0.5349400892679984
-16.369625,-0.5412847754480987
-16.3695,-0.5419526371512429
-16.369375,-0.5402829828933704
-16.36925,-0.536609743525973
-16.369125,-0.5339382967132458
-16.369,-0.5302650573458192
-16.368875,-0.5249221637204716
-16.36875,-0.5192433007556054
-16.368625,-0.5129006530635316
-16.3685,-0.5058860666924306
-16.368375,-0.4985395879574755
-16.36825,-0.4871859390036118
-16.368125,-0.4738287049402427
-16.368,-0.4604714708767035
-16.367875,-0.4487838910715957
-16.36775,-0.436096557199067
-16.367625,-0.4203997686867663
-16.3675,-0.4047070571501497
-16.367375,-0.3886763377862646
-16.36725,-0.3706461102882717
-16.367125,-0.3509421515575336
-16.367,-0.3068632791481289
-16.366875,-0.268797200555369
-16.36675,-0.2494271726756417
-16.366625,-0.2213769811425666
-16.3665,-0.1793016938423271
-16.366375,-0.1362266524770575
-16.36625,-0.1035014290211763
-16.366125,-0.07311372152701161
-16.366,-0.04907070021294722
-16.365875,-0.02836698741449671
-16.36575,-0.01267223739008175
-16.365625,1.713496974959337e-05
-16.3655,0.009033267962708395
-16.365375,0.01704760840072986
-16.36525,0.02406015628399864
-16.365125,0.03174056587056708
-16.365,0.0407566988633315
-16.364875,0.04910497015269423
-16.36475,0.05845503399717408
-16.364625,0.06847295954470091
-16.3645,0.07748909253747506
-16.364375,0.0824980553118897
-16.36425,0.127248866400006
-16.364125,0.1820094490825414
-16.364,0.2013774384752235
-16.363875,0.2280939450898038
-16.36375,0.2728406792020903
-16.363625,0.3159157205692016
-16.3635,0.3563213536107717
-16.363375,0.3883787153619245
-16.36325,0.381032236627538
-16.363125,0.3740196887442692
-16.363,0.3700125185252585
-16.362875,0.3666732100093482
-16.36275,0.3620002165750402
-16.362625,0.3593267312746021
-16.3625,0.3553195610555525
-16.362375,0.3486409440238679
-16.36225,0.3416283961405991
-16.362125,0.3336140557024757
-16.362,0.3266015078191971
-16.361875,0.3189210982329834
-16.36175,0.3119085503496029
-16.361625,0.3058977950210868
-16.3615,0.301890624802076
-16.361375,0.2952120077703089
-16.36125,0.2895351832933818
-16.361125,0.2841922896681897
-16.361,0.2801851194491012
-16.360875,0.2775136726364274
-16.36075,0.2761779492300905
-16.360625,0.2741743641205609
-16.3605,0.2725067483504866
-16.360375,0.2711689864563466
-16.36025,0.2681656472799111
-16.360125,0.2648263387640689
-16.36,0.2614849917603845
-16.359875,0.2578117523929045
-16.35975,0.2541385130254683
-16.359625,0.2497974119549997
-16.3595,0.2451223800327574
-16.359375,0.2411152098137467
-16.35925,0.2377759012979044
-16.359125,0.2351044544852014
-16.359,0.2331008693757543
-16.358875,0.2324330076725664
-16.35875,0.2320990768209725
-16.358625,0.2347705236336463
-16.3585,0.2361062470399832
-16.358375,0.2354383853368099
-16.35825,0.2351044544852354
-16.358125,0.233768731078913
-16.358,0.2307633534146356
-16.357875,0.2244186672345352
-16.35775,0.2204114970155245
-16.357625,0.2170721884996239
-16.3575,0.2130670567685719
-16.357375,0.2090578480617191
-16.35725,0.203383062072571
-16.357125,0.197704199107797
-16.357,0.1920273746308651
-16.356875,0.1863505501538555
-16.35675,0.1810076565286634
-16.356625,0.1763326246064745
-16.3565,0.1719915235358115
-16.356375,0.1669825607620481
-16.35625,0.1613057362851162
-16.356125,0.1569646352144678
-16.356,0.1532913958471482
-16.355875,0.1255730966781651
-16.35575,0.08617129467866498
-16.355625,0.06546758188044287
-16.3555,0.02606170290566191
-16.355375,-0.02402792483259419
-16.35525,-0.06676903534628931
-16.355125,-0.1091782534974911
-16.355,-0.1525892642040577
-16.354875,-0.193996689800502
-16.35475,-0.2313969451779355
-16.354625,-0.2624504758878299
-16.3545,-0.2901687750563562
-16.354375,-0.3178850357378471
-16.35425,-0.3432637804586517
-16.354125,-0.368642525179053
-16.354,-0.3970266475637124
-16.353875,-0.426746493355112
-16.35375,-0.4544627540357962
-16.353625,-0.4788376677136514
-16.3535,-0.4995434190000703
-16.353375,-0.5159060307276975
-16.35325,-0.5222507169077978
-16.353125,-0.5319347116038133
-16.353,-0.5369436743774308
-16.352875,-0.53894725948698
-16.35275,-0.5402829828933461
-16.352625,-0.5406169137449303
-16.3525,-0.5406169137449303
-16.352375,-0.536609743525837
-16.35225,-0.5309329190490703
-16.352125,-0.5242543020173032
-16.352,-0.5165738924308659
-16.351875,-0.5085595519928444
-16.35175,-0.5008791424064072
-16.351625,-0.4898594243039139
-16.3515,-0.4751644283467935
-16.351375,-0.459471716809963
-16.35125,-0.4471162753013466
-16.351125,-0.4381001423085724
-16.351,-0.4260786316515402
-16.350875,-0.4093820890720761
-16.35075,-0.3920176847902017
-16.350625,-0.3759890039139061
-16.3505,-0.3653032166632108
-16.350375,-0.3315741621653617
-16.35025,-0.2874973282436727
-16.350125,-0.2591132058590377
-16.35,-0.2323987377330769
-16.349875,-0.1916571353515703
-16.34975,-0.1479142322818786
-16.349625,-0.1125175620139505
-16.3495,-0.08046020026148558
-16.349375,-0.05441359383796442
-16.34925,-0.03170629593089781
-16.349125,-0.01300820672969272
-16.349,0.0003510658215184776
-16.348875,0.01070292222062953
-16.34875,0.01871726265874332
-16.348625,0.02506194883883393
-16.3485,0.03073877331560058
-16.348375,0.03741739034736774
-16.34825,0.04476386908222076
-16.348125,0.05344607122341066
-16.348,0.0627961350679294
-16.347875,0.07381585317015546
-16.34775,0.08116233190479466
-16.347625,0.1048734608552238
-16.3475,0.169656046062564
-16.347375,0.1987039531747076
-16.34725,0.2207454278677308
-16.347125,0.2634906153583782
-16.347,0.3079013801299459
-16.346875,0.3466373589143625
-16.34675,0.3843715451433802
-16.346625,0.3863730917650435
-16.3465,0.376357204705247
-16.346375,0.3686767951188292
-16.34625,0.3623321089389135
-16.346125,0.3586588695713948
-16.346,0.3559874227587209
-16.345875,0.3516463216881259
-16.34575,0.3479730823206557
-16.345625,0.3449677046563491
-16.3455,0.3386230184764334
-16.345375,0.3316104705930723
-16.34525,0.3242639918582193
-16.345125,0.3165835822717821
-16.345,0.309904965240044
-16.344875,0.3062317258725787
-16.34475,0.299887039692663
-16.344625,0.2935423535124703
-16.3445,0.2875315981839542
-16.344375,0.2818547737070224
-16.34425,0.2771797417847897
-16.344125,0.273506502417373
-16.344,0.2705011247532024
-16.343875,0.2688314704952375
-16.34375,0.2671618162373163
-16.343625,0.2658260928309795
-16.3435,0.2644903694246134
-16.343375,0.2624867843151663
-16.34325,0.2598153375025022
-16.343125,0.2574778215413738
-16.343,0.2541385130255315
-16.342875,0.2504652736581049
-16.34275,0.246124172587442
-16.342625,0.2414491406653989
-16.3425,0.2377759012979578
-16.342375,0.2344365927820621
-16.34225,0.231431215117804
-16.342125,0.228425837453546
-16.342,0.2274260833866742
-16.341875,0.2300954917114283
-16.34175,0.2307633534146259
-16.341625,0.231431215117804
-16.3415,0.232766938524141
-16.341375,0.2337687310788936
-16.34125,0.2297615608598294
-16.341125,0.2260883214925098
-16.341,0.2214132895703452
-16.340875,0.2174061193512664
-16.34075,0.21373287998384
-16.340625,0.2087239172100765
-16.3405,0.2030470927330524
-16.340375,0.1967024065531367
-16.34025,0.1906916512246157
-16.340125,0.1840130341928437
-16.34,0.1770004863095749
-16.339875,0.1709897309810588
-16.33975,0.1649789756524747
-16.339625,0.1603039437304316
-16.3395,0.1549610501050936
-16.339375,0.1529574649955105
-16.33925,0.1385963998895466
-16.339125,0.09785887448411294
-16.339,0.07882481594335029
-16.338875,0.04709934655592993
-16.33875,-0.003992073736175092
-16.338625,-0.04973856191611567
-16.3385,-0.09181384921572835
-16.338375,-0.133889136515341
-16.33825,-0.1773001472218786
-16.338125,-0.2177057802623942
-16.338,-0.254772104788292
-16.337875,-0.2848258814314119
-16.33775,-0.3118742804097344
-16.337625,-0.3385887485364726
-16.3375,-0.3646353549603971
-16.337375,-0.3890123071253362
-16.33725,-0.4160607061036198
-16.337125,-0.44344303593392
-16.337,-0.4694896423574898
-16.336875,-0.4915290785620489
-16.33675,-0.5088934828445112
-16.336625,-0.514570307321278
-16.3365,-0.5245882328688873
-16.336375,-0.532936504158493
-16.33625,-0.5376115360806722
-16.336125,-0.5386133286354249
-16.336,-0.5386133286354394
-16.335875,-0.5396151211901631
-16.33575,-0.5392811903385933
-16.335625,-0.5366097435259196
-16.3355,-0.5312668499005719
-16.335375,-0.5239203711657189
-16.33525,-0.5162399615791504
-16.335125,-0.5072217900987968
-16.335,-0.4958701796326438
-16.334875,-0.4811751836750957
-16.33475,-0.4641447102443001
-16.334625,-0.4491198604106965
-16.3345,-0.4384340731599817
-16.334375,-0.4264125625032993
-16.33425,-0.4120514973971606
-16.334125,-0.3976945092668809
-16.334,-0.3809979666876695
-16.333875,-0.367640732623999
-16.33375,-0.3469349813376336
-16.333625,-0.3055275557423945
-16.3335,-0.2748079558838851
-16.333375,-0.2517667271245734
-16.33325,-0.2126947790013766
-16.333125,-0.1632730129663133
-16.333,-0.1222015567093925
-16.332875,-0.08780667899721814
-16.33275,-0.05808683320572136
-16.332625,-0.03304201933690429
-16.3325,-0.01367402994501908
-16.332375,0.001686789228025463
-16.33225,0.01337436903343455
-16.332125,0.0223905020259463
-16.332,0.02940304990934628
-16.331875,0.03507987438627815
-16.33175,0.04075669886321002
-16.331625,0.04643352334023422
-16.3315,0.05277820952035398
-16.331375,0.06045861910656768
-16.33125,0.06980868295103783
-16.331125,0.0791587467953962
-16.331,0.08984657253393358
-16.330875,0.1516258185654846
-16.33075,0.1946988214438014
-16.330625,0.2127310874288249
-16.3305,0.2481297961848575
-16.330375,0.2972155928798969
-16.33025,0.3392908801795095
-16.330125,0.3800304440729602
-16.33,0.3920499162418054
-16.329875,0.3803643749245396
-16.32975,0.3713482419315954
-16.329625,0.3633339014935739
-16.3295,0.3566552844618894
-16.329375,0.3509784599848894
-16.32925,0.3463034280627394
-16.329125,0.3436319812501433
-16.329,0.3409605344374307
-16.328875,0.3369533642184199
-16.32875,0.3336140557025777
-16.328625,0.328271162077128
-16.3285,0.3212586141938543
-16.328375,0.3139121354592151
-16.32825,0.3089031726853448
-16.328125,0.3038942099115814
-16.328,0.2975495237314811
-16.327875,0.2915387684028775
-16.32775,0.2855280130745363
-16.327625,0.280185119449179
-16.3275,0.2751761566753378
-16.327375,0.2705011247531586
-16.32725,0.2661600236825637
-16.327125,0.2631546460182765
-16.327,0.2611510609088294
-16.326875,0.2598153375024828
-16.32675,0.2584796140961265
-16.326625,0.257811752392958
-16.3265,0.2568099598382053
-16.326375,0.2551403055802453
-16.32625,0.2524688587676492
-16.326125,0.2494634811033961
-16.326,0.2457902417359258
-16.325875,0.2421170023684993
-16.32575,0.2377759012979044
-16.325625,0.2337687310788401
-16.3255,0.2300954917115206
-16.325375,0.2267561831956734
-16.32525,0.2264222523440406
-16.325125,0.2250865289377037
-16.325,0.2247525980861194
-16.324875,0.2264222523440697
-16.32475,0.2284258374535168
-16.324625,0.228425837453546
-16.3245,0.2280919066019617
-16.324375,0.2257543906408721
-16.32425,0.2224150821250299
-16.324125,0.2180739810543523
-16.324,0.2123971565775856
-16.323875,0.2067203321006537
-16.32375,0.2007116152598971
-16.323625,0.1957006139982917
-16.3235,0.1890219969666071
-16.323375,0.1816755182316423
-16.32325,0.1739951086454286
-16.323125,0.1663146990589914
-16.323,0.1589682203240266
-16.322875,0.1526235341439263
-16.32275,0.1496181564796682
-16.322625,0.1432734702990431
-16.3225,0.1072068998411541
-16.322375,0.07849088509264561
-16.32225,0.05778717229400562
-16.322125,0.01537591565496664
-16.322,-0.03237415763373584
-16.321875,-0.07444944493396564
-16.32175,-0.1168586630839283
-16.321625,-0.1599357429382839
-16.3215,-0.201343168535355
-16.321375,-0.2407470090222939
-16.32125,-0.2734701939897061
-16.321125,-0.3025242165658085
-16.321,-0.3322440623559398
-16.320875,-0.3609621155926158
-16.32075,-0.3866747911646014
-16.320625,-0.4143890133582502
-16.3205,-0.4384340731601566
-16.320375,-0.4614732634319178
-16.32025,-0.4815091145263884
-16.320125,-0.5028806890280705
-16.32,-0.5152361305366869
-16.319875,-0.5202450933104503
-16.31975,-0.5272576411937192
-16.319625,-0.533268396522279
-16.3195,-0.5362737741864496
-16.319375,-0.5376094975928303
-16.31925,-0.5379454669322564
-16.319125,-0.5376115360806722
-16.319,-0.5362758126743061
-16.318875,-0.5342722275647717
-16.31875,-0.5302650573458775
-16.318625,-0.5239183326778769
-16.3185,-0.5152361305366869
-16.318375,-0.5048842741375759
-16.31825,-0.4898573858160232
-16.318125,-0.4718251198305041
-16.318,-0.4557984774427697
-16.317875,-0.4437769667855043
-16.31775,-0.4304176942342931
-16.317625,-0.4133872208034975
-16.3175,-0.3966927167119241
-16.317375,-0.3826676209454352
-16.31725,-0.3719818336950508
-16.317125,-0.3596243536984368
-16.317,-0.3198865823599137
-16.316875,-0.2811526420639854
-16.31675,-0.2607828601169587
-16.316625,-0.234066353502121
-16.3165,-0.1896535502427112
-16.316375,-0.1439050235750258
-16.31625,-0.1038353598727605
-16.316125,-0.06576724279215861
-16.316,-0.03304201933656899
-16.315875,-0.01000079057734961
-16.31575,0.006695752001375836
-16.315625,0.01905119351023522
-16.3155,0.02873518820617783
-16.315375,0.03608166694103083
-16.31525,0.04209242226962468
-16.315125,0.04743531589497232
-16.315,0.05277820952016447
-16.314875,0.05812110314558985
-16.31475,0.06413185847410595
-16.314625,0.07147833720895896
-16.3145,0.07982660849863754
-16.314375,0.08483557127297928
-16.31425,0.1295863823596476
-16.314125,0.1850168652354384
-16.314,0.2090578480616608
-16.313875,0.2407833174500045
-16.31375,0.2868657749692692
-16.313625,0.3309426088905016
-16.3135,0.3720181421220082
-16.313375,0.3950552939062335
-16.31325,0.384037614291796
-16.313125,0.3746875504474377
-16.313,0.3660053483061457
-16.312875,0.3589928004228672
-16.31275,0.3513123908366534
-16.312625,0.3446337738048572
-16.3125,0.339958741882678
-16.312375,0.3342819174057461
-16.31225,0.3316104705930237
-16.312125,0.3282711620772786
-16.312,0.3252657844130157
-16.311875,0.320924683342377
-16.31175,0.3165835822717821
-16.311625,0.3119085503496029
-16.3115,0.307567449278901
-16.311375,0.3002209705442618
-16.31125,0.2945441460673056
-16.311125,0.2885333907387069
-16.311,0.2831904971133593
-16.310875,0.2785154651911801
-16.31075,0.2731725715657596
-16.310625,0.2681636087921419
-16.3105,0.2631546460183785
-16.310375,0.2588135449477106
-16.31025,0.2558081672834526
-16.310125,0.253470651322363
-16.31,0.2524688587676006
-16.309875,0.2518009970644516
-16.30975,0.2514670662128625
-16.309625,0.2507992045096892
-16.3095,0.2491295502517681
-16.309375,0.2467920342906785
-16.30925,0.2444545183295403
-16.309125,0.2411152098137953
-16.309,0.237775901297953
-16.308875,0.2337687310788936
-16.30875,0.228425837453546
-16.308625,0.2267561831956248
-16.3085,0.2247525980860757
-16.308375,0.2217472204219052
-16.30825,0.2207454278671233
-16.308125,0.2214132895702772
-16.308,0.2227490129766141
-16.307875,0.2227490129766141
-16.30775,0.2224150821250105
-16.307625,0.2210813972065545
-16.3075,0.2204114970155343
-16.307375,0.216738257648098
-16.30725,0.2113953640227504
-16.307125,0.20505067784265
-16.307,0.1993738533656258
-16.306875,0.1930291671857101
-16.30675,0.1856826884508717
-16.306625,0.1786701405674961
-16.3065,0.1709897309810588
-16.306375,0.1629753905430374
-16.30625,0.1546271192533345
-16.306125,0.1479485022218443
-16.306,0.1436074011512153
-16.305875,0.1182266179429088
-16.30575,0.08149626275648579
-16.305625,0.06313006591935327
-16.3055,0.02606170290497678
-16.305375,-0.02102050867918695
-16.30525,-0.06042434916681096
-16.305125,-0.1008299822085025
-16.305,-0.1439070620628679
-16.304875,-0.186650211065649
-16.30475,-0.2253861898499199
-16.304625,-0.2597810675620944
-16.3045,-0.2918384293146807
-16.304375,-0.3235618602151824
-16.30425,-0.3526138443030101
-16.304125,-0.3799961741329168
-16.304,-0.4087121888817266
-16.303875,-0.4367644189018273
-16.30375,-0.4614732634316263
-16.303625,-0.4821769762298484
-16.3035,-0.4978717262543071
-16.303375,-0.5098932369114073
-16.30325,-0.514570307321516
-16.303125,-0.5252540560840584
-16.303,-0.5315987422643141
-16.302875,-0.5336043658616615
-16.30275,-0.5342722275648299
-16.302625,-0.5342722275648494
-16.3025,-0.5356079509711766
-16.302375,-0.5362758126743256
-16.30225,-0.5346061584164142
-16.302125,-0.5309329190489877
-16.302,-0.5265918179783927
-16.301875,-0.5209129550135022
-16.30175,-0.5128986145754273
-16.301625,-0.5012110347703195
-16.3015,-0.4841805613393537
-16.301375,-0.4658143645022212
-16.30125,-0.4494517527745941
-16.301125,-0.4350947646441102
-16.301,-0.4210676303896917
