csv saver/84_2/vacum_ut.csv

#Digilent WaveForms Oscilloscope Acquisition
#Device Name: Discovery2
#Serial Number: SN:210321B2DC85
#Date Time: 2023-08-27 14:27:45.542
#Sample rate: 8000Hz
#Samples: 29145
#Trigger: Source: Channel 1 Type: Edge Condition: Rising Level: -11.02 mV Hyst.: Auto HoldOff: 0 s
#Math 1: Function: C1 - C2

Time (s),Math 1 (V)
-16.384,0.06950940639276908
-16.383875,0.2117313333621767
-16.38375,0.2103956099558398
-16.383625,0.2093938174010579
-16.3835,0.2073902322916108
-16.383375,0.2040488852878974
-16.38325,0.2003776844083129
-16.383125,0.1967024065530444
-16.383,0.1936970288887863
-16.382875,0.1883541352633706
-16.38275,0.1836791033413275
-16.382625,0.1783362097159118
-16.3825,0.1723274928752378
-16.382375,0.1666486299104638
-16.38225,0.1616417056245425
-16.382125,0.1549610501045348
-16.382,0.1218998573108164
-16.381875,0.09418767360452854
-16.38175,0.07047654465420627
-16.381625,0.026063741393504
-16.3815,-0.01968478527407457
-16.381375,-0.05675110979996757
-16.38125,-0.09682281198890864
-16.381125,-0.138230237585936
-16.381,-0.1786358706276275
-16.380875,-0.2160340875172189
-16.38075,-0.2457539333086331
-16.380625,-0.2744740250327237
-16.3805,-0.3035260091197059
-16.380375,-0.3309083389500354
-16.38025,-0.3572888762251893
-16.380125,-0.3853370292704223
-16.38,-0.413389259291704
-16.379875,-0.4384320346726304
-16.37975,-0.4601375400249735
-16.379625,-0.4778358751592534
-16.3795,-0.4901913166678699
-16.379375,-0.4952002794416333
-16.37925,-0.5025467581765544
-16.379125,-0.5072217900986704
-16.379,-0.5075557209502448
-16.378875,-0.5075557209502497
-16.37875,-0.5068878592470812
-16.378625,-0.5075557209502497
-16.3785,-0.5052182049891164
-16.378375,-0.5022128273248389
-16.37825,-0.4978717262543703
-16.378125,-0.4928627634805436
-16.378,-0.4865180773004433
-16.377875,-0.4788376677140061
-16.37775,-0.4671500879083249
-16.377625,-0.4511214070322917
-16.3775,-0.4357626263477063
-16.377375,-0.4240730080541928
-16.37725,-0.412719359100329
-16.377125,-0.3976924707790388
-16.377,-0.3799941356448221
-16.376875,-0.3626317698503134
-16.37675,-0.347270950677886
-16.376625,-0.3362491940875409
-16.3765,-0.3015203855227812
-16.376375,-0.2634522684421793
-16.37625,-0.2407449705340533
-16.376125,-0.2133626407039231
-16.376,-0.170619491702386
-16.375875,-0.1305477895116567
-16.37575,-0.09648888113790755
-16.375625,-0.06176007257314787
-16.3755,-0.03337595018815322
-16.375375,-0.01033472142892412
-16.37525,0.007029682852950343
-16.375125,0.02072084776815636
-16.375,0.03073877331568319
-16.374875,0.03875311375370465
-16.37475,0.04476386908230336
-16.374625,0.05044069355907001
-16.3745,0.05611751803600188
-16.374375,0.06146041166143214
-16.37425,0.06780509784153246
-16.374125,0.07414978402163279
-16.374,0.081832232095985
-16.373875,0.08684119486960264
-16.37375,0.1242434887344068
-16.373625,0.1810096950164277
-16.3735,0.2010435076236393
-16.373375,0.2267582216834669
-16.37325,0.2725067483511621
-16.373125,0.3175874133137208
-16.373,0.3553195610550034
-16.372875,0.3847054759949645
-16.37275,0.3750214812990219
-16.372625,0.3660053483062478
-16.3725,0.3576570770165352
-16.372375,0.350312636769738
-16.37225,0.3439659121017811
-16.372125,0.3366194333668357
-16.372,0.3299408163351512
-16.371875,0.3229282684518824
-16.37175,0.3169175131232643
-16.371625,0.3099049652401995
-16.3715,0.3035602790600895
-16.371375,0.2972155928798969
-16.37125,0.2905390143360544
-16.371125,0.2855280130744489
-16.371,0.2825226354101228
-16.370875,0.2778476034880797
-16.37075,0.2725047098627418
-16.370625,0.2684975396436532
-16.3705,0.2638245462093162
-16.370375,0.2604852376934739
-16.37025,0.2568119983259939
-16.370125,0.2531387589586743
-16.37,0.2504652736581439
-16.369875,0.2467920342906785
-16.36975,0.2441205874780047
-16.369625,0.2407812789621624
-16.3695,0.238777693852623
-16.369375,0.2364401778916015
-16.36925,0.2344386312699333
-16.369125,0.2331008693757252
-16.369,0.2307653919024777
-16.368875,0.2290957376445565
-16.36875,0.227424044898769
-16.368625,0.2257564291287385
-16.3685,0.2240847363829753
-16.368375,0.2230849823160404
-16.36825,0.2204135355033666
-16.368125,0.2214153280581193
-16.368,0.2220831897612683
-16.367875,0.2207474663549703
-16.36775,0.2204135355033666
-16.367625,0.2214153280581193
-16.3675,0.2227510514644562
-16.367375,0.2227510514644562
-16.36725,0.2220831897612537
-16.367125,0.2197456738002322
-16.367,0.2184079119060191
-16.366875,0.2160703959449295
-16.36675,0.2123991950653451
-16.366625,0.2093938174010871
-16.3665,0.2053866471820278
-16.366375,0.2020473386662827
-16.36625,0.1967044450408864
-16.366125,0.191695482267123
-16.366,0.1866844810055175
-16.365875,0.1806757641647561
-16.36575,0.1746650088362496
-16.365625,0.1693221152110575
-16.3655,0.1659828066951375
-16.365375,0.1436074011511521
-16.36525,0.1021999755547079
-16.365125,0.08383581720495581
-16.365,0.0521103478163837
-16.364875,0.004690128404961399
-16.36475,-0.03938670551700461
-16.364625,-0.0791244768555277
-16.3645,-0.1188622481940508
-16.364375,-0.1586000195331424
-16.36425,-0.1976699291684095
-16.364125,-0.2307270449864439
-16.364,-0.2597790290747528
-16.363875,-0.2874973282440857
-16.36375,-0.3162153814803293
-16.363625,-0.3435977113106198
-16.3635,-0.3699782485857884
-16.363375,-0.3973585399270561
-16.36325,-0.4237390772026086
-16.363125,-0.4494517527745941
-16.363,-0.468485811314895
-16.362875,-0.4838466304878278
-16.36275,-0.487853800706892
-16.362625,-0.4955342102931057
-16.3625,-0.5008771039185651
-16.362375,-0.5042164124344074
-16.36225,-0.5048842741375759
-16.362125,-0.5032146198796499
-16.362,-0.5028806890280462
-16.361875,-0.5012110347701737
-16.36175,-0.4995434190000703
-16.361625,-0.4958681411448017
-16.3615,-0.4915270400742068
-16.361375,-0.4848484230424153
-16.36125,-0.4775019443075282
-16.361125,-0.4678179496118675
-16.361,-0.4534589229936048
-16.360875,-0.4387659655238988
-16.36075,-0.4254087314605297
-16.360625,-0.4127193591000958
-16.3605,-0.3966906782240626
-16.360375,-0.3813318975394772
-16.36025,-0.3666389400695477
-16.360125,-0.350944190045089
-16.36,-0.3389206409002147
-16.359875,-0.3122061727728448
-16.35975,-0.2687951620671382
-16.359625,-0.2420827324290195
-16.3595,-0.2237144971036562
-16.359375,-0.1873160342809753
-16.35925,-0.1425693001686889
-16.359125,-0.102831528829641
-16.359,-0.066766996859594
-16.358875,-0.03504560444687126
-16.35875,-0.01033472142917681
-16.358625,0.007697544556371486
-16.3585,0.0223905020260775
-16.358375,0.03274235842531004
-16.35825,0.04109062971467277
-16.358125,0.04743531589480224
-16.358,0.05278024800808431
-16.357875,0.05845503399717408
-16.35775,0.06379792762252172
-16.357625,0.07014261380270952
-16.3575,0.07615336913105068
-16.357375,0.08383581720530568
-16.35725,0.08951060319450725
-16.357125,0.1018680831909658
-16.357,0.1659848451829795
-16.356875,0.2020453001786592
-16.35675,0.2204114970152573
-16.356625,0.2584816525834145
-16.3565,0.3038962483994235
-16.356375,0.3436340197379465
-16.35625,0.3830358217370434
-16.356125,0.3830337832490604
-16.356,0.3733518270412416
-16.355875,0.3640038016847205
-16.35575,0.3563233920981472
-16.355625,0.3496447750664627
-16.3555,0.3426322271831939
-16.355375,0.3359536101514024
-16.35525,0.3286071314167632
-16.355125,0.3222624452366483
-16.355,0.3152498973532872
-16.354875,0.3095730728763553
-16.35475,0.3025605249930866
-16.354625,0.2958819079613145
-16.3545,0.2898691141451313
-16.354375,0.2865318441170922
-16.35425,0.2818568121948645
-16.354125,0.276847849421101
-16.354,0.2725067483505061
-16.353875,0.2678317164282783
-16.35375,0.2644924079125332
-16.353625,0.2601513068419528
-16.3535,0.2564780674744632
-16.353375,0.2528048281070366
-16.35325,0.2497974119549366
-16.353125,0.246792034290625
-16.353,0.2431187949233054
-16.352875,0.2407812789621964
-16.35275,0.2377759012979044
-16.352625,0.2364401778915674
-16.3525,0.2337707695667357
-16.352375,0.231767184457206
-16.35225,0.2300954917114914
-16.352125,0.2277600142382196
-16.352,0.2267561831956248
-16.351875,0.2244186672345352
-16.35175,0.2230849823160404
-16.351625,0.2204114970155197
-16.3515,0.2200796046517872
-16.351375,0.2207474663549508
-16.35125,0.2204114970155245
-16.351125,0.2190778120970297
-16.351,0.2194117429486139
-16.350875,0.2204135355033569
-16.35075,0.2197456738002078
-16.350625,0.2184099503938612
-16.3505,0.216738257648098
-16.350375,0.2154045727296031
-16.35025,0.2134009876200589
-16.350125,0.2107295408073754
-16.35,0.2073902322916303
-16.349875,0.2037169929241552
-16.34975,0.2000437535567287
-16.349625,0.1950347907829653
-16.3495,0.1906936897122877
-16.349375,0.1850168652353656
-16.34925,0.1800079024617479
-16.349125,0.1739951086453168
-16.349,0.1673185301014744
-16.348875,0.1639792215856321
-16.34875,0.154627119252834
-16.348625,0.1135536245081781
-16.3485,0.08650726401848487
-16.348375,0.06179434251301635
-16.34825,0.01738153925231408
-16.348125,-0.02769912571155664
-16.348,-0.06743485856282565
-16.347875,-0.107842530092369
-16.34775,-0.1489160248360336
-16.347625,-0.1876520036204017
-16.3475,-0.2237144971036562
-16.347375,-0.2544361354494051
-16.34725,-0.2828202578344776
-16.347125,-0.3112064187069644
-16.347,-0.338586710048232
-16.346875,-0.365635109026953
-16.34675,-0.393685300560028
-16.346625,-0.4203997686867663
-16.3465,-0.4444427900011222
-16.346375,-0.4644786410961662
-16.34625,-0.4838466304874877
-16.346125,-0.4941984868868806
-16.346,-0.502212827324902
-16.345875,-0.5058860666923286
-16.34575,-0.5088914443565915
-16.345625,-0.5092253752081757
-16.3455,-0.5095593060597502
-16.345375,-0.5098932369113393
-16.34525,-0.5095593060597551
-16.345125,-0.5082235826534182
-16.345,-0.5042164124343442
-16.344875,-0.4998753113637299
-16.34475,-0.4941984868869632
-16.344625,-0.4878538007067802
-16.3445,-0.4798394602687588
-16.344375,-0.4668161570569739
-16.34425,-0.4517892687354553
-16.344125,-0.4360945187110646
-16.344,-0.4250748006091059
-16.343875,-0.4123854282487448
-16.34375,-0.3970246090758703
-16.343625,-0.378992343090322
-16.3435,-0.3622958005109212
-16.343375,-0.3492745357873573
-16.34325,-0.332242023868778
-16.343125,-0.2921703216784228
-16.343,-0.2597790290747528
-16.342875,-0.2397431779796991
-16.34275,-0.207017954523852
-16.342625,-0.1662783906317619
-16.3425,-0.1272084809963829
-16.342375,-0.09281564177048103
-16.34225,-0.06376365768265323
-16.342125,-0.03972063636858884
-16.342,-0.01935085442171285
-16.341875,-0.00298824269456191
-16.34175,0.008031475407795355
-16.341625,0.01771547010389831
-16.3415,0.02439408713558287
-16.341375,0.03107270416726741
-16.34125,0.03574977457736644
-16.341125,0.04109266820255858
-16.341,0.04710342353106496
-16.340875,0.05344607122341066
-16.34075,0.06112648080984791
-16.340625,0.06813902869311668
-16.3405,0.07381585317077266
-16.340375,0.1235756270310585
-16.34025,0.1726614237261078
-16.340125,0.1906916512245282
-16.34,0.2230849823160404
-16.339875,0.2698353015378323
-16.33975,0.3102388960922697
-16.339625,0.3506445291327853
-16.3395,0.3780268589628815
-16.339375,0.3683428642673373
-16.33925,0.3586588695713948
-16.339125,0.3509784599849575
-16.339,0.3436319812500024
-16.338875,0.3366194333669377
-16.33875,0.329606885483669
-16.338625,0.3225943376002982
-16.3385,0.3162496514201978
-16.338375,0.3089031726853448
-16.33825,0.3022265941414051
-16.338125,0.2955459386220729
-16.338,0.2898691141451264
-16.337875,0.2828565662617751
-16.33775,0.2781835728274379
-16.337625,0.2748422258237536
-16.3375,0.2688335089830164
-16.337375,0.2644924079125478
-16.33725,0.2598153375025314
-16.337125,0.2558102057712947
-16.337,0.2521349279160261
-16.336875,0.2484637270364417
-16.33675,0.244122625965803
-16.336625,0.2411152098137904
-16.3365,0.2377759012979044
-16.336375,0.2347705236336463
-16.33625,0.2320990768209725
-16.336125,0.2287597683051302
-16.336,0.2270901140471799
-16.335875,0.2250865289377328
-16.33575,0.2230849823160404
-16.335625,0.2207474663549508
-16.3355,0.2187438812454454
-16.335375,0.2170742269875243
-16.33525,0.2150706418780043
-16.335125,0.2140688493232809
-16.335,0.2120652642137609
-16.334875,0.2103956099558398
-16.33475,0.2110634716590082
-16.334625,0.2117313333621524
-16.3345,0.2100616791042604
-16.334375,0.2103956099558349
-16.33425,0.2117292948743346
-16.334125,0.2113974025105924
-16.334,0.2103956099558398
-16.333875,0.2080580939947307
-16.33375,0.2067223705883938
-16.333625,0.2053866471820958
-16.3335,0.203383062072571
-16.333375,0.2000437535567287
-16.33325,0.1963705141893022
-16.333125,0.1930291671855547
-16.333,0.1886880661149549
-16.332875,0.1840150726807538
-16.33275,0.1783382482037539
-16.332625,0.1736632162815747
-16.3325,0.1676504224652165
-16.332375,0.1619735979882021
-16.33225,0.1562988119991171
-16.332125,0.1509538798860829
-16.332,0.1205661723918404
-16.331875,0.08817691827601244
-16.33175,0.06813902869311668
-16.331625,0.0257298105412346
-16.3315,-0.02135443953202969
-16.331375,-0.06075624152997972
-16.33125,-0.100162120505334
-16.331125,-0.1405657150591835
-16.331,-0.1813073174403013
-16.330875,-0.2200412577366864
-16.33075,-0.2514307577855505
-16.330625,-0.2791470184662346
-16.3305,-0.3092007951092184
-16.330375,-0.3375869559817199
-16.33025,-0.3636315239174476
-16.330125,-0.3886763377866874
-16.33,-0.4177283218745103
-16.329875,-0.4464463751099181
-16.32975,-0.4688197421664793
-16.329625,-0.4855162847456906
-16.3295,-0.4978717262543071
-16.329375,-0.5032146198797666
-16.32925,-0.5108950294661844
-16.329125,-0.5172397156460999
-16.329,-0.5182415082009449
-16.328875,-0.5179075773493608
-16.32875,-0.5169057847946081
-16.328625,-0.5169057847945887
-16.3285,-0.5155700613882275
-16.328375,-0.5125646837240568
-16.32825,-0.5088914443565866
-16.328125,-0.5032146198796548
-16.328,-0.4975377954027229
-16.327875,-0.4895234549645507
-16.32775,-0.479171598565741
-16.327625,-0.4641447102445188
-16.3275,-0.4481160293682572
-16.327375,-0.434758795304888
-16.32725,-0.4224033537962716
-16.327125,-0.4080463656657684
-16.327,-0.3926835080054989
-16.326875,-0.3763208962778863
-16.32675,-0.3589585304831104
-16.326625,-0.3462691581229098
-16.3265,-0.3132079653282292
-16.326375,-0.2744719865441624
-16.32625,-0.2541022045981173
-16.326125,-0.2290573907293683
-16.326,-0.1859803108746384
-16.325875,-0.1415675076139362
-16.32575,-0.1071746683886028
-16.325625,-0.07177595963237585
-16.3255,-0.04038849807221404
-16.325375,-0.01701333846120151
-16.32525,0.00135285837627116
-16.325125,0.01471213092748235
-16.325,0.026063741393504
-16.324875,0.03341225861630114
-16.32475,0.04042480649936583
-16.324625,0.04609959248847508
-16.3245,0.05211034781707376
-16.324375,0.05778717229400562
-16.32425,0.06346603525877959
-16.324125,0.0701446522905759
-16.324,0.07782506187678961
-16.323875,0.08383377871748794
-16.32375,0.1145594940390085
-16.323625,0.1743310779847431
-16.3235,0.1973702682562128
-16.323375,0.2210813972071668
-16.32325,0.2644924079118529
-16.323125,0.3095710343878573
-16.323,0.3496447750664627
-16.322875,0.3773589972601115
-16.32275,0.3686767951189215
-16.322625,0.3586588695712782
-16.3225,0.3506465676213319
-16.322375,0.3433000888864692
-16.32225,0.3372893335578462
-16.322125,0.3299428548229932
-16.322,0.3232621993034666
-16.321875,0.3169175131232643
-16.32175,0.3099070037280416
-16.321625,0.303896248399511
-16.3215,0.2968837005161547
-16.321375,0.2912068760392229
-16.32125,0.284194328155954
-16.321125,0.2791833268943097
-16.321,0.2765139185695557
-16.320875,0.2715049557957534
-16.32075,0.2671638547251584
-16.320625,0.262154891951395
-16.3205,0.2584816525839685
-16.320375,0.2541405515133298
-16.32025,0.2511351738491592
-16.320125,0.247461934481689
-16.32,0.2441226259658467
-16.319875,0.2407833174500045
-16.31975,0.2377779397857464
-16.319625,0.2351064929730337
-16.3195,0.2324350461604377
-16.319375,0.2304314610508934
-16.31925,0.2280939450898038
-16.319125,0.2267582216834669
-16.319,0.2244207057223579
-16.318875,0.2230849823160112
-16.31875,0.2210813972065642
-16.318625,0.2194117429486139
-16.3185,0.218076019542277
-16.318375,0.2160724344327716
-16.31825,0.2140688493232711
-16.318125,0.2144027801748699
-16.318,0.2157385035811679
-16.317875,0.2137349184716821
-16.31775,0.2134009876200978
-16.317625,0.2144027801748505
-16.3175,0.2157385035811971
-16.317375,0.2164063652843461
-16.31725,0.2157385035811971
-16.317125,0.2147346725385927
-16.317,0.2123991950653451
-16.316875,0.2110634716590082
-16.31675,0.2073902322915331
-16.316625,0.204050923775686
-16.3165,0.2003776844083664
-16.316375,0.1967044450408864
-16.31625,0.1923633439702915
-16.316125,0.187352342708686
-16.316,0.1813436258679245
-16.315875,0.1753328705394181
-16.31575,0.1699879384263839
-16.315625,0.1636452907340479
-16.3155,0.160971805433532
-16.315375,0.1409339158506362
-16.31525,0.09819280533542508
-16.315125,0.07949471613435599
-16.315,0.04743531589536109
-16.314875,0.000684996673102704
-16.31475,-0.04139029062650998
-16.314625,-0.0814619928166173
-16.3145,-0.1232033492652337
-16.314375,-0.1636069438190443
-16.31425,-0.2013431685348059
-16.314125,-0.2360699386122726
-16.314,-0.2661237152548531
-16.313875,-0.2935060450847597
-16.31375,-0.3205544440634855
-16.313625,-0.3482727432328185
-16.3135,-0.3759890039135027
-16.313375,-0.4047050186623076
-16.31325,-0.4290840093157983
-16.313125,-0.453792853845189
-16.313,-0.4744965666436736
-16.312875,-0.4925288326290372
-16.31275,-0.4978717262542293
-16.312625,-0.5042164124344074
-16.3125,-0.5092253752081708
-16.312375,-0.5118968220208446
-16.31225,-0.513566476278761
-16.312125,-0.5132325454271864
-16.312,-0.5132325454271816
-16.311875,-0.5115628911692605
-16.31175,-0.5088914443565866
-16.311625,-0.5055521358407443
-16.3115,-0.5012110347700717
-16.311375,-0.4958681411448795
-16.31125,-0.4885216624100556
-16.311125,-0.4791715985655903
-16.311,-0.4641447102443001
-16.310875,-0.4491178219230099
-16.31075,-0.4367623804142282
-16.310625,-0.4254087314606949
-16.3105,-0.4103818431394581
-16.310375,-0.3920156463021069
-16.31025,-0.375986965426064
-16.310125,-0.3609621155926158
-16.31,-0.3522778749632388
-16.309875,-0.3285687845014487
-16.30975,-0.2838220503894683
-16.309625,-0.252766481191484
-16.3095,-0.233732422651183
-16.309375,-0.2006732683443445
-16.30925,-0.15759618848943
-16.309125,-0.1198620022615105
-16.309,-0.08045816177459592
-16.308875,-0.04172422147809421
-16.30875,-0.01300616824185063
-16.308625,0.008031475407955712
-16.3085,0.02406015628417357
-16.308375,0.0360816669408559
-16.30825,0.04476386908209441
-16.308125,0.05177641696548953
-16.308,0.05678537973925295
-16.307875,0.06246220421618481
-16.30775,0.06747116699002602
-16.307625,0.07281609910306018
-16.3075,0.07882685443156659
-16.307375,0.08617333316650708
-16.30725,0.09218408849502317
-16.307125,0.1032038065973027
-16.307,0.163647329222405
-16.306875,0.1990399225136189
-16.30675,0.2190778120967381
-16.306625,0.2564780674744632
-16.3065,0.3018926632899181
-16.306375,0.3406286420736885
-16.30625,0.3743536195957757
-16.306125,0.3690086874827415
-16.306,0.3586588695715454
-16.305875,0.3503126367696311
-16.30575,0.3422982963316096
-16.305625,0.3356196792999251
-16.3055,0.328605092928717
-16.305375,0.3219264758972269
-16.30525,0.3152478588654452
-16.305125,0.3082373494700185
-16.305,0.3015587324383339
-16.304875,0.2945461845550651
-16.30475,0.2888693600780312
-16.304625,0.2818568121949665
-16.3045,0.2755121260147641
-16.304375,0.2721728174989219
-16.30425,0.2674957470889006
-16.304125,0.2624888228029792
-16.304,0.2578137908807418
-16.303875,0.2538066206618476
-16.30375,0.2497994504427787
-16.303625,0.2467920342906785
-16.3035,0.2417851100047571
-16.303375,0.2387797323404505
-16.30325,0.2354383853367759
-16.303125,0.2327669385241798
-16.303,0.2294276300082987
-16.302875,0.2264242908318827
-16.30275,0.224084736382951
-16.302625,0.2217492589096889
-16.3025,0.2207474663549168
-16.302375,0.2184079119060532
-16.30225,0.216738257648098
-16.302125,0.2144007416870084
-16.302,0.2127331259169294
-16.301875,0.2110634716589936
-16.30175,0.2100616791042263
-16.301625,0.2080560555069373
-16.3015,0.206388439736829
-16.301375,0.2077241631431659
-16.30125,0.2070563014399975
-16.301125,0.2063884397368339
-16.301,0.2067223705884375
